40
Lattice="8.29052555 -8.29052555 0.0 8.29052555 8.29052555 0.0 0.0 0.0 11.72457367" Properties=species:S:1:pos:R:3 pbc="T T T"
Pb       0.00000000       0.00000000       0.00000000
Pb       4.14526277      -4.14526277       0.00000000
Pb       4.14526277       4.14526277       0.00000000
Pb       8.29052555       0.00000000       0.00000000
Pb       0.00000000       0.00000000       5.86228684
Pb       4.14526277      -4.14526277       5.86228684
Pb       4.14526277       4.14526277       5.86228684
Pb       8.29052555       0.00000000       5.86228684
Br       2.07263139      -2.07263139       0.00000000
Br       2.07263139       2.07263139       0.00000000
Br       0.00000000       0.00000000       2.93114342
Br       6.21789416      -6.21789416       0.00000000
Br       6.21789416      -2.07263139       0.00000000
Br       4.14526277      -4.14526277       2.93114342
Br       6.21789416       2.07263139       0.00000000
Br       6.21789416       6.21789416       0.00000000
Br       4.14526277       4.14526277       2.93114342
Br      10.36315694      -2.07263139       0.00000000
Br      10.36315694       2.07263139       0.00000000
Br       8.29052555       0.00000000       2.93114342
Br       2.07263139      -2.07263139       5.86228684
Br       2.07263139       2.07263139       5.86228684
Br       0.00000000       0.00000000       8.79343025
Br       6.21789416      -6.21789416       5.86228684
Br       6.21789416      -2.07263139       5.86228684
Br       4.14526277      -4.14526277       8.79343025
Br       6.21789416       2.07263139       5.86228684
Br       6.21789416       6.21789416       5.86228684
Br       4.14526277       4.14526277       8.79343025
Br      10.36315694      -2.07263139       5.86228684
Br      10.36315694       2.07263139       5.86228684
Br       8.29052555       0.00000000       8.79343025
Cs       4.14515682      -0.00000033       2.93105396
Cs       8.29052580      -4.14536848       2.93105279
Cs       8.29050632       4.14536856       2.93106639
Cs      12.43589701      -0.00001368       2.93104200
Cs       4.14515972       0.00000887       8.79350998
Cs       8.29053036      -4.14536989       8.79351350
Cs       8.29051353       4.14537760       8.79350693
Cs      12.43590713      -0.00000622       8.79353237
