0 011110101101101101011111 -7155323.624276382 -7155323.93540304 81 1
1 011110101101001101111111 -7155323.624555792 -7155323.957625701 91 1
2 011111101001001101111111 -7155323.649722343 -7155323.978238939 78 1
3 010111101101001101111111 -7155323.627008813 -7155323.957440088 78 0
4 111111101000001101111111 -7155323.624243767 -7155323.931937046 117 0
5 011111111001001001111111 -7155323.64443326 -7155323.941926951 85 0
6 111101101001001101111111 -7155323.6438757405 -7155323.950611201 79 0
7 110111101001001101111111 -7155323.624243767 -7155323.931937081 117 0
8 111111101001000101111111 -7155323.627126217 -7155323.933982234 140 0
9 001111101001011101111111 -7155323.644681043 -7155323.94850322 101 0
10 011111101001101101111011 -7155323.649722343 -7155323.979408845 85 1
11 010111101101101101111011 -7155323.624243767 -7155323.92911587 82 0
12 011111101101001101111011 -7155323.649722343 -7155323.979408838 85 1
13 011101101101001111111011 -7155323.643436829 -7155323.928681649 79 0
14 011101101111001101111011 -7155323.649062616 -7155323.977726393 80 1
15 111101101111001001111011 -7155323.644755004 -7155323.950695517 91 0
16 011101101111001001111111 -7155323.644092403 -7155323.952198511 92 0
17 011101101111101100111011 -7155323.623422411 -7155323.93496866 92 0
18 011111101111001101101011 -7155323.644191241 -7155323.955524475 92 0
19 011100111111001101111011 -7155323.62417102 -7155323.9529726235 89 0
20 011101111101001101111011 -7155323.644552697 -7155323.946449298 82 0
21 011101101111001100111111 -7155323.623949962 -7155323.959366191 79 0
22 011111101111001101011011 -7155323.64486915 -7155323.955471587 89 0
23 001101101111001101111111 -7155323.644966231 -7155323.977081095 103 1
24 001101101111101101111101 -7155323.637521793 -7155323.942403693 83 0
25 001111001111001101111111 -7155323.64526856 -7155323.963039099 89 0
26 001111101111000101111111 -7155323.62217152 -7155323.942860236 140 0
27 001100101111011101111111 -7155323.618940956 -7155323.92222629 101 0
28 101101101111001101011111 -7155323.644557401 -7155323.968955586 91 0
29 101101101111001101111110 -7155323.620879623 -7155323.902700296 89 0
30 001101101111010101111111 -7155323.621804068 -7155323.933990463 134 0
31 001101101111101101101111 -7155323.638120918 -7155323.955516054 83 0
32 011101101111001101011111 -7155323.649802211 -7155323.992332698 84 1
33 011111101111001101010111 -7155323.624438646 -7155323.9427298065 93 0
34 111101101101001101011111 -7155323.6439867355 -7155323.959179481 101 0
35 011101111101001101011111 -7155323.64526856 -7155323.961244023 95 0
36 011101111111001001011111 -7155323.645320704 -7155323.973558592 93 0
37 011111101011001101011111 -7155323.649263221 -7155323.980623076 89 0
38 011101101011011101011111 -7155323.648598768 -7155323.978325838 84 0
39 001101101111001111011111 -7155323.644444705 -7155323.958860844 96 0
40 011101101111101100011111 -7155323.623422411 -7155323.939045447 101 0
41 011101101110001101111111 -7155323.621594751 -7155323.9385487 103 0
42 011101101011101101011111 -7155323.648006852 -7155323.97293174 77 0
43 111101101111001100011111 -7155323.624624882 -7155323.951201297 95 0
44 011101101101001111011111 -7155323.6438757405 -7155323.9438060215 81 0
45 011101101111001111011011 -7155323.643024231 -7155323.931976831 83 0
46 111101001111001101011111 -7155323.650720794 -7155323.995644482 82 1
47 111101100111001101011111 -7155323.627526797 -7155323.953114881 96 0
48 111101101111001101001111 -7155323.64526856 -7155323.969989973 86 0
49 111101001110011101011111 -7155323.625867388 -7155323.955055849 92 0
50 111111001111000101011111 -7155323.622781259 -7155323.95076899 101 0
51 111101011111001101010111 -7155323.622855462 -7155323.955696581 91 0
52 111101011111001001011111 -7155323.645824182 -7155323.966587744 96 0
53 111101001111011101011011 -7155323.6440638 -7155323.946422108 86 0
54 111101011111001001011111 -7155323.645824182 -7155323.966587744 96 0
55 111101001111001111011011 -7155323.64384272 -7155323.943594534 84 0
56 111101101111001101011101 -7155323.644755004 -7155323.967129708 88 0
57 111100001111101101011111 -7155323.62516722 -7155323.941532982 89 0
58 111101001111011101001111 -7155323.650524363 -7155323.988692298 82 0
59 111101101101001101011111 -7155323.6439867355 -7155323.959179481 101 0
60 111111001111001100011111 -7155323.62513621 -7155323.946681555 96 0
61 111101011111001101010111 -7155323.622855462 -7155323.955696581 91 0
62 111101001111011100011111 -7155323.624970833 -7155323.9490342485 101 0
63 111101011011001101011111 -7155323.645268561 -7155323.960732495 82 0
64 111101001101001111011111 -7155323.644293462 -7155323.947910709 102 0
65 111111001011001101011111 -7155323.644755005 -7155323.950820575 90 0
66 111001011111001101011111 -7155323.650720794 -7155323.99490087 81 1
67 111011011111001101011101 -7155323.644755005 -7155323.950695374 91 0
68 110001011111011101011111 -7155323.627354923 -7155323.940475497 91 0
69 111001011111101101010111 -7155323.622606377 -7155323.936113416 90 0
70 111011011111000101011111 -7155323.622425227 -7155323.953007024 106 0
71 111000011111101101011111 -7155323.625673508 -7155323.943228676 91 0
72 110001011111001101111111 -7155323.627135553 -7155323.931563195 82 0
73 111001111101001101011111 -7155323.644755005 -7155323.950947058 91 0
74 111001111111001101011101 -7155323.645369116 -7155323.962701356 89 0
75 111001011111001100111111 -7155323.627002802 -7155323.9473804515 97 0
76 111100011111001101011111 -7155323.625755857 -7155323.955530679 82 0
77 111001011111011101011101 -7155323.645006324 -7155323.957386121 87 0
78 111001011111100101011111 -7155323.6222878 -7155323.938151703 98 0
79 111001011111011101001111 -7155323.649970421 -7155323.979502695 79 0
80 110001011111101101011111 -7155323.627429135 -7155323.924061119 81 0
81 111001011111011101011011 -7155323.6440638 -7155323.959605668 87 0
82 111001011111001101111101 -7155323.6438427195 -7155323.94388921 85 0
83 011001011111101101011111 -7155323.644865811 -7155323.952483999 81 0
84 111001011111001101110111 -7155323.621870997 -7155323.923447911 80 0
85 111001011111001111011011 -7155323.64384272 -7155323.952396813 81 0
86 111011011111001101011011 -7155323.644755005 -7155323.9668791825 88 0
87 111001011110101101011111 -7155323.628439242 -7155323.957405402 104 0
88 111101011111001100011111 -7155323.62784003 -7155323.965996912 98 0
89 111001011111011001011111 -7155323.645056446 -7155323.967209269 91 0
90 110001011111101101011111 -7155323.627429135 -7155323.924061119 81 0
91 101001111111001101011111 -7155323.650939453 -7155324.004250754 79 1
92 011001111111001101011111 -7155323.645268561 -7155323.960530736 86 0
93 101011110111001101011111 -7155323.626891552 -7155323.948080601 96 0
94 100001111111011101011111 -7155323.627283392 -7155323.938557429 90 0
95 101011111111001101001111 -7155323.644869151 -7155323.96127732 90 0
96 101001111111001101111110 -7155323.624866564 -7155323.938867622 82 0
97 101001011111001111011111 -7155323.650264788 -7155323.994984429 95 0
98 111001110111001101011111 -7155323.627679633 -7155323.938936959 101 0
99 101001111111001110011111 -7155323.62725066 -7155323.94532223 92 0
100 111001111011001101011111 -7155323.650454068 -7155323.9930174295 79 0
101 101001111111001011011111 -7155323.644444706 -7155323.955991158 95 0
102 001011111111001101011111 -7155323.645268561 -7155323.960732558 82 0
103 111001011111001101011111 -7155323.650720794 -7155323.99490087 81 0
104 101001111111001101111110 -7155323.624866564 -7155323.938867622 82 0
105 101001011111101101011111 -7155323.6507586045 -7155324.000175197 80 0
106 101101111111001001011111 -7155323.645914478 -7155323.972097548 80 0
107 101101110111001101011111 -7155323.628147066 -7155323.972302101 95 0
108 101011111111001001011111 -7155323.645320703 -7155323.968261288 96 0
109 101101111111001101011011 -7155323.645914477 -7155323.972097563 80 0
110 100001111111101101011111 -7155323.627794544 -7155323.94613391 80 0
111 101001111111001100111111 -7155323.62737123 -7155323.975375224 100 0
112 101001111110001111011111 -7155323.624871405 -7155323.9452679735 101 0
113 111001111111001101010111 -7155323.6226923 -7155323.936338615 92 0
114 101001111011001101111111 -7155323.6509394515 -7155324.004005456 85 0
115 101101111111000101011111 -7155323.626263724 -7155323.975787918 103 0
116 101000111111101101011111 -7155323.623183455 -7155323.959350165 88 0
117 101101111111001101011110 -7155323.627980331 -7155323.95659096 81 0
118 101000111111011101011111 -7155323.625201241 -7155323.953278518 92 0
119 101001111110011101011111 -7155323.625305716 -7155323.948509631 102 0
120 101101111011001101011111 -7155323.6509394515 -7155324.004250672 79 1
121 101101011011001101111111 -7155323.64526856 -7155323.958109045 92 0
122 101101111011011101011101 -7155323.644755004 -7155323.952554493 90 0
123 101111111011001001011111 -7155323.645369116 -7155323.958473671 79 0
124 101101111011101001011111 -7155323.650264788 -7155323.99753522 83 0
125 101001111011001101111111 -7155323.6509394515 -7155324.004005456 85 1
126 101101111011001001111111 -7155323.64526856 -7155323.958402334 94 0
127 101011111011001100111111 -7155323.62725066 -7155323.939280689 96 0
128 101001111011101101011111 -7155323.650939453 -7155324.004005309 85 1
129 101001111101101101011111 -7155323.644444706 -7155323.963945654 92 0
130 111001111011100101011111 -7155323.624541502 -7155323.937974611 96 0
131 101101110011101101011111 -7155323.627371215 -7155323.975375261 100 0
132 101001111011111101011101 -7155323.644755005 -7155323.9508204525 90 0
133 101011111011101101011011 -7155323.645268561 -7155323.9630392045 89 0
134 101001111010111101011111 -7155323.627675487 -7155323.966237582 97 0
135 101101011011101101011111 -7155323.645733796 -7155323.974506343 89 0
136 101001111111101101011110 -7155323.62487227 -7155323.945197819 80 0
137 001001111111101101011111 -7155323.645268561 -7155323.9581089085 92 0
138 101011101011101101011111 -7155323.644755005 -7155323.9507609885 85 0
139 001001111011111101011111 -7155323.645369116 -7155323.959475732 89 0
140 101001101111101101011111 -7155323.644865811 -7155323.963420765 78 0
141 101101111011101101010111 -7155323.622949936 -7155323.974666903 89 0
142 101001101011101101111111 -7155323.645914477 -7155323.9872076055 97 0
143 101001111011111101011101 -7155323.644755005 -7155323.9508204525 90 0
144 101101111001101101011111 -7155323.644865809 -7155323.97292212 91 0
145 101011011011101101011111 -7155323.644444706 -7155323.952979675 93 0
146 101001011111101101011111 -7155323.6507586045 -7155324.000175197 80 0
147 101100111011101101011111 -7155323.62283846 -7155323.956738997 91 0
148 101001111011101111010111 -7155323.62458151 -7155323.960958711 102 0
149 101001110011101111011111 -7155323.626363426 -7155323.95602986 82 0
150 101001111001101101111111 -7155323.645914477 -7155323.987207709 97 0
151 111001111011101100011111 -7155323.6269247625 -7155323.935873025 88 0
152 101001110011101111011111 -7155323.626363426 -7155323.95602986 82 0
153 101000111011101111011111 -7155323.622396375 -7155323.9427772965 101 0
154 110001111011101101011111 -7155323.624646924 -7155323.9262337 80 0
155 101011111011101100011111 -7155323.626829558 -7155323.9252938675 82 0
156 101101110011101101011111 -7155323.627371215 -7155323.975375261 100 0
157 101101111011001101011111 -7155323.6509394515 -7155324.004250672 79 1
158 101111111011001100011111 -7155323.627679633 -7155323.938936944 101 0
159 001101111011011101011111 -7155323.6502647875 -7155323.994984401 95 0
160 101111111011001101011011 -7155323.645824181 -7155323.971498479 88 0
161 101101111011100101011111 -7155323.62532072 -7155323.9577454645 93 0
162 101101110111001101011111 -7155323.628147066 -7155323.972302101 95 0
163 101101101011001111011111 -7155323.6438757405 -7155323.949528327 96 0
164 101101111011001101111101 -7155323.644865809 -7155323.963612761 88 0
165 101111111011001101010111 -7155323.625201444 -7155323.959357681 81 0
166 101111111011001101011110 -7155323.627595567 -7155323.945784772 80 0
167 100101111011001101111111 -7155323.624872273 -7155323.945197708 80 0
168 101101111011101101011011 -7155323.645733795 -7155323.975597889 88 0
169 101101111011001111011011 -7155323.64486581 -7155323.957904712 94 0
170 101111111010001101011111 -7155323.625282471 -7155323.957786281 98 0
171 101110111011001101011111 -7155323.622692283 -7155323.9363387525 92 0
172 101101111010011101011111 -7155323.625080242 -7155323.957180559 101 0
173 111101111011001101010111 -7155323.622200131 -7155323.945727652 93 0
174 101101110011001111011111 -7155323.627008796 -7155323.95248463 102 0
175 100101111011011101011111 -7155323.624315298 -7155323.925740754 93 0
176 101101111011001101111011 -7155323.650758604 -7155324.001587178 84 0
177 101101110011101101011111 -7155323.627371215 -7155323.975375261 100 0
178 101100111011101101011111 -7155323.62283846 -7155323.956738997 91 0
179 111101111011001101001111 -7155323.64486915 -7155323.95360076 91 0
180 101111111011001100011111 -7155323.627679633 -7155323.938936944 101 0
181 101101110011001101111111 -7155323.627351849 -7155323.955615703 98 0
182 101100111011101101011111 -7155323.62283846 -7155323.956738997 91 0
183 011101111011001101011111 -7155323.649802211 -7155323.991058831 78 0
184 101101111011011101011101 -7155323.644755004 -7155323.952554493 90 0
185 100101111011011101011111 -7155323.624315298 -7155323.925740754 93 0
186 111001111011001101011111 -7155323.650454068 -7155323.9930174295 79 0
187 111001111011001101011111 -7155323.650454068 -7155323.9930174295 79 0
188 101101111011000101111111 -7155323.628282926 -7155323.964990087 106 0
189 111101111011001101011101 -7155323.64486915 -7155323.961277288 90 0
190 111101111011001101011110 -7155323.626493892 -7155323.953990339 81 0
191 101111101011001101011111 -7155323.644755004 -7155323.950947149 91 0
192 101111111011001101010111 -7155323.625201444 -7155323.959357681 81 0
193 101111101011001101011111 -7155323.644755004 -7155323.950947149 91 0
194 101101111001011101011111 -7155323.644293461 -7155323.949582694 91 0
195 101101111011101101011011 -7155323.645733795 -7155323.975597889 88 0
196 101001111011001111011111 -7155323.650454068 -7155323.994287643 91 0
197 101101111011001111011101 -7155323.649722342 -7155323.9827365205 82 0
198 101101111110001101011111 -7155323.626263727 -7155323.975787975 103 0
199 101101110011001111011111 -7155323.627008796 -7155323.95248463 102 0
