0 101000000110001011000001 -7684477.470397892 -7684477.768377673 98 1
1 101000000100101011000001 -7684477.470084053 -7684477.784910859 90 1
2 101000000100101010000011 -7684477.4434661325 -7684477.747054234 207 0
3 101000000000101111000001 -7684477.466190563 -7684477.785149192 92 1
4 100100000000101111000001 -7684477.443261974 -7684477.752451439 84 0
5 111000000000101011000001 -7684477.473007838 -7684477.792966282 91 1
6 111000000100101001000001 -7684477.471274844 -7684477.794807825 87 1
7 111000000100100001001001 -7684477.475030473 -7684477.814304215 77 1
8 011000000100100001101001 -7684477.473895389 -7684477.806035754 81 0
9 101000000100110001001001 -7684477.474115205 -7684477.807872526 89 0
10 101000000100100011001001 -7684477.471673303 -7684477.804255233 80 0
11 110000000100100001101001 -7684477.456148987 -7684477.786047846 77 0
12 111000000100100001001100 -7684477.451448745 -7684477.776003868 77 0
13 111000100100100000001001 -7684477.449488278 -7684477.753917446 82 0
14 111000000100100000101001 -7684477.453659328 -7684477.786005655 77 0
15 111000000100100001010001 -7684477.451446981 -7684477.765624432 89 0
16 111001000100100000001001 -7684477.472579647 -7684477.804719691 89 0
17 111000100100100000001001 -7684477.449488278 -7684477.753917446 82 0
18 111000000100110001001000 -7684477.454352022 -7684477.777638965 67 0
19 111000010100000001001001 -7684477.468773623 -7684477.779571723 94 0
20 110000000101100001001001 -7684477.46746088 -7684477.760550681 91 0
21 110000000100100001101001 -7684477.456148987 -7684477.786047846 77 0
22 101000000100100011001001 -7684477.471673303 -7684477.804255233 80 0
23 111000000000100001011001 -7684477.474569808 -7684477.81705245 92 1
24 111000000000100100011001 -7684477.449007812 -7684477.7353803385 103 0
25 111000000000100001001101 -7684477.474115205 -7684477.807872544 89 0
26 111000000000100011001001 -7684477.474367974 -7684477.806246315 89 0
27 110000000000101001011001 -7684477.475974545 -7684477.835676097 78 1
28 110100000000101001001001 -7684477.471713665 -7684477.803144219 78 0
29 110000010000101000011001 -7684477.452066456 -7684477.754902177 83 0
30 110000000000111001010001 -7684477.450493414 -7684477.754528657 96 0
31 100001000000101001011001 -7684477.4907732 -7684477.834348154 78 0
32 010000001000101001011001 -7684477.490683978 -7684477.841565725 89 1
33 010100000000101001011001 -7684477.472906845 -7684477.820980866 77 0
34 010000011000101000011001 -7684477.468089623 -7684477.762907605 86 0
35 010000001000101001101001 -7684477.490298413 -7684477.8378904965 88 0
36 010000001000111001001001 -7684477.493463753 -7684477.8524389295 88 1
37 010000000000111001101001 -7684477.476218931 -7684477.840957533 88 0
38 010000001010101001001001 -7684477.489178677 -7684477.82336702 84 0
39 010001000000111001001001 -7684477.488706549 -7684477.837759606 87 0
40 010000001010011001001001 -7684477.490451919 -7684477.858605137 83 1
41 010000001010010001011001 -7684477.462800829 -7684477.765009455 81 0
42 110000001010010001001001 -7684477.4701620955 -7684477.772139846 85 0
43 010000001010011001011000 -7684477.4639507355 -7684477.792698048 92 0
44 010010000010011001001001 -7684477.470595471 -7684477.834681646 106 0
45 110000001010001001001001 -7684477.491445138 -7684477.835740467 83 0
46 010000001010001001011001 -7684477.488033693 -7684477.855248119 74 0
47 010010001000011001001001 -7684477.490426223 -7684477.874590339 90 1
48 010010000000111001001001 -7684477.475725067 -7684477.844122759 89 0
49 010010001000111001001000 -7684477.470883791 -7684477.808686626 91 0
50 010010001001011001001000 -7684477.490061716 -7684477.8691407805 96 0
51 010010001000010001011001 -7684477.462772135 -7684477.774424144 91 0
52 010010011000001001001001 -7684477.483937025 -7684477.847941082 154 0
53 010010001000010011001001 -7684477.467344978 -7684477.826356276 87 0
54 010011000000011001001001 -7684477.485781776 -7684477.86432179 77 0
55 010010001001001001001001 -7684477.504433315 -7684477.878344299 88 1
56 010010011001001001000001 -7684477.484601181 -7684477.847845008 163 0
57 010010001001001100001001 -7684477.481706402 -7684477.772265394 100 0
58 010010001001001001000101 -7684477.49139828 -7684477.818288058 91 0
59 010110001001001000001001 -7684477.483609356 -7684477.7842944525 100 0
60 011010001000001001001001 -7684477.504269586 -7684477.874230383 81 0
61 011010001001001000001001 -7684477.500035581 -7684477.8216833705 90 0
62 010010001001000101001001 -7684477.481541026 -7684477.77087399 90 0
63 010010001001101000001001 -7684477.481804714 -7684477.773715554 98 0
64 010010001001001100001001 -7684477.481706402 -7684477.772265394 100 0
65 010010001001001000011001 -7684477.485487567 -7684477.80576008 109 0
66 010010001011000001001001 -7684477.479460187 -7684477.775004495 90 0
67 010010001001001100001001 -7684477.481706402 -7684477.772265394 100 0
68 010000001001011001001001 -7684477.506370561 -7684477.880966198 82 1
69 010010001001011001000001 -7684477.49081465 -7684477.843941807 90 0
70 010010001001011001001000 -7684477.490061716 -7684477.8691407805 96 0
71 010000001000011001101001 -7684477.491573121 -7684477.85787048 80 0
72 010001001001011000001001 -7684477.502178602 -7684477.879067116 83 0
73 010000001001111001001000 -7684477.49093305 -7684477.847532217 95 0
74 000100001001011001001001 -7684477.502821456 -7684477.8485762505 89 0
75 010000001001011101000001 -7684477.488387983 -7684477.810960346 91 0
76 000000001001011001101001 -7684477.506151551 -7684477.874855759 80 0
77 010000001001011101001000 -7684477.49228536 -7684477.839941658 92 0
78 010100001001011001000001 -7684477.488387983 -7684477.810960262 91 0
79 011000000001011001001001 -7684477.505784149 -7684477.862616532 76 0
80 010000001001011000001011 -7684477.485695152 -7684477.803475676 77 0
81 010000001001011101001000 -7684477.49228536 -7684477.839941658 92 0
82 011000001001011001001000 -7684477.507839404 -7684477.887438515 76 1
83 011000101001001001001000 -7684477.505618848 -7684477.864086129 81 0
84 011000001001011001000010 -7684477.489440967 -7684477.8362582065 75 0
85 011010001000011001001000 -7684477.486386438 -7684477.834901843 78 0
86 011000001001011000001100 -7684477.487521251 -7684477.821009579 89 0
87 011001001001011001000000 -7684477.502434419 -7684477.873643201 74 0
88 011000001001011000011000 -7684477.485103466 -7684477.803556616 86 0
89 001000011001011001001000 -7684477.505694469 -7684477.880624961 78 0
90 011000011000011001001000 -7684477.4829622675 -7684477.818021175 85 0
91 011000001000011001001010 -7684477.486307821 -7684477.820618161 86 0
92 011000001000111001001000 -7684477.489826163 -7684477.827245489 84 0
93 011000000001011001011000 -7684477.485847514 -7684477.809191075 78 0
94 011010001001011001000000 -7684477.491735115 -7684477.846051553 76 0
95 111000001001011001000000 -7684477.49124359 -7684477.842770289 88 0
96 011010000001011001001000 -7684477.489444976 -7684477.849606219 98 0
97 011000001001010001001001 -7684477.505524785 -7684477.865546002 81 0
98 001000001001011011001000 -7684477.503913006 -7684477.8707269 82 0
99 011000001001011100001000 -7684477.489094831 -7684477.81267071 85 0
100 001001001001011001001000 -7684477.517680272 -7684477.925731352 76 1
101 001001101000011001001000 -7684477.497940311 -7684477.81073447 79 0
102 001011001001011001000000 -7684477.504158526 -7684477.869366224 88 0
103 001001000001011001001001 -7684477.516273302 -7684477.910370221 78 0
104 001001001011011000001000 -7684477.502157845 -7684477.868108831 81 0
105 101001001001011001000000 -7684477.503308068 -7684477.868129502 80 0
106 001001001000011001011000 -7684477.49577255 -7684477.811813096 66 0
107 001001010001011001001000 -7684477.501778857 -7684477.860201531 77 0
108 001001101001011000001000 -7684477.503413415 -7684477.86571858 80 0
109 001011001000011001001000 -7684477.497929399 -7684477.8320419965 86 0
110 001000001001011001001010 -7684477.503568901 -7684477.861846038 80 0
111 001001001011011001000000 -7684477.502157845 -7684477.864361189 82 0
112 001001001001011000101000 -7684477.504192608 -7684477.872143374 79 0
113 001001011000011001001000 -7684477.499761565 -7684477.852350602 79 0
114 001001001001010001001001 -7684477.516162571 -7684477.916772041 79 0
115 001000001001011001011000 -7684477.50174564 -7684477.888331193 160 0
116 001000101001011001001000 -7684477.504778329 -7684477.857588125 82 0
117 001001011000011001001000 -7684477.499761565 -7684477.852350602 79 0
118 001001101001001001001000 -7684477.5162732955 -7684477.910370098 78 0
119 001001001001010001001010 -7684477.5016071275 -7684477.867060735 75 0
120 001001001000011001011000 -7684477.49577255 -7684477.811813096 66 0
121 001001101001011001000000 -7684477.501154593 -7684477.850362949 90 0
122 101001001000011001001000 -7684477.501692676 -7684477.829454907 80 0
123 001000001001011011001000 -7684477.503913006 -7684477.8707269 82 0
124 000001001001111001001000 -7684477.503155413 -7684477.865130813 91 0
125 000001101001011001001000 -7684477.501902224 -7684477.856643718 92 0
126 001001001101011001000000 -7684477.500910587 -7684477.847175663 89 0
127 001001001001110001001000 -7684477.502880576 -7684477.856348426 79 0
128 001001011001010001001000 -7684477.50176879 -7684477.871594307 81 0
129 001011001001011000001000 -7684477.502420085 -7684477.87257647 81 0
130 001001011001011000001000 -7684477.506197392 -7684477.889315205 78 0
131 001011001001011000001000 -7684477.502420085 -7684477.87257647 81 0
132 001000001001011001011000 -7684477.50174564 -7684477.888331193 160 0
133 001101001001001001001000 -7684477.519397989 -7684477.920253426 78 0
134 000001001001011101001000 -7684477.504634591 -7684477.857809901 81 0
135 001001001001011000001001 -7684477.517680272 -7684477.923316915 78 0
136 001001001001011101000000 -7684477.5060092425 -7684477.87052676 80 0
137 001001001011001001001000 -7684477.516162571 -7684477.916772094 79 0
138 001001000011011001001000 -7684477.503568901 -7684477.857066284 81 0
139 001010001001011001001000 -7684477.503632061 -7684477.861234292 79 0
140 001000001001011001001100 -7684477.505817837 -7684477.864082004 81 0
141 001001001011010001001000 -7684477.5016071275 -7684477.863697158 73 0
142 001001001001010001011000 -7684477.497981305 -7684477.903421313 140 0
143 001000001001011001001010 -7684477.503568901 -7684477.861846038 80 0
144 000001001001011011001000 -7684477.502199601 -7684477.885013777 76 0
145 000001001001011001011000 -7684477.497981343 -7684477.899938137 149 0
146 101001000001011001001000 -7684477.502907895 -7684477.8584655775 77 0
147 001001000001011001101000 -7684477.501673304 -7684477.84643668 81 0
148 001001011001001001001000 -7684477.517680234 -7684477.923266301 76 0
149 001001001001001001001010 -7684477.516162571 -7684477.916772016 79 0
150 001000001001011001001001 -7684477.519397995 -7684477.920253468 78 0
151 001001000001011001001010 -7684477.503568901 -7684477.861480664 90 0
152 001000001001011001001001 -7684477.519397995 -7684477.920253468 78 0
153 001001001000011011001000 -7684477.498169706 -7684477.841292988 90 0
154 000001001001011011001000 -7684477.502199601 -7684477.885013777 76 0
155 001011001001010001001000 -7684477.50176879 -7684477.870059798 76 0
156 001001101001011000001000 -7684477.503413415 -7684477.86571858 80 0
157 001001000001011001001010 -7684477.503568901 -7684477.861480664 90 0
158 001001011001011001000000 -7684477.502294324 -7684477.867639161 81 0
159 001001001001011000101000 -7684477.504192608 -7684477.872143374 79 0
160 001001001000011001001001 -7684477.517680254 -7684477.923266407 76 0
161 001000001001011001101000 -7684477.505618848 -7684477.864086123 81 0
162 001001001001001001101000 -7684477.5162732955 -7684477.910370086 78 0
163 001001001001111001000000 -7684477.5043993015 -7684477.875319572 81 0
164 001001001001011100001000 -7684477.506151514 -7684477.874855767 80 0
165 001011001001010001001000 -7684477.50176879 -7684477.870059798 76 0
166 001011000001011001001000 -7684477.501902185 -7684477.8657313865 78 0
167 001001001101010001001000 -7684477.501644825 -7684477.849783293 80 0
168 001101001001010001001000 -7684477.503568916 -7684477.849484976 82 0
169 001001001001010001011000 -7684477.497981305 -7684477.903421313 140 0
170 001001001000011001101000 -7684477.498799171 -7684477.8176107425 77 0
171 001001001101011000001000 -7684477.503308068 -7684477.868129495 80 0
172 101001000001011001001000 -7684477.502907895 -7684477.8584655775 77 0
173 101001001001011000001000 -7684477.5032667145 -7684477.866084204 82 0
174 001000101001011001001000 -7684477.504778329 -7684477.857588125 82 0
175 101001000001011001001000 -7684477.502907895 -7684477.8584655775 77 0
176 001000001011011001001000 -7684477.503568901 -7684477.856558644 80 0
177 001001001000011001001010 -7684477.497929389 -7684477.832072771 89 0
178 001001001000011001001001 -7684477.517680254 -7684477.923266407 76 0
179 001000011001011001001000 -7684477.505694469 -7684477.880624961 78 0
180 001100001001011001001000 -7684477.506502405 -7684477.858361625 82 0
181 000001001001111001001000 -7684477.503155413 -7684477.865130813 91 0
182 001000001011011001001000 -7684477.503568901 -7684477.856558644 80 0
183 001000001001111001001000 -7684477.505956223 -7684477.868424434 80 0
184 001011000001011001001000 -7684477.501902185 -7684477.8657313865 78 0
185 001000001101011001001000 -7684477.50467711 -7684477.85675543 80 0
186 001000001011011001001000 -7684477.503568901 -7684477.856558644 80 0
187 000011001001011001001000 -7684477.501929445 -7684477.876490635 75 0
188 000011001001011001001000 -7684477.501929445 -7684477.876490635 75 0
189 101001001001001001001000 -7684477.517680234 -7684477.923316906 78 0
190 001001001001111001000000 -7684477.5043993015 -7684477.875319572 81 0
191 011001000001011001001000 -7684477.502123049 -7684477.869714963 76 0
192 001001001001111001000000 -7684477.5043993015 -7684477.875319572 81 0
193 001001001001011001000010 -7684477.502157845 -7684477.867943768 90 0
194 001000001001011001001001 -7684477.519397995 -7684477.920253468 78 0
195 001001001001011000101000 -7684477.504192608 -7684477.872143374 79 0
196 101001001001010001001000 -7684477.501644825 -7684477.8479065765 78 0
197 101000001001011001001000 -7684477.504806872 -7684477.861841765 82 0
198 001001001001010001001100 -7684477.502880576 -7684477.856710321 78 0
199 001001011001011000001000 -7684477.506197392 -7684477.889315205 78 0
