0 110111011111101111111111 -6920144.292784859 -6920144.441700136 20
1 111111011111001111111111 -6920144.317713074 -6920144.457696786 24
2 111111111101001111111111 -6920144.317504542 -6920144.454049036 19
3 111111001111011111111111 -6920144.317713074 -6920144.457304407 26
4 111111111011001111111111 -6920144.317504542 -6920144.453949923 19
5 111111111011001111111111 -6920144.317504542 -6920144.453949923 19
6 111111011111101110111111 -6920144.294014653 -6920144.439266014 27
7 111111111111001111111101 -6920144.317092279 -6920144.469413872 17
8 111111111111101111111001 -6920144.317092279 -6920144.469413871 17
9 111111111111101111101101 -6920144.314051254 -6920144.417602536 16
10 111111110111111111111001 -6920144.289838123 -6920144.449023758 24
11 111111111111101011111101 -6920144.314804122 -6920144.466976028 20
12 111111111111111111110001 -6920144.292428342 -6920144.456373849 26
13 111111111111100111111101 -6920144.293190219 -6920144.445313372 27
14 111111101111111111111001 -6920144.317713074 -6920144.457304151 26
15 111111111101101111111101 -6920144.318222337 -6920144.450507291 21
16 111111111111111111111000 -6920144.290978931 -6920144.470669978 27
17 111111011111111111111001 -6920144.317713074 -6920144.467604501 19
18 111111111110111111111010 -6920144.261943856 -6920144.407531049 25
19 111111011111111111111010 -6920144.291362813 -6920144.465897615 27
20 111111111111111111011001 -6920144.311653913 -6920144.429781001 19
21 101111111111111111111010 -6920144.2931715 -6920144.449012597 27
22 111111111111111101111010 -6920144.289323049 -6920144.464014471 27
23 110111111111111111111010 -6920144.266579735 -6920144.436831558 27
24 110111111111111111111010 -6920144.266579735 -6920144.436831558 27
25 111110111111111111111001 -6920144.291629595 -6920144.45977481 27
26 111111110111111111111010 -6920144.267002008 -6920144.4473211 29
27 110111111111111111111001 -6920144.291512581 -6920144.447645353 26
28 111111111111110111111010 -6920144.268843945 -6920144.429241341 20
29 111111111111101111111010 -6920144.29266694 -6920144.457243935 26
30 111011111111111111111001 -6920144.317713074 -6920144.457696786 24
31 110111111111111111111001 -6920144.291512581 -6920144.447645353 26
32 111111111111111111011010 -6920144.286885856 -6920144.419400665 27
33 111111111101111111111100 -6920144.291902569 -6920144.468705705 25
34 111111111111011111111001 -6920144.317092279 -6920144.469413891 17
35 111111111111011111111001 -6920144.317092279 -6920144.469413891 17
36 110111111111111111111100 -6920144.2686030045 -6920144.438082122 25
37 110111111111111111111010 -6920144.266579735 -6920144.436831558 27
38 101111111111111111111100 -6920144.293190219 -6920144.438487303 27
39 111111111101111111111010 -6920144.291903647 -6920144.46326842 27
40 111111111111111101111001 -6920144.311653913 -6920144.428710831 21
41 101111111111111111111100 -6920144.293190219 -6920144.438487303 27
42 111111111111111110111001 -6920144.29266694 -6920144.457243985 26
43 111111101111111111111100 -6920144.29319022 -6920144.445494269 27
44 101111111111111111111010 -6920144.2931715 -6920144.449012597 27
45 111111111110111111111001 -6920144.289482472 -6920144.462684564 20
46 110111111111111111111001 -6920144.291512581 -6920144.447645353 26
47 011111111111111111111100 -6920144.292940144 -6920144.447562385 27
48 111011111111111111111001 -6920144.317713074 -6920144.457696786 24
49 111111111111111111110100 -6920144.268611477 -6920144.439946585 27
50 111111111111111011111001 -6920144.316086245 -6920144.473981326 19
51 101111111111111011111011 -6920144.318133007 -6920144.460197463 27
52 111111111101111011111011 -6920144.318133007 -6920144.459127284 24
53 111101111111111011111101 -6920144.316396896 -6920144.465664361 19
54 111111111110111011111101 -6920144.290818986 -6920144.448075911 20
55 101111111111111111111001 -6920144.317504542 -6920144.454049028 19
56 111111111111111010111101 -6920144.289323063 -6920144.464014437 27
57 101111111111111111111001 -6920144.317504542 -6920144.454049028 19
58 111111111110111011111011 -6920144.292586787 -6920144.4502511155 26
59 101111111111111111111001 -6920144.317504542 -6920144.454049028 19
60 111111111111110011111101 -6920144.2904356895 -6920144.4538799515 24
61 111111110111111111111001 -6920144.289838123 -6920144.449023758 24
62 110111111111111011111101 -6920144.29147703 -6920144.462511185 28
63 111011111111111111111001 -6920144.317713074 -6920144.457696786 24
64 111111111110111011111101 -6920144.290818986 -6920144.448075911 20
65 111111111111111110111001 -6920144.29266694 -6920144.457243985 26
66 111111111111111011111010 -6920144.291421059 -6920144.452783886 27
67 111111111011111011111011 -6920144.318541824 -6920144.459571268 26
68 111111111111111101111001 -6920144.311653913 -6920144.428710831 21
69 111111111111111010111101 -6920144.289323063 -6920144.464014437 27
70 111111111111111001111011 -6920144.316086245 -6920144.473993901 23
71 111111111111110001111111 -6920144.291629595 -6920144.459774785 27
72 111011111111111001111111 -6920144.317695786 -6920144.471220337 25
73 111111111111110101111011 -6920144.292523507 -6920144.447619257 26
74 111111111111111011101011 -6920144.316086245 -6920144.473981321 19
75 111111111110111011101111 -6920144.293677805 -6920144.442568682 25
76 111111111110111011111011 -6920144.292586787 -6920144.4502511155 26
77 111111111111111011011011 -6920144.314051254 -6920144.417602502 16
78 111111111111111011111010 -6920144.291421059 -6920144.452783886 27
79 111111111111101011101111 -6920144.311653913 -6920144.428710839 21
80 111111111111101011101111 -6920144.311653913 -6920144.428710839 21
81 111111111101111111101011 -6920144.316396896 -6920144.455145844 26
82 111110111111111011111011 -6920144.293367358 -6920144.4554282185 27
83 111011111111111011111011 -6920144.318541824 -6920144.459571237 26
84 111110111111111011101111 -6920144.292428355 -6920144.456373878 26
85 111111111011111011111011 -6920144.318541824 -6920144.459571268 26
86 111111011111111011111011 -6920144.318337314 -6920144.452970884 17
87 111110111111111011101111 -6920144.292428355 -6920144.456373878 26
88 111111111101111111101011 -6920144.316396896 -6920144.455145844 26
89 111111111111101111101011 -6920144.311653913 -6920144.429781002 19
90 111111111111101011111011 -6920144.316086245 -6920144.473993701 23
91 111011111111101011111111 -6920144.316800451 -6920144.471764247 26
92 111111111111001111111011 -6920144.317092279 -6920144.469413893 17
93 111111111111001111111011 -6920144.317092279 -6920144.469413893 17
94 110111111111101011111111 -6920144.289323089 -6920144.464014547 27
95 111111111111101111101011 -6920144.311653913 -6920144.429781002 19
96 111111111111100111111011 -6920144.292428342 -6920144.4563738685 26
97 111111111110111011111011 -6920144.292586787 -6920144.4502511155 26
98 111111111111101011110111 -6920144.291477004 -6920144.462511202 28
99 110111111111111011111011 -6920144.291421085 -6920144.452783885 27
100 111111111111101011111101 -6920144.314804122 -6920144.466976028 20
101 111111111111111011111001 -6920144.316086245 -6920144.473981326 19
102 111111111011111111111001 -6920144.317695786 -6920144.471180961 25
103 111011111111111011111011 -6920144.318541824 -6920144.459571237 26
104 111111111111111001111101 -6920144.311653913 -6920144.42978091 19
105 111101111111111111111001 -6920144.317713074 -6920144.467406707 20
106 111101111111111111111001 -6920144.317713074 -6920144.467406707 20
107 111111111111110011111011 -6920144.29258676 -6920144.450251135 26
108 110111111111111111111001 -6920144.291512581 -6920144.447645353 26
109 111111111111111010111011 -6920144.292960588 -6920144.444097263 21
110 111110111111111111111001 -6920144.291629595 -6920144.45977481 27
111 111111111111111111111000 -6920144.290978931 -6920144.470669978 27
112 111111111110111011111101 -6920144.290818986 -6920144.448075911 20
113 111011111111111011111011 -6920144.318541824 -6920144.459571237 26
114 111111111111111010111011 -6920144.292960588 -6920144.444097263 21
115 111111111111111011110011 -6920144.293367358 -6920144.45542825 27
116 111111111111111011111100 -6920144.289064511 -6920144.45483028 27
117 011111111111111011111101 -6920144.316396896 -6920144.464811388 19
118 011111111111111011111101 -6920144.316396896 -6920144.464811388 19
119 111111111101111011111101 -6920144.316800451 -6920144.471764246 26
120 111111110111111011111011 -6920144.292960588 -6920144.444097295 21
121 111111111111101111111001 -6920144.317092279 -6920144.469413871 17
122 111111111111111111101001 -6920144.316086245 -6920144.473993707 23
123 111110111111111111101011 -6920144.292523507 -6920144.447619267 26
124 111111111011111111101011 -6920144.316800438 -6920144.471085125 24
125 111111110111111111101101 -6920144.291421072 -6920144.452783935 27
126 111111111110111111101101 -6920144.292960615 -6920144.444097185 21
127 111111111101111111111001 -6920144.317695785 -6920144.471220407 25
128 111111011111111111101011 -6920144.316396896 -6920144.464811409 19
129 111111111101111111101011 -6920144.316396896 -6920144.455145844 26
130 011111111111111111101101 -6920144.318133007 -6920144.459127339 24
131 011111111111111111101101 -6920144.318133007 -6920144.459127339 24
132 111111111111111111001101 -6920144.316086245 -6920144.473981302 19
133 111110111111111111101101 -6920144.292586773 -6920144.450251106 26
134 111111111111111111010101 -6920144.290818959 -6920144.448075926 20
135 111111101111111111011101 -6920144.316396896 -6920144.455793021 26
136 111111111111011111101101 -6920144.316086245 -6920144.4739812985 19
137 011111111111011111101111 -6920144.316800438 -6920144.47176425 26
138 111111101111111111101101 -6920144.318541824 -6920144.459571265 26
139 111111111110111111101101 -6920144.292960615 -6920144.444097185 21
140 111111111111011111101011 -6920144.314804109 -6920144.466976061 20
141 011111111111011111101111 -6920144.316800438 -6920144.47176425 26
142 111111111111110111101101 -6920144.292960601 -6920144.444097303 21
143 111111110111011111101111 -6920144.291476991 -6920144.462511176 28
144 110111111111111111101101 -6920144.293367385 -6920144.455428222 27
145 011111111111111111101101 -6920144.318133007 -6920144.459127339 24
146 111011111111011111101111 -6920144.316396896 -6920144.465664385 19
147 111110111111011111111101 -6920144.2894824585 -6920144.46268459 20
148 111111111111011011101111 -6920144.311653913 -6920144.429781021 19
149 111111111111111111001101 -6920144.316086245 -6920144.473981302 19
150 110111111111111111011101 -6920144.292523547 -6920144.447619348 26
151 101111111111111111001111 -6920144.317713074 -6920144.467604442 19
152 111111111111011111101101 -6920144.316086245 -6920144.4739812985 19
153 111111111011011111101111 -6920144.3166057635 -6920144.453477895 20
154 111111111111111111101100 -6920144.293367371 -6920144.45542822 27
155 111110111111011111101111 -6920144.2908189455 -6920144.448075885 20
156 111111111101011111101111 -6920144.316396896 -6920144.4557927875 26
157 111111111111011111101011 -6920144.314804109 -6920144.466976061 20
158 111111111011111111101101 -6920144.318133007 -6920144.460197496 27
159 110111111111111111101101 -6920144.293367385 -6920144.455428222 27
160 111111111111011011101111 -6920144.311653913 -6920144.429781021 19
161 111101111111011111101111 -6920144.3166057775 -6920144.453434032 19
162 111111111111111111101100 -6920144.293367371 -6920144.45542822 27
163 111111111101011111111101 -6920144.317695785 -6920144.471180946 25
164 111111111111110111101101 -6920144.292960601 -6920144.444097303 21
165 111111111111011111100111 -6920144.290435676 -6920144.453879908 24
166 111101111111011111111101 -6920144.317713074 -6920144.467604478 19
167 011111111111011111101111 -6920144.316800438 -6920144.47176425 26
168 111111111011011111111101 -6920144.317504542 -6920144.454049038 19
169 111111111111001111101111 -6920144.311653913 -6920144.428710831 21
170 111011111111011111101111 -6920144.316396896 -6920144.465664385 19
171 111110111111111111101101 -6920144.292586773 -6920144.450251106 26
172 111101111111111111101101 -6920144.318337314 -6920144.452970939 17
173 111111111111111111101001 -6920144.316086245 -6920144.473993707 23
174 111111111111111110101011 -6920144.290358984 -6920144.440405154 26
175 111011111111111111101011 -6920144.316396896 -6920144.4557928145 26
176 111111111111111111101100 -6920144.293367371 -6920144.45542822 27
177 111011111111111111101101 -6920144.318133007 -6920144.460197454 27
178 111111111110111111111001 -6920144.289482472 -6920144.462684564 20
179 111111111110111111111001 -6920144.289482472 -6920144.462684564 20
180 111111111111011111101011 -6920144.314804109 -6920144.466976061 20
181 111111111111111011111001 -6920144.316086245 -6920144.473981326 19
182 111111111111011011111011 -6920144.314051254 -6920144.417602509 16
183 111111111111111010111011 -6920144.292960588 -6920144.444097263 21
184 111111111111110011111101 -6920144.2904356895 -6920144.4538799515 24
185 111101111111111111111001 -6920144.317713074 -6920144.467406707 20
186 111111011111111111111001 -6920144.317713074 -6920144.467604501 19
187 111111111110111011111011 -6920144.292586787 -6920144.4502511155 26
188 111111111111111011011011 -6920144.314051254 -6920144.417602502 16
189 111111011111111011111011 -6920144.318337314 -6920144.452970884 17
190 111111111110111011111011 -6920144.292586787 -6920144.4502511155 26
191 111111111111111011011011 -6920144.314051254 -6920144.417602502 16
192 111111110111111011111101 -6920144.290358998 -6920144.440405171 26
193 111111111110111011111101 -6920144.290818986 -6920144.448075911 20
194 111111110111111011111101 -6920144.290358998 -6920144.440405171 26
195 111101111111111011111011 -6920144.318133007 -6920144.460197357 27
196 111111111111111111111000 -6920144.290978931 -6920144.470669978 27
197 011111111111111011111101 -6920144.316396896 -6920144.464811388 19
198 101111111111111011111011 -6920144.318133007 -6920144.460197463 27
199 111111101111111111111001 -6920144.317713074 -6920144.457304151 26
