0 110000001101010011101110 -7449297.881162293 -7449298.189945054 30
1 111000001101010011101100 -7449297.907796808 -7449298.239756742 23
2 111000001101110001101100 -7449297.908635636 -7449298.235361658 22
3 111000001001011011101100 -7449297.926892387 -7449298.230533334 30
4 101000011101010011101100 -7449297.903967462 -7449298.231116219 21
5 111000001001011011101100 -7449297.926892387 -7449298.230533334 30
6 111000011101010011001100 -7449297.904909442 -7449298.241143511 21
7 111000011001010111001100 -7449297.907521931 -7449298.238564547 21
8 111000011100010011011100 -7449297.875806494 -7449298.210024023 27
9 111100011101010011001000 -7449297.902645022 -7449298.204210731 19
10 111000011101011001001100 -7449297.926404169 -7449298.246850806 19
11 011000011111011001001100 -7449297.927427069 -7449298.237232568 19
12 011000011101111001001100 -7449297.926757877 -7449298.241735808 19
13 111001011101010001001100 -7449297.921361941 -7449298.230302795 25
14 011000011101011001001101 -7449297.947991698 -7449298.236819051 18
15 111010011101010001001100 -7449297.904493199 -7449298.24506267 23
16 111000111100011001001100 -7449297.897107915 -7449298.210149238 24
17 111000111101001001001100 -7449297.918996218 -7449298.208021108 23
18 111100011101001001001100 -7449297.92119873 -7449298.2026967965 19
19 111000011101011000101100 -7449297.894837637 -7449298.2053249935 19
20 111000011100011101001100 -7449297.904413405 -7449298.240646387 21
21 011010011101011001001100 -7449297.927029481 -7449298.237725967 24
22 011100011101011001001100 -7449297.92930365 -7449298.25671848 19
23 011100011101011001101000 -7449297.928413743 -7449298.249057627 19
24 011100011101011101000100 -7449297.911495679 -7449298.257606305 22
25 011000011101011101100100 -7449297.9026275035 -7449298.199296308 20
26 001100011111011101000100 -7449297.914303873 -7449298.276126045 23
27 001100001111011101001100 -7449297.934104044 -7449298.252660508 30
28 101100011111011101000000 -7449297.907703737 -7449298.253993824 28
29 001100011011011101100100 -7449297.907788724 -7449298.223984487 18
30 001100011011011111000100 -7449297.916211536 -7449298.270093557 19
31 001100001111011101001100 -7449297.934104044 -7449298.252660508 30
32 001110011111001101000100 -7449297.909387934 -7449298.236038879 25
33 001100011111010101010100 -7449297.889012342 -7449298.275363967 25
34 001100011111011100000110 -7449297.891007308 -7449298.262926678 24
35 001100011011011101001100 -7449297.933884381 -7449298.260366632 23
36 001100011111101101000100 -7449297.906739578 -7449298.237999544 27
37 101100001111011101000100 -7449297.908558581 -7449298.227400138 21
38 001101001111011101000100 -7449297.932434277 -7449298.261237614 29
39 001101011110011101000100 -7449297.907370388 -7449298.25740925 31
40 001100001111011101000110 -7449297.91384452 -7449298.262806591 20
41 001101011111011101000000 -7449297.932394523 -7449298.271454719 28
42 101100011111010101000100 -7449297.888084915 -7449298.258487981 29
43 001100011111111100000100 -7449297.885555212 -7449298.232957165 31
44 001100011111011101001000 -7449297.933979824 -7449298.263338037 23
45 001100011111011100001100 -7449297.91204041 -7449298.269203292 29
46 001100011101011101010100 -7449297.909252688 -7449298.257989747 20
47 011100011011011101000100 -7449297.910794612 -7449298.241467443 23
48 011100011111011101000000 -7449297.910593559 -7449298.247615713 22
49 001110011111010101000100 -7449297.890539834 -7449298.2565601105 29
50 001100010111011111000100 -7449297.893103274 -7449298.260280142 28
51 001100011111001101100100 -7449297.906360915 -7449298.2297722325 26
52 001100111110011101000100 -7449297.883248464 -7449298.214137154 24
53 001000011111011101000101 -7449297.928985666 -7449298.249451862 23
54 001100011111001101010100 -7449297.912771739 -7449298.287348554 23
55 001100011111001011010100 -7449297.9107526 -7449298.261916926 26
56 001000011111001101010110 -7449297.91037899 -7449298.284737975 24
57 001100011110001101011100 -7449297.907937642 -7449298.272003303 28
58 011100011110001101010100 -7449297.8832645565 -7449298.245054114 25
59 001100011011001101010110 -7449297.912977292 -7449298.291310315 26
60 001100011011001101010101 -7449297.927606413 -7449298.263385774 25
61 011100011011001101000110 -7449297.908322084 -7449298.228686929 23
62 101100011011001101000110 -7449297.9065348925 -7449298.247667506 24
63 001010011011001101010110 -7449297.906550089 -7449298.229679953 30
64 001101011011001101000110 -7449297.93304595 -7449298.276702586 25
65 001100011011011001010110 -7449297.906591898 -7449298.234517941 30
66 001100111001001101010110 -7449297.912117386 -7449298.277821825 24
67 001100011001001101011110 -7449297.9327458935 -7449298.275337659 26
68 001000011011101101010110 -7449297.905157946 -7449298.258807945 29
69 001100011011011101010100 -7449297.908816164 -7449298.248377452 24
70 001100011011011101010010 -7449297.90948927 -7449298.2482083365 30
71 000101011011001101010110 -7449297.914991311 -7449298.282916643 26
72 001100011011001101110010 -7449297.912588641 -7449298.285719063 25
73 001100011011001001110110 -7449297.904342983 -7449298.2420840515 25
74 001100011010001101011110 -7449297.908206204 -7449298.270330373 28
75 001110011011001101010010 -7449297.9098850405 -7449298.244218565 30
76 001100111011001101000110 -7449297.911328121 -7449298.266994812 26
77 001100011111000101010110 -7449297.893322131 -7449298.3225382585 22
78 101100011111000101000110 -7449297.886535264 -7449298.264498003 24
79 001100010111000101011110 -7449297.896853913 -7449298.3257778175 25
80 001101010111000101011010 -7449297.917359116 -7449298.307001715 27
81 001100011110000101011110 -7449297.887995423 -7449298.303647703 27
82 001100010110001101011110 -7449297.893249738 -7449298.300327277 24
83 001100010101010101011110 -7449297.890226394 -7449298.279420812 24
84 001100010110000101111110 -7449297.868447128 -7449298.274069764 30
85 001110010111000100011110 -7449297.870741462 -7449298.275214231 27
86 001100010111000110011110 -7449297.870741462 -7449298.2752141375 27
87 001100000111000101011111 -7449297.912958768 -7449298.312458653 26
88 001100010110010101011110 -7449297.868654094 -7449298.282025967 28
89 001100010110100101011110 -7449297.868690379 -7449298.28059774 26
90 001100010111001101001110 -7449297.91677296 -7449298.2923196 28
91 001100010110100101011110 -7449297.868690379 -7449298.28059774 26
92 001100010101100101011110 -7449297.887823459 -7449298.270074299 25
93 001100110011000101011110 -7449297.897554351 -7449298.304446336 39
94 001000011111000101011110 -7449297.9101082655 -7449298.305688848 26
95 001100010111010101001110 -7449297.897554352 -7449298.30186664 27
96 001100010111001101011010 -7449297.916896689 -7449298.290822812 25
97 001010010111000101011110 -7449297.887374097 -7449298.264780512 28
98 001000010111000111011110 -7449297.887823519 -7449298.27084883 28
99 011100010111000101011100 -7449297.890226394 -7449298.2794208005 24
100 001101010111000100011110 -7449297.903340138 -7449298.353141895 24
101 001101000111001100011110 -7449297.91996848 -7449298.3118080655 29
102 001100110111000100011110 -7449297.873227717 -7449298.281194933 28
103 001101010101000100111110 -7449297.896928325 -7449298.29577737 27
104 101101010110000100011110 -7449297.874284582 -7449298.293213029 26
105 001101010111010000011110 -7449297.894006875 -7449298.287107133 24
106 001110010111000100011110 -7449297.870741462 -7449298.275214231 27
107 001101010111010100010110 -7449297.8720488995 -7449298.287192643 24
108 001110010111000100011110 -7449297.870741462 -7449298.275214231 27
109 101101010111000100001110 -7449297.894038034 -7449298.2887810115 31
110 001101011101000100011110 -7449297.919078516 -7449298.332487419 26
111 001101010110001100011110 -7449297.898275247 -7449298.31398068 25
112 001101010111001100011100 -7449297.920342794 -7449298.316794643 26
113 101101010111000000011110 -7449297.893828634 -7449298.284808979 26
114 001101010111000000111110 -7449297.896482677 -7449298.290928464 26
115 011101000111000100011110 -7449297.899229409 -7449298.3297139155 24
116 001101011111000100011010 -7449297.918749131 -7449298.321356287 29
117 001100010111001100011110 -7449297.897040592 -7449298.292933195 25
118 001100011111000100011110 -7449297.893249734 -7449298.3099778555 28
119 001101010011000100111110 -7449297.899121111 -7449298.283528241 26
120 001101010110100100011110 -7449297.874284582 -7449298.293212979 26
121 011101000111000100011110 -7449297.899229409 -7449298.3297139155 24
122 001101010111000100101110 -7449297.896169413 -7449298.297757112 33
123 011100010111000100011110 -7449297.873227835 -7449298.28423813 25
124 001111000111000100011110 -7449297.8944881465 -7449298.298118658 32
125 001101100111000100011110 -7449297.896169413 -7449298.297757135 33
126 101001010111000100011110 -7449297.898818823 -7449298.320655779 24
127 001100010111001100011110 -7449297.897040592 -7449298.292933195 25
128 001101010011000110011110 -7449297.896928353 -7449298.290554697 30
129 001001010111000110011110 -7449297.894280786 -7449298.288533897 27
130 001101010111010000011110 -7449297.894006875 -7449298.287107133 24
131 001101010110000101011110 -7449297.893028265 -7449298.312844156 24
132 010101010111000100011110 -7449297.876017081 -7449298.27331267 28
133 001011010111000100011110 -7449297.893800433 -7449298.282316763 27
134 011101010111000000011110 -7449297.894038042 -7449298.294406245 27
135 001100010111000101011110 -7449297.896853913 -7449298.3257778175 25
136 011101010111000100011100 -7449297.8944881465 -7449298.306531673 24
137 011101010110000100011110 -7449297.87199191 -7449298.298361122 24
138 001101010101001100011110 -7449297.920342794 -7449298.3167946385 26
139 001101010111100000011110 -7449297.898818823 -7449298.320655876 24
140 001111010111000100011100 -7449297.894728166 -7449298.300197987 28
141 001101010110001100011110 -7449297.898275247 -7449298.31398068 25
142 001101010011010100011110 -7449297.896689208 -7449298.292573607 28
143 000101010111000100011111 -7449297.898275247 -7449298.313980645 25
144 011101010111000100011100 -7449297.8944881465 -7449298.306531673 24
145 000101010111001100011110 -7449297.90732098 -7449298.325745041 23
146 001101110111000100001110 -7449297.896689158 -7449298.290494077 29
147 001001010111100100011110 -7449297.893828634 -7449298.284809102 26
148 001101010101000100111110 -7449297.896928325 -7449298.29577737 27
149 001111010101000100011110 -7449297.899702223 -7449298.335091495 26
150 001101010011001100011110 -7449297.922502143 -7449298.3090582965 27
151 001001011111000100011110 -7449297.916217285 -7449298.325531424 26
152 011100010111000100011110 -7449297.873227835 -7449298.28423813 25
153 001001010111000110011110 -7449297.894280786 -7449298.288533897 27
154 000101110111000100011110 -7449297.878557425 -7449298.272404491 28
155 001001010111000100111110 -7449297.896482677 -7449298.293045787 27
156 001101110110000100011110 -7449297.8742343765 -7449298.286312136 25
157 001101011110000100011110 -7449297.893750545 -7449298.320612503 26
158 001101010011000100011111 -7449297.918224765 -7449298.318467727 23
159 001101000111000100011111 -7449297.916168412 -7449298.328166708 25
160 001101010111000110011010 -7449297.896817804 -7449298.283781437 27
161 001001010111000101011110 -7449297.914666074 -7449298.303641465 26
162 001100010111001100011110 -7449297.897040592 -7449298.292933195 25
163 001101010111000100110110 -7449297.874747359 -7449298.279680484 27
164 101101010111000100011100 -7449297.894280724 -7449298.29591104 25
165 001100010111000101011110 -7449297.896853913 -7449298.3257778175 25
166 001001011111000100011110 -7449297.916217285 -7449298.325531424 26
167 011101000111000100011110 -7449297.899229409 -7449298.3297139155 24
168 101101010110000100011110 -7449297.874284582 -7449298.293213029 26
169 001101010111100100011100 -7449297.893800372 -7449298.291789104 29
170 101001010111000100011110 -7449297.898818823 -7449298.320655779 24
171 101001010111000100011110 -7449297.898818823 -7449298.320655779 24
172 011101010111000100001110 -7449297.894246555 -7449298.300531552 28
173 001101000111000101011110 -7449297.917359116 -7449298.311224513 30
174 001110010111000100011110 -7449297.870741462 -7449298.275214231 27
175 001101010110001100011110 -7449297.898275247 -7449298.31398068 25
176 010101010111000100011110 -7449297.876017081 -7449298.27331267 28
177 001101100111000100011110 -7449297.896169413 -7449298.297757135 33
178 001101011111000000011110 -7449297.916217285 -7449298.32553138 26
179 001111010101000100011110 -7449297.899702223 -7449298.335091495 26
180 001101010101000100011111 -7449297.916052709 -7449298.330448988 28
181 001101010111000010011110 -7449297.893800433 -7449298.282316737 27
182 001101010111000000111110 -7449297.896482677 -7449298.290928464 26
183 000101010111000100011111 -7449297.898275247 -7449298.313980645 25
184 001101000111000110011110 -7449297.8944881465 -7449298.298169056 33
185 001110010111000100011110 -7449297.870741462 -7449298.275214231 27
186 001101010011000100111110 -7449297.899121111 -7449298.283528241 26
187 001101010110000100111110 -7449297.8742343765 -7449298.2863120455 25
188 001101010111001100010110 -7449297.897779126 -7449298.301562879 24
189 001101010011000110011110 -7449297.896928353 -7449298.290554697 30
190 001101010110010100011110 -7449297.87199191 -7449298.298361112 24
191 011101010110000100011110 -7449297.87199191 -7449298.298361122 24
192 001101010101000101011110 -7449297.914877858 -7449298.30632071 25
193 001001110111000100011110 -7449297.896482677 -7449298.290928464 26
194 001101010101010100011110 -7449297.8944881465 -7449298.306531664 24
195 001111010110000100011110 -7449297.871976507 -7449298.290280593 25
196 101101010111000100010110 -7449297.871984027 -7449298.288851818 26
197 001101010111000000011111 -7449297.918374738 -7449298.328129585 25
198 001101000111000110011110 -7449297.8944881465 -7449298.298169056 33
199 001001010111000100111110 -7449297.896482677 -7449298.293045787 27
