0 111111111110101100111111 -6978939.0885621095 -6978939.297572308 28
1 111111111110100110111111 -6978939.064789093 -6978939.274785143 28
2 111111111110111100111110 -6978939.056816067 -6978939.259049638 27
3 111101111110101101111111 -6978939.113625621 -6978939.31730328 29
4 011101111111101101111111 -6978939.137513442 -6978939.322126462 27
5 011111111011101101111111 -6978939.137731426 -6978939.309177615 29
6 011101111011101111111111 -6978939.136165333 -6978939.311220467 26
7 011101111011101111111111 -6978939.136165333 -6978939.311220467 26
8 111101111111101101111011 -6978939.137478886 -6978939.329069192 26
9 111110111111101101111011 -6978939.11036256 -6978939.321225243 27
10 111111110111101101111011 -6978939.110277646 -6978939.320723713 23
11 011111111111101101111011 -6978939.137373942 -6978939.319596113 25
12 111100111111111101111011 -6978939.11242434 -6978939.331464088 31
13 111010111111111101111011 -6978939.112271997 -6978939.31585964 27
14 101100111111111101111111 -6978939.111534233 -6978939.316493052 26
15 111100111111111111111010 -6978939.088204969 -6978939.3080706205 28
16 111100111111111111110011 -6978939.086785995 -6978939.29765621 30
17 111100111111111111110011 -6978939.086785995 -6978939.29765621 30
18 111110111111111001111011 -6978939.111514701 -6978939.333319945 31
19 111110111111111000111111 -6978939.079725845 -6978939.282575596 26
20 111110111111101001111111 -6978939.109104351 -6978939.327403336 27
21 011110111111111001111111 -6978939.111781554 -6978939.32867153 27
22 111111111101111001111011 -6978939.137373969 -6978939.328912148 19
23 110110111111111001111111 -6978939.087661604 -6978939.317304117 27
24 111111111110111001111011 -6978939.11067183 -6978939.325513469 27
25 111010111111111011111011 -6978939.113625615 -6978939.317303211 29
26 111110111111111011111001 -6978939.110671823 -6978939.328919964 24
27 111010111111111001111111 -6978939.112073385 -6978939.337469698 27
28 111110101111111001111111 -6978939.113263447 -6978939.30914988 28
29 111010111111111011111011 -6978939.113625615 -6978939.317303211 29
30 101110111111111001111111 -6978939.110880036 -6978939.314519783 27
31 111011111111111000111111 -6978939.11044819 -6978939.326510724 22
32 101010111111111011111111 -6978939.109705644 -6978939.32358351 29
33 111110111111110001111111 -6978939.086925189 -6978939.315484471 27
34 111110110111111001111111 -6978939.088848153 -6978939.293669602 20
35 110010111111111011111111 -6978939.086966621 -6978939.329365789 25
36 110011111111111001111111 -6978939.113417629 -6978939.325604286 29
37 111010111111111101111101 -6978939.107351808 -6978939.2809703555 28
38 111010111110111011111111 -6978939.089000895 -6978939.304513869 26
39 111010111111111101011111 -6978939.113263447 -6978939.309128356 27
40 111110111110111001111111 -6978939.087488282 -6978939.318467189 27
41 111110111111111000111111 -6978939.079725845 -6978939.282575596 26
42 111010111101111011111111 -6978939.110196827 -6978939.333244752 26
43 111011101111111001111111 -6978939.138167073 -6978939.323128081 25
44 111011111111111000111111 -6978939.11044819 -6978939.326510724 22
45 111010111110111011111111 -6978939.089000895 -6978939.304513869 26
46 111110111111111001011111 -6978939.112584684 -6978939.3231991455 28
47 111110110111111001111111 -6978939.088848153 -6978939.293669602 20
48 111110111111111000111111 -6978939.079725845 -6978939.282575596 26
49 111110111111111001111110 -6978939.0847299155 -6978939.308440935 31
50 111011111111111001111101 -6978939.13256149 -6978939.290847072 24
51 111000111111111011111111 -6978939.112073385 -6978939.33746975 27
52 111010111101111011111111 -6978939.110196827 -6978939.333244752 26
53 111001011111111011111111 -6978939.138167073 -6978939.320098466 21
54 011000111111111111111111 -6978939.104696742 -6978939.290452519 31
55 111010111111111011111101 -6978939.110196827 -6978939.3332447605 26
56 111010111011111011111111 -6978939.113625615 -6978939.317303221 29
57 101100111111111011111111 -6978939.111391674 -6978939.31494675 27
58 110010111111111011111111 -6978939.086966621 -6978939.329365789 25
59 111100111111111011110111 -6978939.086786011 -6978939.295138139 29
60 111000111111111111011111 -6978939.113263447 -6978939.31021298 31
61 111000011111111111111111 -6978939.112584684 -6978939.323199024 28
62 111100111111011011111111 -6978939.107624193 -6978939.278726286 30
63 111000111111111111110111 -6978939.086373379 -6978939.304342401 30
64 111010111111111011110111 -6978939.089068279 -6978939.30513585 25
65 011000111111111111111111 -6978939.104696742 -6978939.290452519 31
66 111001111110111011111111 -6978939.113867907 -6978939.311615674 26
67 111100111111111011111011 -6978939.113774594 -6978939.32003952 30
68 111000111111011111111111 -6978939.111781554 -6978939.328671547 27
69 011000111111111111111111 -6978939.104696742 -6978939.290452519 31
70 111010111110111011111111 -6978939.089000895 -6978939.304513869 26
71 111001111111111011111110 -6978939.108721596 -6978939.303328861 23
72 111010111110111011111111 -6978939.089000895 -6978939.304513869 26
73 111010111111101011111111 -6978939.109705644 -6978939.323583542 29
74 111100111111101011111111 -6978939.109888998 -6978939.311622374 27
75 110010111111111011111111 -6978939.086966621 -6978939.329365789 25
76 111100111111111011101111 -6978939.113263447 -6978939.31170149 30
77 111010111011111011111111 -6978939.113625615 -6978939.317303221 29
78 111010111111011011111111 -6978939.107430346 -6978939.285690086 24
79 111100111101111011111111 -6978939.107351808 -6978939.280970285 28
80 011000111111111111111111 -6978939.104696742 -6978939.290452519 31
81 111100111111101011111111 -6978939.109888998 -6978939.311622374 27
82 111000110111111111111111 -6978939.088848153 -6978939.293669614 20
83 111001011111111011111111 -6978939.138167073 -6978939.320098466 21
84 111100101111111011111111 -6978939.113556186 -6978939.306823109 31
85 111000111111111101111111 -6978939.112239238 -6978939.339247113 30
86 111000111111111111111011 -6978939.113263454 -6978939.317916515 30
87 111010011111111101111111 -6978939.113556186 -6978939.308193404 32
88 111100111111011101111111 -6978939.110814209 -6978939.3318312075 27
89 101001111111111101111111 -6978939.137478959 -6978939.32892648 26
90 111001111110111101111111 -6978939.113099247 -6978939.323869833 27
91 111000111111111111111110 -6978939.0847299155 -6978939.308440948 31
92 111000111101111111111111 -6978939.104406706 -6978939.293941503 27
93 111100111111110101111111 -6978939.089389274 -6978939.310617523 25
94 101100111111111101111111 -6978939.111534233 -6978939.316493052 26
95 111010111111110101111111 -6978939.087753223 -6978939.308015758 28
96 111100111111111001111111 -6978939.112239238 -6978939.339247148 30
97 111110111111111001101111 -6978939.112584684 -6978939.3240136895 31
98 111110011111111001111111 -6978939.113263447 -6978939.310213004 31
99 111100111111111011111110 -6978939.085563252 -6978939.301181923 30
100 111110111111111001011111 -6978939.112584684 -6978939.3231991455 28
101 111000111111111101111111 -6978939.112239238 -6978939.339247113 30
102 111010110111111101111111 -6978939.089246279 -6978939.284617746 20
103 011001111111111101111111 -6978939.132561465 -6978939.292894751 29
104 111100110111111101111111 -6978939.089389259 -6978939.295448663 31
105 111000111011111111111111 -6978939.111514701 -6978939.333319964 31
106 111010111111111101111011 -6978939.112271997 -6978939.31585964 27
107 111010111111101101111111 -6978939.111391674 -6978939.314946659 27
108 111010101111111101111111 -6978939.113263447 -6978939.311701559 30
109 111001111101111101111111 -6978939.132561562 -6978939.295013145 22
110 111000111011111111111111 -6978939.111514701 -6978939.333319964 31
111 111000111111011111111111 -6978939.111781554 -6978939.328671547 27
112 111001111111111101111101 -6978939.133372362 -6978939.2870561415 22
113 111000111111111110111111 -6978939.079725845 -6978939.282575702 26
114 111000111111111111111011 -6978939.113263454 -6978939.317916515 30
115 111000111011111111111111 -6978939.111514701 -6978939.333319964 31
116 111010111110111101111111 -6978939.088358334 -6978939.310243455 27
117 111000011111111111111111 -6978939.112584684 -6978939.323199024 28
118 111010111101111101111111 -6978939.110467076 -6978939.330841755 27
119 111001111110111101111111 -6978939.113099247 -6978939.323869833 27
120 111001111011111101111111 -6978939.137478861 -6978939.3358496595 29
121 101010111111111101111111 -6978939.109888998 -6978939.311622425 27
122 111000101111111111111111 -6978939.112584684 -6978939.324013654 31
123 111000111111101111111111 -6978939.110880036 -6978939.314519769 27
124 111010111011111101111111 -6978939.113774594 -6978939.320039522 30
125 111001101111111101111111 -6978939.138167073 -6978939.3203371875 20
126 011100111111111101111111 -6978939.110814209 -6978939.3318312 27
127 111010111111111101110111 -6978939.086786011 -6978939.295138287 29
128 111100111111110101111111 -6978939.089389274 -6978939.310617523 25
129 111100111111111101111101 -6978939.107477192 -6978939.292637501 27
130 111100111111111101011111 -6978939.113417621 -6978939.325604295 29
131 111000111111111111111011 -6978939.113263454 -6978939.317916515 30
132 111001111111111101110111 -6978939.109465338 -6978939.302179922 30
133 111100111011111101111111 -6978939.11242434 -6978939.331464065 31
134 111000111111111111111110 -6978939.0847299155 -6978939.308440948 31
135 111001111111111101111101 -6978939.133372362 -6978939.2870561415 22
136 111001011111111101111111 -6978939.138167073 -6978939.329462033 25
137 111010111111111100111111 -6978939.081004811 -6978939.274274074 28
138 111000111111111111110111 -6978939.086373379 -6978939.304342401 30
139 111000111111111111011111 -6978939.113263447 -6978939.31021298 31
140 111010111111111101111011 -6978939.112271997 -6978939.31585964 27
141 111000111111111111111011 -6978939.113263454 -6978939.317916515 30
142 111001111111111101101111 -6978939.138042479 -6978939.309953394 19
143 111010111111111101110111 -6978939.086786011 -6978939.295138287 29
144 111010101111111101111111 -6978939.113263447 -6978939.311701559 30
145 011100111111111101111111 -6978939.110814209 -6978939.3318312 27
146 011001111111111101111111 -6978939.132561465 -6978939.292894751 29
147 111100101111111101111111 -6978939.113793609 -6978939.308987727 30
148 111001111111111101011111 -6978939.138167073 -6978939.323128123 25
149 111010111111110101111111 -6978939.087753223 -6978939.308015758 28
150 111010111111111001111111 -6978939.112073385 -6978939.337469698 27
151 111000111011111111111111 -6978939.111514701 -6978939.333319964 31
152 111010011111111101111111 -6978939.113556186 -6978939.308193404 32
153 111001111111111101111011 -6978939.137260336 -6978939.32507542 28
154 111001111111111101111101 -6978939.133372362 -6978939.2870561415 22
155 101000111111111111111111 -6978939.109104351 -6978939.327403391 27
156 111000111111111111111110 -6978939.0847299155 -6978939.308440948 31
157 111000111111111111110111 -6978939.086373379 -6978939.304342401 30
158 011000111111111111111111 -6978939.104696742 -6978939.290452519 31
159 111100111111111101111011 -6978939.11242434 -6978939.331464088 31
160 111010111111111100111111 -6978939.081004811 -6978939.274274074 28
161 111010111011111101111111 -6978939.113774594 -6978939.320039522 30
162 111100111110111101111111 -6978939.086966621 -6978939.32936573 25
163 111000111101111111111111 -6978939.104406706 -6978939.293941503 27
164 111001111111111101111011 -6978939.137260336 -6978939.32507542 28
165 111100111110111101111111 -6978939.086966621 -6978939.32936573 25
166 111100111111111101111101 -6978939.107477192 -6978939.292637501 27
167 111010011111111101111111 -6978939.113556186 -6978939.308193404 32
168 111010111111111101111101 -6978939.107351808 -6978939.2809703555 28
169 110010111111111101111111 -6978939.08852539 -6978939.309988614 27
170 111000111111111110111111 -6978939.079725845 -6978939.282575702 26
171 111010111111111001111111 -6978939.112073385 -6978939.337469698 27
172 111001111111111101111110 -6978939.109945403 -6978939.314369812 24
173 101000111111111111111111 -6978939.109104351 -6978939.327403391 27
174 111001111111111100111111 -6978939.110165138 -6978939.329074763 19
175 101010111111111101111111 -6978939.109888998 -6978939.311622425 27
176 111010111111101101111111 -6978939.111391674 -6978939.314946659 27
177 111000111101111111111111 -6978939.104406706 -6978939.293941503 27
178 011001111111111101111111 -6978939.132561465 -6978939.292894751 29
179 111000111111111110111111 -6978939.079725845 -6978939.282575702 26
180 111000111110111111111111 -6978939.087488282 -6978939.318467186 27
181 111000111110111111111111 -6978939.087488282 -6978939.318467186 27
182 011000111111111111111111 -6978939.104696742 -6978939.290452519 31
183 111001111111110101111111 -6978939.113241119 -6978939.3198307045 27
184 111010111110111101111111 -6978939.088358334 -6978939.310243455 27
185 111010111111111100111111 -6978939.081004811 -6978939.274274074 28
186 111000111111111011111111 -6978939.112073385 -6978939.33746975 27
187 111010101111111101111111 -6978939.113263447 -6978939.311701559 30
188 111001111111110101111111 -6978939.113241119 -6978939.3198307045 27
189 111010111111111101101111 -6978939.113556186 -6978939.306823164 31
190 111001111111111101110111 -6978939.109465338 -6978939.302179922 30
191 111000111111111111110111 -6978939.086373379 -6978939.304342401 30
192 111100111111011101111111 -6978939.110814209 -6978939.3318312075 27
193 111100111011111101111111 -6978939.11242434 -6978939.331464065 31
194 111010111110111101111111 -6978939.088358334 -6978939.310243455 27
195 111100111111111001111111 -6978939.112239238 -6978939.339247148 30
196 111100111110111101111111 -6978939.086966621 -6978939.32936573 25
197 111100111111111011111110 -6978939.085563252 -6978939.301181923 30
198 111110011111111001111111 -6978939.113263447 -6978939.310213004 31
199 111100111111111100111111 -6978939.080650141 -6978939.281573448 20
