0 000011001001000110100010 -7684477.450484936 -7684477.753371401 21
1 010011001001000110100000 -7684477.4549909225 -7684477.7779075755 25
2 010010001001001110100000 -7684477.45354191 -7684477.75923932 25
3 010011001001000010100001 -7684477.471127045 -7684477.764278764 23
4 010011001000010110100000 -7684477.430593099 -7684477.75742184 26
5 010001001001000110110000 -7684477.455131392 -7684477.760787677 25
6 000011011001000110100000 -7684477.456871146 -7684477.761825884 21
7 010011001001000010101000 -7684477.466822093 -7684477.758565396 31
8 010001001001000110110000 -7684477.455131392 -7684477.760787677 25
9 010011011001000100100000 -7684477.447612785 -7684477.705128083 28
10 010011001001001010100000 -7684477.472714801 -7684477.799982173 25
11 000011011001001010100000 -7684477.4743356425 -7684477.780604656 24
12 110011000001001010100000 -7684477.450303104 -7684477.783105687 25
13 010011000001001110100000 -7684477.452280424 -7684477.777730474 27
14 110011000001001010100000 -7684477.450303104 -7684477.783105687 25
15 010011001001001000100010 -7684477.469728722 -7684477.780677015 25
16 110011001000001010100000 -7684477.451201681 -7684477.76968775 28
17 110011001001001000100000 -7684477.47063756 -7684477.7929091295 26
18 110001001001001010100000 -7684477.47074071 -7684477.780805199 24
19 010011001001001010001000 -7684477.4854150545 -7684477.773470252 28
20 010011001001000110100000 -7684477.4549909225 -7684477.7779075755 25
21 010001001001001010110000 -7684477.472780284 -7684477.777676323 24
22 000011001001001011100000 -7684477.490933066 -7684477.783040905 28
23 010001001001001011100000 -7684477.4877833845 -7684477.758139488 27
24 010011101001001000100000 -7684477.471148716 -7684477.807192119 25
25 010011101001000100100000 -7684477.454634024 -7684477.773702434 30
26 010011101001000000100010 -7684477.45255935 -7684477.791817855 25
27 010011101001000000100001 -7684477.471162218 -7684477.775606224 27
28 010011101000101000100000 -7684477.448722163 -7684477.768113929 28
29 010011100001001000100100 -7684477.444177702 -7684477.755487381 310
30 010001101001001000100010 -7684477.468149221 -7684477.783875935 27
31 010001101001001000100100 -7684477.465590802 -7684477.748580465 28
32 010011101001000000100100 -7684477.450321563 -7684477.756116686 32
33 010011101001000000100010 -7684477.45255935 -7684477.791817855 25
34 010011001101001000100000 -7684477.472574495 -7684477.790621207 24
35 010001101001001010100000 -7684477.47091131 -7684477.796556496 26
36 110001101001001000100000 -7684477.4688593745 -7684477.7988020275 25
37 000011101001101000100000 -7684477.470616598 -7684477.796410476 25
38 010001101001001010100000 -7684477.47091131 -7684477.796556496 26
39 010011101001001000000010 -7684477.470513232 -7684477.787919006 25
40 000011101001001000110000 -7684477.47322746 -7684477.789220449 25
41 000011101011001000100000 -7684477.466451731 -7684477.756297842 26
42 010011100001001000101000 -7684477.468771958 -7684477.796544551 28
43 010011001001001000100001 -7684477.48724386 -7684477.76122504 26
44 010011100001001100100000 -7684477.4491749285 -7684477.757453251 25
45 010001101001011000100000 -7684477.468651125 -7684477.803872836 24
46 010001101001001000100010 -7684477.468149221 -7684477.783875935 27
47 010011100011001000100000 -7684477.444985155 -7684477.725216624 29
48 010011001011001000100000 -7684477.465004803 -7684477.734485581 27
49 011011001001001000100000 -7684477.487462763 -7684477.7629533885 23
50 010011101100001000100000 -7684477.44462143 -7684477.72515161 27
51 010010101101001000100000 -7684477.447652185 -7684477.757316791 25
52 010010101001001000100010 -7684477.449829662 -7684477.776886762 27
53 010010101001001000110000 -7684477.452612608 -7684477.782628624 25
54 010011101100001000100000 -7684477.44462143 -7684477.72515161 27
55 010011101001000000100010 -7684477.45255935 -7684477.791817855 25
56 010011111000001000100000 -7684477.444835279 -7684477.729851312 28
57 000011101011001000100000 -7684477.466451731 -7684477.756297842 26
58 011011100001001000100000 -7684477.46539528 -7684477.742066494 25
59 010001101001001000110000 -7684477.47070429 -7684477.791586069 25
60 000011101001001000100001 -7684477.488967678 -7684477.781526711 26
61 110001101001001000100000 -7684477.4688593745 -7684477.7988020275 25
62 110011101001001000000000 -7684477.471416288 -7684477.816320244 24
63 100011101001001001000000 -7684477.489340992 -7684477.786837596 28
64 110011101000101000000000 -7684477.451661244 -7684477.786518478 31
65 110001101001001010000000 -7684477.47063756 -7684477.79280806 26
66 110011001101001000000000 -7684477.473073284 -7684477.796750849 27
67 111010101001001000000000 -7684477.468935162 -7684477.765820286 24
68 100011111001001000000000 -7684477.473354146 -7684477.796130139 25
69 110111101001000000000000 -7684477.44803381 -7684477.749733596 27
70 110011100001001000000001 -7684477.466151973 -7684477.75912342 27
71 110011100001001000000001 -7684477.466151973 -7684477.75912342 27
72 110011101000001000000100 -7684477.451165773 -7684477.777820538 34
73 110011001001001000000010 -7684477.470303627 -7684477.786893804 28
74 110011100001001000000001 -7684477.466151973 -7684477.75912342 27
75 110011101001100000000000 -7684477.450476353 -7684477.789354426 28
76 110001101001001000010000 -7684477.470428523 -7684477.786631899 25
77 010011101001001000000100 -7684477.472574495 -7684477.801697933 29
78 100111101001001000000000 -7684477.469039952 -7684477.754893979 27
79 110011101000001000010000 -7684477.451361392 -7684477.771208449 29
80 110011101001000000000001 -7684477.468687212 -7684477.76547746 27
81 110010101001001000100000 -7684477.450522613 -7684477.7979556015 25
82 110011001001001000001000 -7684477.4866386335 -7684477.78031165 27
83 110011101001000000000100 -7684477.452351589 -7684477.793161403 32
84 110010101001001000000010 -7684477.449832355 -7684477.772896229 24
85 100011101011001000000000 -7684477.466634657 -7684477.763236553 27
86 110001101001001100000000 -7684477.470513212 -7684477.783337704 26
87 110111101001000000000000 -7684477.44803381 -7684477.749733596 27
88 110011001001001000000100 -7684477.472368686 -7684477.7900901865 31
89 110001101001001010000000 -7684477.47063756 -7684477.79280806 26
90 110111100001001000000000 -7684477.444882319 -7684477.756180056 28
91 110011101001010000000000 -7684477.450514626 -7684477.792141608 29
92 110011101001100000000000 -7684477.450476353 -7684477.789354426 28
93 110011100011001000000000 -7684477.444595555 -7684477.7491965415 27
94 110010101101001000000000 -7684477.447002726 -7684477.7514027525 27
95 100011101001001000000001 -7684477.48860779 -7684477.771823833 25
96 010011101001001000000010 -7684477.470513232 -7684477.787919006 25
97 110011100001001000000001 -7684477.466151973 -7684477.75912342 27
98 010011101001001000010000 -7684477.472696621 -7684477.785108162 27
99 110010101001011000000000 -7684477.452574411 -7684477.798757621 23
100 010011101001011000000000 -7684477.471022905 -7684477.803889651 26
101 110010101001001000001000 -7684477.466911291 -7684477.777817886 28
102 110011101001000000001000 -7684477.4666602705 -7684477.773535215 28
103 110011100001001000100000 -7684477.448059087 -7684477.7850994505 25
104 110011101001000010000000 -7684477.453037733 -7684477.801792082 26
105 110010101001001100000000 -7684477.452018486 -7684477.779470448 29
106 110001101001101000000000 -7684477.4686430525 -7684477.794640013 26
107 110010101001011000000000 -7684477.452574411 -7684477.798757621 23
108 110010111001001000000000 -7684477.44717078 -7684477.752614993 28
109 010011101001001000100000 -7684477.471148716 -7684477.807192119 25
110 110010101001101000000000 -7684477.450321207 -7684477.790881627 27
111 110111101000001000000000 -7684477.4464861695 -7684477.749152174 27
112 110010101001001000000010 -7684477.449832355 -7684477.772896229 24
113 110111101001000000000000 -7684477.44803381 -7684477.749733596 27
114 110011001101001000000000 -7684477.473073284 -7684477.796750849 27
115 110011001001001000100000 -7684477.47063756 -7684477.7929091295 26
116 111011100001001000000000 -7684477.466660283 -7684477.765674319 24
117 101011101001001000000000 -7684477.489168122 -7684477.779556578 27
118 110011001001001000010000 -7684477.472491374 -7684477.790114043 37
119 010011101001001000100000 -7684477.471148716 -7684477.807192119 25
120 110011101000001000001000 -7684477.466151908 -7684477.771216958 31
121 110001101001101000000000 -7684477.4686430525 -7684477.794640013 26
122 110010111001001000000000 -7684477.44717078 -7684477.752614993 28
123 110011101000001000001000 -7684477.466151908 -7684477.771216958 31
124 010011101001001001000000 -7684477.48871438 -7684477.781220755 26
125 110010101001001010000000 -7684477.452534828 -7684477.790291381 25
126 010011101001001000001000 -7684477.487302703 -7684477.788405373 24
127 110011100001001100000000 -7684477.449984854 -7684477.782702493 29
128 100011101001001000001000 -7684477.486605704 -7684477.769213552 28
129 110011001001001010000000 -7684477.473006644 -7684477.807276471 28
130 011011101001001000000000 -7684477.489215581 -7684477.776033526 24
131 110011101001000010000000 -7684477.453037733 -7684477.801792082 26
132 010111101001001000000000 -7684477.473544439 -7684477.803175811 26
133 110001101001001000010000 -7684477.470428523 -7684477.786631899 25
134 100011111001001000000000 -7684477.473354146 -7684477.796130139 25
135 110001111001001000000000 -7684477.466634657 -7684477.760108806 27
136 110011101101000000000000 -7684477.44722523 -7684477.754382853 27
137 110011110001001000000000 -7684477.445144763 -7684477.742946297 26
138 100011101001001000000100 -7684477.472491339 -7684477.788833525 31
139 110111101000001000000000 -7684477.4464861695 -7684477.749152174 27
140 010011101001001100000000 -7684477.47277931 -7684477.789582459 27
141 110001101001001001000000 -7684477.486686305 -7684477.776326995 26
142 110010101001001000001000 -7684477.466911291 -7684477.777817886 28
143 110011100001001100000000 -7684477.449984854 -7684477.782702493 29
144 100011101001001000001000 -7684477.486605704 -7684477.769213552 28
145 110011100001001000001000 -7684477.469151611 -7684477.80977278 24
146 110011001001001000000010 -7684477.470303627 -7684477.786893804 28
147 110011001001001000010000 -7684477.472491374 -7684477.790114043 37
148 110011101001010000000000 -7684477.450514626 -7684477.792141608 29
149 110001101001001000000100 -7684477.470303655 -7684477.789470838 31
150 101011101001001000000000 -7684477.489168122 -7684477.779556578 27
151 110001101001001000000100 -7684477.470303655 -7684477.789470838 31
152 110001101001001100000000 -7684477.470513212 -7684477.783337704 26
153 110001101001001000001000 -7684477.487088746 -7684477.780149258 28
154 100011101001001001000000 -7684477.489340992 -7684477.786837596 28
155 010011101001001000001000 -7684477.487302703 -7684477.788405373 24
156 110011001001001000000100 -7684477.472368686 -7684477.7900901865 31
157 110010101001101000000000 -7684477.450321207 -7684477.790881627 27
158 110001101101001000000000 -7684477.466560076 -7684477.751018146 27
159 011011101001001000000000 -7684477.489215581 -7684477.776033526 24
160 111011101001000000000000 -7684477.474237675 -7684477.815962401 24
161 110011100001001000000001 -7684477.466151973 -7684477.75912342 27
162 110011101100001000000000 -7684477.446701635 -7684477.7395745525 31
163 010011101011001000000000 -7684477.466394898 -7684477.754919814 28
164 010011101001001000000010 -7684477.470513232 -7684477.787919006 25
165 110001101001001001000000 -7684477.486686305 -7684477.776326995 26
166 110011001011001000000000 -7684477.466560048 -7684477.754331867 26
167 111011100001001000000000 -7684477.466660283 -7684477.765674319 24
168 110010101001101000000000 -7684477.450321207 -7684477.790881627 27
169 100011101101001000000000 -7684477.468423984 -7684477.752476483 30
170 010011101001001001000000 -7684477.48871438 -7684477.781220755 26
171 110011110001001000000000 -7684477.445144763 -7684477.742946297 26
172 110011100001001000010000 -7684477.4497387055 -7684477.7671731515 25
173 111011100001001000000000 -7684477.466660283 -7684477.765674319 24
174 100011101001001000000001 -7684477.48860779 -7684477.771823833 25
175 010111101001001000000000 -7684477.473544439 -7684477.803175811 26
176 110010101001001000001000 -7684477.466911291 -7684477.777817886 28
177 110011101001000000001000 -7684477.4666602705 -7684477.773535215 28
178 110011101000001000100000 -7684477.449567542 -7684477.783811712 27
179 111011101001000000000000 -7684477.474237675 -7684477.815962401 24
180 110011101010001000000000 -7684477.44450197 -7684477.742198548 30
181 110011011001001000000000 -7684477.468424019 -7684477.753718864 27
182 110011101001000000010000 -7684477.4525123 -7684477.777170809 28
183 110010101001001001000000 -7684477.473669401 -7684477.820217262 23
184 010010101001001011000000 -7684477.475028233 -7684477.800866536 24
185 110110101000001001000000 -7684477.449118566 -7684477.749727574 28
186 100010101001001101000000 -7684477.472574558 -7684477.790674784 31
187 100010101001001001000010 -7684477.470637611 -7684477.792559058 27
188 110010100001001001000001 -7684477.468935197 -7684477.765820267 24
189 100010101001001001000100 -7684477.472574476 -7684477.787440894 30
190 110010101001011000000000 -7684477.452574411 -7684477.798757621 23
191 100010101011001001000000 -7684477.466880651 -7684477.766651095 27
192 110010101001000001000100 -7684477.454074933 -7684477.785194674 31
193 110010101000011001000000 -7684477.454621775 -7684477.795492593 25
194 110010101100001001000000 -7684477.4495855495 -7684477.741493145 27
195 110010101000101001000000 -7684477.454766337 -7684477.8004868915 28
196 100010111001001001000000 -7684477.471305782 -7684477.802680719 24
197 110010001001001011000000 -7684477.475028249 -7684477.800906752 25
198 110010101001001000000001 -7684477.46841546 -7684477.765816751 25
199 110010101001001000100000 -7684477.450522613 -7684477.7979556015 25
