
-----------------------------   Welcome to ....   ------------------------------
                      _______  _______ _______ _______ 
                     |   _   \|   _   |   _   |   _   |
                     |.  1   /|.  |   |   1___|   1___|
                     |.  _   \|.  |   |____   |____   |
                     |:  1    |:  1   |:  1   |:  1   |
                     |::.. .  |::.. . |::.. . |::.. . |
                     `-------'`-------`-------`-------'

                                  Version 1.4                                   
                              25-07-2021 21:23:15                               
--------------------------------------------------------------------------------

--------------------------------------------------------------------------------
                               SIMULATION OPTIONS                               
--------------------------------------------------------------------------------
|| File input/output 
ipfile         boss.in
userfn         run.py <lambda>
outfile        gamma_boss_03/boss.out
rstfile        gamma_boss_03/boss.rst

|| Key settings 
bounds         -1.200E+01 0.000E+00
kerntype       rbf
yrange         -4.000E+00 0.000E+00
noise          1.000E-06
inittype       sobol
initpts   5    iterpts   15
gm_tol         none
verbosity      2

|| Data acquisition 
acqfn                elcb
acqtol               1.000E-03

|| GP hyperparameters 
thetainit       2.000E+00
thetabounds     2.000E-03 2.000E+03;    6.000E-03 6.000E+01
thetaprior      gamma
thetapriorpar   2.000E+00 5.000E-01;    1.571E+00 5.396E-01

|| Hyperparameter optimization
updatefreq   1  initupdate      True
updateoffset 0  updaterestarts  2

| postprocessing
pp_models         = False
pp_acq_funcs      = False
pp_truef_npts     = none
pp_model_slice        = 1 1 50
pp_truef_at_xhats = False
pp_local_minima   = none


--------------------------------------------------------------------------------
                              INITIAL DATAPOINT 1                               
--------------------------------------------------------------------------------
| Evaluating objective function at x = -1.200E+01
| Objective function evaluated, time [s]       41.407
| Data point added to dataset (x y): 
 -1.2000000000E+01      -3.4246616092E-01

| Total ensemble size: 1
| Next sampling location x_next:
 -6.0000000000E+00

Iteration time [s]:   41.412        Total time [s]:   41.427

--------------------------------------------------------------------------------
                              INITIAL DATAPOINT 2                               
--------------------------------------------------------------------------------
| Evaluating objective function at x = -6.000E+00
| Objective function evaluated, time [s]       41.290
| Data point added to dataset (x y): 
 -6.0000000000E+00      -7.6895908868E-01

| Total ensemble size: 2
| Next sampling location x_next:
 -3.0000000000E+00

Iteration time [s]:   41.294        Total time [s]:   82.723

--------------------------------------------------------------------------------
                              INITIAL DATAPOINT 3                               
--------------------------------------------------------------------------------
| Evaluating objective function at x = -3.000E+00
| Objective function evaluated, time [s]       41.569
| Data point added to dataset (x y): 
 -3.0000000000E+00      -1.9968094169E+00

| Total ensemble size: 3
| Next sampling location x_next:
 -9.0000000000E+00

Iteration time [s]:   41.573        Total time [s]:  124.298

--------------------------------------------------------------------------------
                              INITIAL DATAPOINT 4                               
--------------------------------------------------------------------------------
| Evaluating objective function at x = -9.000E+00
| Objective function evaluated, time [s]       41.256
| Data point added to dataset (x y): 
 -9.0000000000E+00      -3.4276467782E-01

| Total ensemble size: 4
| Next sampling location x_next:
 -7.5000000000E+00

Iteration time [s]:   41.260        Total time [s]:  165.561

--------------------------------------------------------------------------------
                              INITIAL DATAPOINT 5                               
--------------------------------------------------------------------------------
| Evaluating objective function at x = -7.500E+00
| Objective function evaluated, time [s]       41.225
| Data point added to dataset (x y): 
 -7.5000000000E+00      -4.7492314702E-01

| Total ensemble size: 5
| Best acquisition, x_best y_best:
 -3.0000000000E+00      -1.9968094169E+00
| Global minimum prediction, x_hat mu_hat +- nu_hat:
  0.0000000000E+00      -3.1492860744E+00  1.0367527178E-01

| GP model hyperparameters:
  1.9339006578E+00  4.6107545167E+00
| Next sampling location x_next:
  0.0000000000E+00

Iteration time [s]:   41.397        Total time [s]:  206.960

--------------------------------------------------------------------------------
                                 BO ITERATION 1                                 
--------------------------------------------------------------------------------
| Evaluating objective function at x = 0.000E+00
| Objective function evaluated, time [s]       43.428
| Data point added to dataset (x y): 
  0.0000000000E+00      -1.1329679043E+00

| Total ensemble size: 6
| Best acquisition, x_best y_best:
 -3.0000000000E+00      -1.9968094169E+00
| Global minimum prediction, x_hat mu_hat +- nu_hat:
 -2.5212257886E+00      -2.0413038030E+00  2.4802900162E-03
| Global minimum convergence, d_xhat d_muhat:
  2.5212257886E+00  6.6974146231E-01

| GP model hyperparameters:
  8.6902116929E-01  2.6717254169E+00
| Next sampling location x_next:
 -1.9749512985E+00

Iteration time [s]:   43.666        Total time [s]:  250.629

--------------------------------------------------------------------------------
                                 BO ITERATION 2                                 
--------------------------------------------------------------------------------
| Evaluating objective function at x = -1.975E+00
| Objective function evaluated, time [s]       41.274
| Data point added to dataset (x y): 
 -1.9749512985E+00      -2.1357333391E+00

| Total ensemble size: 7
| Best acquisition, x_best y_best:
 -1.9749512985E+00      -2.1357333391E+00
| Global minimum prediction, x_hat mu_hat +- nu_hat:
 -2.1475746759E+00      -2.1424722068E+00  4.4902426487E-06
| Global minimum convergence, d_xhat d_muhat:
  3.7365111263E-01  5.6415689171E-02

| GP model hyperparameters:
  1.5438228494E+00  3.0644266540E+00
| Next sampling location x_next:
 -2.1806755754E+00

Iteration time [s]:   41.525        Total time [s]:  292.157

--------------------------------------------------------------------------------
                                 BO ITERATION 3                                 
--------------------------------------------------------------------------------
| Evaluating objective function at x = -2.181E+00
| Objective function evaluated, time [s]       41.346
| Data point added to dataset (x y): 
 -2.1806755754E+00      -2.1278407499E+00

| Total ensemble size: 8
| Best acquisition, x_best y_best:
 -1.9749512985E+00      -2.1357333391E+00
| Global minimum prediction, x_hat mu_hat +- nu_hat:
 -1.9740729803E+00      -2.1356322612E+00  2.0161609343E-06
| Global minimum convergence, d_xhat d_muhat:
  1.7350169563E-01  3.8142367567E-03

| GP model hyperparameters:
  9.4266407923E-01  1.9569650974E+00
| Next sampling location x_next:
 -1.9320557729E+00

Iteration time [s]:   41.601        Total time [s]:  333.768

--------------------------------------------------------------------------------
                                 BO ITERATION 4                                 
--------------------------------------------------------------------------------
| Evaluating objective function at x = -1.932E+00
| Objective function evaluated, time [s]       41.316
| Data point added to dataset (x y): 
 -1.9320557729E+00      -2.1351611219E+00

| Total ensemble size: 9
| Best acquisition, x_best y_best:
 -1.9749512985E+00      -2.1357333391E+00
| Global minimum prediction, x_hat mu_hat +- nu_hat:
 -1.9750163532E+00      -2.1355713036E+00  1.4213041420E-06
| Global minimum convergence, d_xhat d_muhat:
  9.4337288484E-04  3.3992463444E-05

| GP model hyperparameters:
  1.0142936679E+00  1.9796470121E+00
| Next sampling location x_next:
 -1.9645431454E+00

Iteration time [s]:   41.546        Total time [s]:  375.316

--------------------------------------------------------------------------------
                                 BO ITERATION 5                                 
--------------------------------------------------------------------------------
| Evaluating objective function at x = -1.965E+00
| Objective function evaluated, time [s]       41.292
| Data point added to dataset (x y): 
 -1.9645431454E+00      -2.1356745761E+00

| Total ensemble size: 10
| Best acquisition, x_best y_best:
 -1.9749512985E+00      -2.1357333391E+00
| Global minimum prediction, x_hat mu_hat +- nu_hat:
 -1.9744792560E+00      -2.1356066517E+00  1.2929064653E-06
| Global minimum convergence, d_xhat d_muhat:
  5.3709718886E-04  1.9711573541E-05

| GP model hyperparameters:
  1.0830610436E+00  1.9974332406E+00
| Next sampling location x_next:
 -1.9676083182E+00

Iteration time [s]:   41.539        Total time [s]:  416.858

--------------------------------------------------------------------------------
                                 BO ITERATION 6                                 
--------------------------------------------------------------------------------
| Evaluating objective function at x = -1.968E+00
| Objective function evaluated, time [s]       41.191
| Data point added to dataset (x y): 
 -1.9676083182E+00      -2.1356960368E+00

| Total ensemble size: 11
| Best acquisition, x_best y_best:
 -1.9749512985E+00      -2.1357333391E+00
| Global minimum prediction, x_hat mu_hat +- nu_hat:
 -1.9740992749E+00      -2.1356274435E+00  1.2256011518E-06
| Global minimum convergence, d_xhat d_muhat:
  3.7998109261E-04  1.1594329726E-05

| GP model hyperparameters:
  1.1470026611E+00  2.0139796901E+00
| Next sampling location x_next:
 -1.9689597670E+00

Iteration time [s]:   41.450        Total time [s]:  458.312

--------------------------------------------------------------------------------
                                 BO ITERATION 7                                 
--------------------------------------------------------------------------------
| Evaluating objective function at x = -1.969E+00
| Objective function evaluated, time [s]       41.179
| Data point added to dataset (x y): 
 -1.9689597670E+00      -2.1357042299E+00

| Total ensemble size: 12
| Best acquisition, x_best y_best:
 -1.9749512985E+00      -2.1357333391E+00
| Global minimum prediction, x_hat mu_hat +- nu_hat:
 -1.9738017844E+00      -2.1356412405E+00  1.1837680188E-06
| Global minimum convergence, d_xhat d_muhat:
  2.9749049131E-04  7.6937848867E-06

| GP model hyperparameters:
  1.2048667454E+00  2.0286417934E+00
| Next sampling location x_next:
 -1.9696782573E+00

Iteration time [s]:   41.411        Total time [s]:  499.726

--------------------------------------------------------------------------------
                                 BO ITERATION 8                                 
--------------------------------------------------------------------------------
| Evaluating objective function at x = -1.970E+00
| Objective function evaluated, time [s]       41.216
| Data point added to dataset (x y): 
 -1.9696782573E+00      -2.1357085646E+00

| Total ensemble size: 13
| Best acquisition, x_best y_best:
 -1.9749512985E+00      -2.1357333391E+00
| Global minimum prediction, x_hat mu_hat +- nu_hat:
 -1.9735589800E+00      -2.1356511780E+00  1.1551476501E-06
| Global minimum convergence, d_xhat d_muhat:
  2.4280444499E-04  5.5415761500E-06

| GP model hyperparameters:
  1.2566920605E+00  2.0414293283E+00
| Next sampling location x_next:
 -1.9700899887E+00

Iteration time [s]:   41.482        Total time [s]:  541.210

--------------------------------------------------------------------------------
                                 BO ITERATION 9                                 
--------------------------------------------------------------------------------
| Evaluating objective function at x = -1.970E+00
| Objective function evaluated, time [s]       41.363
| Data point added to dataset (x y): 
 -1.9700899887E+00      -2.1357110024E+00

| Total ensemble size: 14
| Best acquisition, x_best y_best:
 -1.9749512985E+00      -2.1357333391E+00
| Global minimum prediction, x_hat mu_hat +- nu_hat:
 -1.9733541314E+00      -2.1356587096E+00  1.1342993585E-06
| Global minimum convergence, d_xhat d_muhat:
  2.0484853583E-04  4.1999305953E-06

| GP model hyperparameters:
  1.3029904294E+00  2.0525576053E+00
| Next sampling location x_next:
 -1.9703733710E+00

Iteration time [s]:   41.607        Total time [s]:  582.820

--------------------------------------------------------------------------------
                                BO ITERATION 10                                 
--------------------------------------------------------------------------------
| Evaluating objective function at x = -1.970E+00
| Objective function evaluated, time [s]       41.427
| Data point added to dataset (x y): 
 -1.9703733710E+00      -2.1357126570E+00

| Total ensemble size: 15
| Best acquisition, x_best y_best:
 -1.9749512985E+00      -2.1357333391E+00
| Global minimum prediction, x_hat mu_hat +- nu_hat:
 -1.9731795489E+00      -2.1356646475E+00  1.1184222380E-06
| Global minimum convergence, d_xhat d_muhat:
  1.7458250494E-04  3.3112375728E-06

| GP model hyperparameters:
  1.3443917808E+00  2.0622648471E+00
| Next sampling location x_next:
 -1.9705230529E+00

Iteration time [s]:   41.681        Total time [s]:  624.504

--------------------------------------------------------------------------------
                                BO ITERATION 11                                 
--------------------------------------------------------------------------------
| Evaluating objective function at x = -1.971E+00
| Objective function evaluated, time [s]       41.786
| Data point added to dataset (x y): 
 -1.9705230529E+00      -2.1357135362E+00

| Total ensemble size: 16
| Best acquisition, x_best y_best:
 -1.9749512985E+00      -2.1357333391E+00
| Global minimum prediction, x_hat mu_hat +- nu_hat:
 -1.9730283882E+00      -2.1356694414E+00  1.1059187902E-06
| Global minimum convergence, d_xhat d_muhat:
  1.5116078656E-04  2.6732881459E-06

| GP model hyperparameters:
  1.3815205052E+00  2.0707765719E+00
| Next sampling location x_next:
 -1.9706674407E+00

Iteration time [s]:   42.048        Total time [s]:  666.554

--------------------------------------------------------------------------------
                                BO ITERATION 12                                 
--------------------------------------------------------------------------------
| Evaluating objective function at x = -1.971E+00
| Objective function evaluated, time [s]       41.275
| Data point added to dataset (x y): 
 -1.9706674407E+00      -2.1357143859E+00

| Total ensemble size: 17
| Best acquisition, x_best y_best:
 -1.9749512985E+00      -2.1357333391E+00
| Global minimum prediction, x_hat mu_hat +- nu_hat:
 -1.9728974609E+00      -2.1356734190E+00  1.0958146591E-06
| Global minimum convergence, d_xhat d_muhat:
  1.3092721246E-04  2.2180693601E-06

| GP model hyperparameters:
  1.4149163542E+00  2.0782798368E+00
| Next sampling location x_next:
 -1.9707514120E+00

Iteration time [s]:   41.570        Total time [s]:  708.127

--------------------------------------------------------------------------------
                                BO ITERATION 13                                 
--------------------------------------------------------------------------------
| Evaluating objective function at x = -1.971E+00
| Objective function evaluated, time [s]       41.273
| Data point added to dataset (x y): 
 -1.9707514120E+00      -2.1357148716E+00

| Total ensemble size: 18
| Best acquisition, x_best y_best:
 -1.9749512985E+00      -2.1357333391E+00
| Global minimum prediction, x_hat mu_hat +- nu_hat:
 -1.9727823513E+00      -2.1356767666E+00  1.0874770782E-06
| Global minimum convergence, d_xhat d_muhat:
  1.1510962802E-04  1.8667359480E-06

| GP model hyperparameters:
  1.4451133919E+00  2.0849352768E+00
| Next sampling location x_next:
 -1.9708263142E+00

Iteration time [s]:   41.532        Total time [s]:  749.668

--------------------------------------------------------------------------------
                                BO ITERATION 14                                 
--------------------------------------------------------------------------------
| Evaluating objective function at x = -1.971E+00
| Objective function evaluated, time [s]       41.274
| Data point added to dataset (x y): 
 -1.9708263142E+00      -2.1357152980E+00

| Total ensemble size: 19
| Best acquisition, x_best y_best:
 -1.9749512985E+00      -2.1357333391E+00
| Global minimum prediction, x_hat mu_hat +- nu_hat:
 -1.9726802848E+00      -2.1356796299E+00  1.0804791547E-06
| Global minimum convergence, d_xhat d_muhat:
  1.0206652065E-04  1.5966966690E-06

| GP model hyperparameters:
  1.4724848307E+00  2.0908705566E+00
| Next sampling location x_next:
 -1.9708629153E+00

Iteration time [s]:   41.564        Total time [s]:  791.235

--------------------------------------------------------------------------------
                                BO ITERATION 15                                 
--------------------------------------------------------------------------------
| Evaluating objective function at x = -1.971E+00
| Objective function evaluated, time [s]       41.277
| Data point added to dataset (x y): 
 -1.9708629153E+00      -2.1357155022E+00

| Total ensemble size: 20
| Best acquisition, x_best y_best:
 -1.9749512985E+00      -2.1357333391E+00
| Global minimum prediction, x_hat mu_hat +- nu_hat:
 -1.9725893136E+00      -2.1356821007E+00  1.0745207189E-06
| Global minimum convergence, d_xhat d_muhat:
  9.0971225826E-05  1.3777967827E-06

| GP model hyperparameters:
  1.4973976200E+00  2.0961931686E+00
| Next sampling location x_next:
 -1.9708882936E+00

Iteration time [s]:   41.575        Total time [s]:  832.813
