0 100010001110011110000101 -7508092.75391137 -7508093.083528293 27
1 101010001110011110000100 -7508092.746398254 -7508093.039355755 26
2 100000001110011110000111 -7508092.752219814 -7508093.0880468115 31
3 100001001110010110000111 -7508092.750058218 -7508093.111915533 38
4 100001001110010100001111 -7508092.773184295 -7508093.119245911 36
5 100101001110010000001111 -7508092.768269207 -7508093.073924316 32
6 100101001100010100001111 -7508092.767560639 -7508093.095325439 43
7 100000001110011100001111 -7508092.776145472 -7508093.118933069 31
8 100000011010011100001111 -7508092.775712868 -7508093.115123121 27
9 100000011110011000001111 -7508092.779136202 -7508093.128251716 31
10 100000011110001001001111 -7508092.8005479565 -7508093.161773803 30
11 100000011100001101001111 -7508092.798443559 -7508093.151498422 31
12 110000011110001001000111 -7508092.777151418 -7508093.121332176 25
13 100000111110001000001111 -7508092.772094146 -7508093.109872902 23
14 100000011110001010001111 -7508092.770827777 -7508093.0827144915 33
15 100000001110011001001111 -7508092.802202145 -7508093.146886762 28
16 100000011110010001001111 -7508092.776973483 -7508093.1343208095 36
17 100000011011001001001111 -7508092.814523917 -7508093.124846687 26
18 100000011110001011001101 -7508092.799073886 -7508093.146599745 30
19 100100011110001000001111 -7508092.772207961 -7508093.09365212 31
20 100100010110001001001111 -7508092.781395124 -7508093.158629248 25
21 100000011110011000001111 -7508092.779136202 -7508093.128251716 31
22 100000011110101000001111 -7508092.779129512 -7508093.134655021 34
23 100000011101001001001111 -7508092.815989951 -7508093.121445933 36
24 100001010110001001001111 -7508092.804963241 -7508093.16728523 25
25 100001010010001001011111 -7508092.802462925 -7508093.16182955 29
26 100001011110001001000111 -7508092.798609608 -7508093.14814196 27
27 100001010101001001001111 -7508092.817534234 -7508093.116906844 20
28 100001010100011001001111 -7508092.799751606 -7508093.135097792 20
29 100001000110001001011111 -7508092.80461226 -7508093.163761906 25
30 000001010110001011001111 -7508092.797179312 -7508093.138693818 24
31 100000010110001001011111 -7508092.7864878215 -7508093.194046085 25
32 100000011010001001011111 -7508092.798247646 -7508093.165148056 28
33 100000110110001001011101 -7508092.778065719 -7508093.150609121 19
34 100001010110001000011111 -7508092.789011821 -7508093.176320791 28
35 100000010100011001011111 -7508092.779524412 -7508093.137054238 21
36 100000010100011001011111 -7508092.779524412 -7508093.137054238 21
37 100000011110001001001111 -7508092.8005479565 -7508093.161773803 30
38 100000010110001001110111 -7508092.754536518 -7508093.121213257 26
39 100000011110001001001111 -7508092.8005479565 -7508093.161773803 30
40 100000010110001001111011 -7508092.78303663 -7508093.189753652 24
41 100000110110000001011111 -7508092.758138917 -7508093.147931967 28
42 100000000111001001011111 -7508092.802739833 -7508093.162255274 21
43 100000010111001001010111 -7508092.777288544 -7508093.13176467 25
44 100000000110101001011111 -7508092.788807967 -7508093.187864132 25
45 100000110110001000011111 -7508092.760112119 -7508093.136794216 22
46 100000000110001101011111 -7508092.786221107 -7508093.193963696 28
47 100000010110001101011110 -7508092.762457972 -7508093.16074194 27
48 101000000110001101001111 -7508092.799753832 -7508093.167435513 31
49 100000000110011100011111 -7508092.7594750095 -7508093.116941937 24
50 100000010110001101010111 -7508092.760433865 -7508093.169174307 28
51 100000000110001111011110 -7508092.756208036 -7508093.109000571 27
52 100000010110001101011110 -7508092.762457972 -7508093.16074194 27
53 100000000110001111011110 -7508092.756208036 -7508093.109000571 27
54 100000100110001101011110 -7508092.756380222 -7508093.102939241 25
55 000000001110001101011111 -7508092.798597943 -7508093.171613873 27
56 100010000110001101011101 -7508092.776712526 -7508093.131921678 28
57 100001000110001101001111 -7508092.805236592 -7508093.174302985 30
58 100000000100001111011111 -7508092.777534166 -7508093.154718698 31
59 100010000110001100011111 -7508092.756001195 -7508093.112918333 24
60 110000000110001101011101 -7508092.785032567 -7508093.17157169 20
61 100000010110000101011111 -7508092.760732355 -7508093.181989568 24
62 100000000110101101011110 -7508092.759980524 -7508093.11873056 24
63 110000000110001101011110 -7508092.764510918 -7508093.142672172 25
64 000000000111001101011111 -7508092.803110344 -7508093.178857158 25
65 100010000110001001011111 -7508092.780166889 -7508093.146507013 24
66 100000001110001101011110 -7508092.776618457 -7508093.123319845 29
67 100000001110000101011111 -7508092.775147199 -7508093.143198056 35
68 100000000110001111011110 -7508092.756208036 -7508093.109000571 27
69 100000010100001101011111 -7508092.782598397 -7508093.194778783 32
70 000000010101001101011111 -7508092.7999170795 -7508093.167324487 27
71 100010010100001001011111 -7508092.781342461 -7508093.164969053 25
72 100000010100001101111011 -7508092.7783170985 -7508093.166303015 26
73 100010010100001101001111 -7508092.780639307 -7508093.167945253 32
74 100000010110001101011110 -7508092.762457972 -7508093.16074194 27
75 100100010100001101010111 -7508092.752222 -7508093.126291705 39
76 100000010100101101001111 -7508092.779524453 -7508093.137565377 35
77 100100010100001101010111 -7508092.752222 -7508093.126291705 39
78 100000011100001001011111 -7508092.799564852 -7508093.168048318 32
79 100001000100001101011111 -7508092.801973563 -7508093.168912497 35
80 100010010100001001011111 -7508092.781342461 -7508093.164969053 25
81 100000010000101101011111 -7508092.778065719 -7508093.168069898 33
82 100000010100011100011111 -7508092.758382201 -7508093.12994543 40
83 110000010100001001011111 -7508092.780166889 -7508093.139921246 21
84 100000010110000101011111 -7508092.760732355 -7508093.181989568 24
85 100001010100001001011111 -7508092.800745377 -7508093.145652536 23
86 100001010000001101011111 -7508092.799502277 -7508093.173084343 34
87 100010010100001101001111 -7508092.780639307 -7508093.167945253 32
88 110000010100001101011101 -7508092.77740274 -7508093.144191001 21
89 100000000100001101111111 -7508092.777534169 -7508093.138978044 27
90 100001010100001100011111 -7508092.785546077 -7508093.191039115 34
91 100000110100001101001111 -7508092.776983015 -7508093.1348370705 33
92 100010010100000101011111 -7508092.75542856 -7508093.151623403 27
93 100000010100000101111111 -7508092.753377186 -7508093.119923675 27
94 100001010100001001011111 -7508092.800745377 -7508093.145652536 23
95 100000010100011101001111 -7508092.783798145 -7508093.17241142 35
96 100000010100101100011111 -7508092.758853694 -7508093.128468364 34
97 100000010100000101111111 -7508092.753377186 -7508093.119923675 27
98 100000010110001101011101 -7508092.783036638 -7508093.181281951 25
99 100000010100001110011111 -7508092.755533444 -7508093.135480963 31
100 100000110000001101011111 -7508092.780373175 -7508093.188248021 35
101 000000010100001101111111 -7508092.775178765 -7508093.154567815 25
102 100000010100001110011111 -7508092.755533444 -7508093.135480963 31
103 100000010001001101011111 -7508092.79680109 -7508093.147032709 29
104 110000010100001101001111 -7508092.779458066 -7508093.129591191 25
105 100001000100001101011111 -7508092.801973563 -7508093.168912497 35
106 100000010100101101001111 -7508092.779524453 -7508093.137565377 35
107 100100010100001101011101 -7508092.775599641 -7508093.139161763 25
108 010000010100001101011111 -7508092.778200832 -7508093.150593757 21
109 100000010100011101001111 -7508092.783798145 -7508093.17241142 35
110 100010010100001101011011 -7508092.777877715 -7508093.161853137 25
111 000000010101001101011111 -7508092.7999170795 -7508093.167324487 27
112 100000010000101101011111 -7508092.778065719 -7508093.168069898 33
113 000000010100001111011111 -7508092.775178761 -7508093.159596653 29
114 101000010100001101001111 -7508092.796410895 -7508093.149951786 29
115 101000010100001101001111 -7508092.796410895 -7508093.149951786 29
116 100000010001001101011111 -7508092.79680109 -7508093.147032709 29
117 100000000100011101011111 -7508092.780302222 -7508093.147465127 33
118 100000010001001101011111 -7508092.79680109 -7508093.147032709 29
119 100000011100001101001111 -7508092.798443559 -7508093.151498422 31
120 100001010100000101011111 -7508092.776072234 -7508093.147381886 39
121 000000011100001101011111 -7508092.797867505 -7508093.175106112 28
122 100000110100001101010111 -7508092.751288757 -7508093.10777393 26
123 100000110100001001011111 -7508092.777680638 -7508093.143848519 21
124 100000010001001101011111 -7508092.79680109 -7508093.147032709 29
125 100000010101001001011111 -7508092.7989823185 -7508093.148250326 22
126 000000010100011101011111 -7508092.778065711 -7508093.157784106 24
127 100000010100001101111110 -7508092.752922976 -7508093.101046776 24
128 100000010100010101011111 -7508092.753418608 -7508093.122510282 41
129 101000010100001101011110 -7508092.773836919 -7508093.140872948 27
130 100000010100000111011111 -7508092.750967172 -7508093.134777087 33
131 100000000100011101011111 -7508092.780302222 -7508093.147465127 33
132 100000010101001101011101 -7508092.795963157 -7508093.138647351 21
133 101000010100001101011011 -7508092.796478067 -7508093.159618008 25
134 110000010100001101011110 -7508092.756213614 -7508093.117140052 23
135 100001010100001101010111 -7508092.775804028 -7508093.1338807205 43
136 100000010100001101111110 -7508092.752922976 -7508093.101046776 24
137 000000010100001101111111 -7508092.775178765 -7508093.154567815 25
138 100000110100001101011101 -7508092.77493806 -7508093.134016257 21
139 100010010100001001011111 -7508092.781342461 -7508093.164969053 25
140 100000010110001101011011 -7508092.78303663 -7508093.193174187 28
141 100000010100001111011011 -7508092.773405981 -7508093.134975805 31
142 000000110100001101011111 -7508092.775390712 -7508093.153372946 27
143 100000110100001101001111 -7508092.776983015 -7508093.1348370705 33
144 100010010100001100011111 -7508092.759973748 -7508093.150047114 34
145 100000110100001100011111 -7508092.756451485 -7508093.130659687 38
146 100000010110001101010111 -7508092.760433865 -7508093.169174307 28
147 100000010100001101111011 -7508092.7783170985 -7508093.166303015 26
148 100000000100011101011111 -7508092.780302222 -7508093.147465127 33
149 100000011100001101011110 -7508092.775932455 -7508093.14149347 37
150 100000010101001100011111 -7508092.778169743 -7508093.135791397 35
151 110000010100001100011111 -7508092.758858767 -7508093.129628742 40
152 101000010100001101010111 -7508092.771686077 -7508093.134164227 28
153 100001000100001101011111 -7508092.801973563 -7508093.168912497 35
154 100000010100001111011011 -7508092.773405981 -7508093.134975805 31
155 100000011100001101001111 -7508092.798443559 -7508093.151498422 31
156 000000010100001101111111 -7508092.775178765 -7508093.154567815 25
157 110000010100000101011111 -7508092.753843015 -7508093.120333354 43
158 100000110100001101011101 -7508092.77493806 -7508093.134016257 21
159 100100010000001101011111 -7508092.775390712 -7508093.154235186 31
160 000001010100001101011111 -7508092.799954791 -7508093.17365474 32
161 100001010100001101011110 -7508092.778194215 -7508093.132344682 40
162 100000010100001101111011 -7508092.7783170985 -7508093.166303015 26
163 100010010100001101011101 -7508092.778562194 -7508093.15902964 22
164 100000010100010101011111 -7508092.753418608 -7508093.122510282 41
165 000000011100001101011111 -7508092.797867505 -7508093.175106112 28
166 100000010101001100011111 -7508092.778169743 -7508093.135791397 35
167 100000110100001001011111 -7508092.777680638 -7508093.143848519 21
168 100000011100001001011111 -7508092.799564852 -7508093.168048318 32
169 110000010100001101011110 -7508092.756213614 -7508093.117140052 23
170 101000010100001100011111 -7508092.776451107 -7508093.147812503 32
171 110000010100000101011111 -7508092.753843015 -7508093.120333354 43
172 101000010100001001011111 -7508092.797126971 -7508093.158333693 28
173 100100010100001101011110 -7508092.756927066 -7508093.125882644 35
174 101000010100001100011111 -7508092.776451107 -7508093.147812503 32
175 101000010000001101011111 -7508092.797582143 -7508093.174888337 27
176 000000010100001101111111 -7508092.775178765 -7508093.154567815 25
177 100000010100011100011111 -7508092.758382201 -7508093.12994543 40
178 100000010100001111011101 -7508092.77900726 -7508093.17035985 38
179 100000010100001111011011 -7508092.773405981 -7508093.134975805 31
180 100000010100101101011011 -7508092.776962003 -7508093.147859176 27
181 100000010101001101011101 -7508092.795963157 -7508093.138647351 21
182 100000010100001100111111 -7508092.755484287 -7508093.120770235 27
183 100000010100100101011111 -7508092.7541944375 -7508093.124487938 35
184 110000010100001001011111 -7508092.780166889 -7508093.139921246 21
185 100000010100001101110111 -7508092.750592938 -7508093.100589083 25
186 100000010010001101011111 -7508092.7838274585 -7508093.197694712 26
187 100100010010001001011111 -7508092.778200832 -7508093.152831887 27
188 100000110010001100011111 -7508092.762388645 -7508093.161826202 25
189 100000010010001111011110 -7508092.754184489 -7508093.120502247 28
190 100000110010001001011111 -7508092.7838274585 -7508093.193257833 23
191 100000010000011101011111 -7508092.777438099 -7508093.15208394 39
192 100001010010001101011101 -7508092.799343841 -7508093.147191469 25
193 110000010010001001011111 -7508092.780806678 -7508093.138304138 28
194 110000010010001101010111 -7508092.754790236 -7508093.115672294 27
195 100100010010001101001111 -7508092.778200832 -7508093.158568009 24
196 110000010010001101011101 -7508092.777394181 -7508093.134840612 21
197 101000010010001100011111 -7508092.779868873 -7508093.146213093 23
198 100000010010001100111111 -7508092.756640229 -7508093.119901388 24
199 100001010010001101011011 -7508092.800210699 -7508093.177671046 28
