0 111101101010101101111011 -7155323.62652629 -7155323.927687051 26
1 111101101011101101111010 -7155323.626770648 -7155323.920082013 31
2 111101101010111100111011 -7155323.598949626 -7155323.904856973 22
3 111101100011101101111011 -7155323.626384544 -7155323.920430034 31
4 111101101010011101111011 -7155323.622787295 -7155323.908630177 26
5 011111101010101101111011 -7155323.623422411 -7155323.907135696 29
6 111101101010101101111101 -7155323.620637632 -7155323.85423207 23
7 110101101011101101111011 -7155323.621367457 -7155323.897750442 27
8 111101111010101001111011 -7155323.6269392455 -7155323.945428984 26
9 101101111010101011111011 -7155323.627598638 -7155323.9350629235 28
10 111101111001101001111011 -7155323.64526856 -7155323.901189581 29
11 111100111010101101111011 -7155323.601157523 -7155323.938021853 24
12 111101111010101101111010 -7155323.59581237 -7155323.90289587 23
13 101101111011101001111011 -7155323.651375847 -7155323.951939728 25
14 111101111001101001111011 -7155323.64526856 -7155323.901189581 29
15 101101101011101011111011 -7155323.644444705 -7155323.900777985 29
16 101101111111100001111011 -7155323.628477542 -7155323.9379908545 24
17 101101111011001011111011 -7155323.64486581 -7155323.893071109 27
18 101101111011111001110011 -7155323.623150699 -7155323.933699683 30
19 101111111011101001110011 -7155323.625765285 -7155323.951989979 27
20 001111111111101001110011 -7155323.625661788 -7155323.932775316 30
21 101111101111101001110011 -7155323.619865487 -7155323.898905598 29
22 011111111011101001110011 -7155323.625305721 -7155323.921376001 31
23 101111111011110001110011 -7155323.602142117 -7155323.9173446 26
24 111111111011101001110001 -7155323.619735295 -7155323.902201058 27
25 001111111011101101110011 -7155323.625867391 -7155323.933019005 26
26 101111111001101001110111 -7155323.625194356 -7155323.9187803455 27
27 101101111111101001110011 -7155323.623708227 -7155323.9396511465 26
28 101011111011101011110011 -7155323.6287233895 -7155323.957268633 30
29 101111111001101011110011 -7155323.628439229 -7155323.93607034 34
30 101101111011101011110011 -7155323.625814807 -7155323.944050153 29
31 001011111011101011111011 -7155323.645390717 -7155323.901879884 31
32 101010111011101011110111 -7155323.599310818 -7155323.927462779 31
33 101011110111101011110011 -7155323.597853051 -7155323.889821941 30
34 111011111001101011110011 -7155323.628282926 -7155323.928874066 27
35 101011111011111001110011 -7155323.6257235175 -7155323.931922588 26
36 101110111011101011110011 -7155323.599926477 -7155323.928395258 31
37 100111111011101011110011 -7155323.598527186 -7155323.933744906 30
38 101010111011101011110111 -7155323.599310818 -7155323.927462779 31
39 101011111111101011100011 -7155323.621678857 -7155323.918571032 29
40 101011011011101111110011 -7155323.62217152 -7155323.914002583 31
41 101111110011101011110011 -7155323.596561703 -7155323.906402176 34
42 101011111011001111110011 -7155323.628439244 -7155323.938670455 30
43 001011111011101011110111 -7155323.622520393 -7155323.902568949 30
44 101011111011101011101011 -7155323.645733796 -7155323.917062402 29
45 111011111011101001110011 -7155323.626263727 -7155323.940301734 29
46 101011101011101111110011 -7155323.621766165 -7155323.924597133 31
47 101011111011101111010011 -7155323.62217152 -7155323.910781157 32
48 101011111011110011110011 -7155323.604987264 -7155323.9315309245 27
49 111011111010101011110011 -7155323.604757162 -7155323.920806964 31
50 101011101011101011110111 -7155323.621678857 -7155323.918571012 29
51 001111111011101011110011 -7155323.628439244 -7155323.938670434 30
52 111011111011101011100011 -7155323.62276623 -7155323.9081815565 29
53 111011011011101011110011 -7155323.622675488 -7155323.888089377 37
54 101011111011101110110011 -7155323.604961508 -7155323.918241764 38
55 101011111111101011100011 -7155323.621678857 -7155323.918571032 29
56 101011110011101111110011 -7155323.596561703 -7155323.906402124 34
57 101111111001101011110011 -7155323.628439229 -7155323.93607034 34
58 101011111011011011110011 -7155323.622242773 -7155323.882264567 38
59 101010111111101011110011 -7155323.599310818 -7155323.927462907 31
60 111011111011100011110011 -7155323.604987264 -7155323.931530964 27
61 101011111011101011111001 -7155323.650758604 -7155323.939533311 26
62 101011111011101111100011 -7155323.622080899 -7155323.918714048 30
63 101111111010101011110011 -7155323.604276076 -7155323.939098347 29
64 101011111011101001110111 -7155323.625756176 -7155323.940312142 28
65 101011111011101011011011 -7155323.644966232 -7155323.904585429 35
66 100011111011101011111011 -7155323.622970547 -7155323.939915613 25
67 101011111010111011110011 -7155323.604757162 -7155323.920806963 31
68 111011101011101011110011 -7155323.6280210465 -7155323.947387143 30
69 101011111010111011110011 -7155323.604757162 -7155323.920806963 31
70 101011111011111010110011 -7155323.604931153 -7155323.906131615 36
71 101011111111101010110011 -7155323.604067261 -7155323.920212028 35
72 111011111011101010110011 -7155323.604931153 -7155323.906131579 36
73 101010111011101111110011 -7155323.599926477 -7155323.9283953365 31
74 101011111111101010110011 -7155323.604067261 -7155323.920212028 35
75 101011110011101111110011 -7155323.596561703 -7155323.906402124 34
76 101011111011001011111011 -7155323.645390717 -7155323.901879911 31
77 101011101011101011110111 -7155323.621678857 -7155323.918571012 29
78 111011111001101011110011 -7155323.628282926 -7155323.928874066 27
79 101011110011101011111011 -7155323.627416008 -7155323.932618123 26
80 101111111011101011010011 -7155323.62217152 -7155323.914002484 31
81 101011111001101111110011 -7155323.627945798 -7155323.942891602 33
82 111011111011101011100011 -7155323.62276623 -7155323.9081815565 29
83 101011011011101111110011 -7155323.62217152 -7155323.914002583 31
84 101011111011101110110011 -7155323.604961508 -7155323.918241764 38
85 001011111011111011110011 -7155323.623071708 -7155323.886784786 33
86 101011111110101011110011 -7155323.604171265 -7155323.923031258 31
87 101011111011111011100011 -7155323.6280210465 -7155323.947387098 30
88 101011111001101111110011 -7155323.627945798 -7155323.942891602 33
89 101011101011101111110011 -7155323.621766165 -7155323.924597133 31
90 101001111011111011110011 -7155323.626263727 -7155323.940301761 29
91 101011111011111011100011 -7155323.6280210465 -7155323.947387098 30
92 110011111011101011110011 -7155323.599939595 -7155323.922465812 28
93 101101111011101011110011 -7155323.625814807 -7155323.944050153 29
94 101011111011101111100011 -7155323.622080899 -7155323.918714048 30
95 101011111011101011110110 -7155323.599605876 -7155323.917658944 30
96 101011111011101010110111 -7155323.604067261 -7155323.9202120425 35
97 111011111001101011110011 -7155323.628282926 -7155323.928874066 27
98 111011101011101011110011 -7155323.6280210465 -7155323.947387143 30
99 111011111011001011110011 -7155323.623071708 -7155323.886784874 33
100 101011111011101011110110 -7155323.599605876 -7155323.917658944 30
101 101011111011101111100011 -7155323.622080899 -7155323.918714048 30
102 101011111010111011110011 -7155323.604757162 -7155323.920806963 31
103 101011111111100011110011 -7155323.603197096 -7155323.946260556 30
104 101101111011101011110011 -7155323.625814807 -7155323.944050153 29
105 101011111011101111100011 -7155323.622080899 -7155323.918714048 30
106 101011101011101011111011 -7155323.645733796 -7155323.917062401 29
107 101011011011101111110011 -7155323.62217152 -7155323.914002583 31
108 111011111011101011110010 -7155323.600505689 -7155323.920103847 27
109 111011110011101011110011 -7155323.599119525 -7155323.880820476 34
110 101011111010101011110111 -7155323.604171265 -7155323.923031244 31
111 101110111011101011110011 -7155323.599926477 -7155323.928395258 31
112 111011111010101011110011 -7155323.604757162 -7155323.920806964 31
113 101111111011101011010011 -7155323.62217152 -7155323.914002484 31
114 001011111011111011110011 -7155323.623071708 -7155323.886784786 33
115 101111011011101011110011 -7155323.62217152 -7155323.910781238 32
116 101011111011111011010011 -7155323.622675488 -7155323.888089437 37
117 101011111011101011010111 -7155323.627032955 -7155323.934413747 30
118 101011111011111011010011 -7155323.622675488 -7155323.888089437 37
119 111011111011101011110001 -7155323.628282926 -7155323.932840228 30
120 101011111011111001110011 -7155323.6257235175 -7155323.931922588 26
121 101011111011101110110011 -7155323.604961508 -7155323.918241764 38
122 101011111110101011110011 -7155323.604171265 -7155323.923031258 31
123 100111111011101011110011 -7155323.598527186 -7155323.933744906 30
124 101011111011111011110010 -7155323.600505689 -7155323.920103833 27
125 101011111011111011100011 -7155323.6280210465 -7155323.947387098 30
126 101011111101101011110011 -7155323.627152073 -7155323.926244846 30
127 101111111011101011100011 -7155323.621766165 -7155323.924597148 31
128 101011111011100111110011 -7155323.604317327 -7155323.945029831 30
129 101010111011111011110011 -7155323.6028199745 -7155323.920758725 31
130 001011111011101111110011 -7155323.62321719 -7155323.90151036 30
131 111011111001101011110011 -7155323.628282926 -7155323.928874066 27
132 101011111010101111110011 -7155323.604276076 -7155323.939098311 29
133 101011111011111010110011 -7155323.604931153 -7155323.906131615 36
134 101001111011101111110011 -7155323.625765285 -7155323.951989926 27
135 111011111011101011110010 -7155323.600505689 -7155323.920103847 27
136 101011111011101001110111 -7155323.625756176 -7155323.940312142 28
137 100011111011101011111011 -7155323.622970547 -7155323.939915613 25
138 101011111011101011010111 -7155323.627032955 -7155323.934413747 30
139 101011111011101011110101 -7155323.627152073 -7155323.926244802 30
140 101111111011101011110010 -7155323.602687546 -7155323.933841992 31
141 101011111001101011111011 -7155323.650758604 -7155323.939533262 26
142 101011101011101011110111 -7155323.621678857 -7155323.918571012 29
143 111011111010101011110011 -7155323.604757162 -7155323.920806964 31
144 101111111011101001110011 -7155323.625765285 -7155323.951989979 27
145 101011011011101111110011 -7155323.62217152 -7155323.914002583 31
146 101011111011100011110111 -7155323.603197096 -7155323.946260553 30
147 101111111011101010110011 -7155323.604961508 -7155323.918241756 38
148 101011111111101001110011 -7155323.625436024 -7155323.943673084 31
149 111010111011101011110011 -7155323.6028199745 -7155323.920758637 31
150 101011101111101011110011 -7155323.622299851 -7155323.9132607905 29
151 101011111011100011111011 -7155323.627949965 -7155323.9450448835 26
152 011011111011101011110011 -7155323.622242773 -7155323.882264619 38
153 001011111011101011110111 -7155323.622520393 -7155323.902568949 30
154 101011111011101111110010 -7155323.602687546 -7155323.9338421635 31
155 101010111011101011110111 -7155323.599310818 -7155323.927462779 31
156 101011111011101001111011 -7155323.651375849 -7155323.952884654 26
157 001011111011101111110011 -7155323.62321719 -7155323.90151036 30
158 101011111011101011110110 -7155323.599605876 -7155323.917658944 30
159 111011111011101011110010 -7155323.600505689 -7155323.920103847 27
160 101111111011101011110001 -7155323.627945798 -7155323.942891593 33
161 101111011011101011110011 -7155323.62217152 -7155323.910781238 32
162 111011111011101001110011 -7155323.626263727 -7155323.940301734 29
163 101011111011001111110011 -7155323.628439244 -7155323.938670455 30
164 111011111010101011110011 -7155323.604757162 -7155323.920806964 31
165 001011111011101111110011 -7155323.62321719 -7155323.90151036 30
166 100111111011101011110011 -7155323.598527186 -7155323.933744906 30
167 100011111011101011111011 -7155323.622970547 -7155323.939915613 25
168 101011011111101011110011 -7155323.627032955 -7155323.934413647 30
169 111010111011101011110011 -7155323.6028199745 -7155323.920758637 31
170 101011011011101011110111 -7155323.621804065 -7155323.901830845 31
171 101011011011101111110011 -7155323.62217152 -7155323.914002583 31
172 111011110011101011110011 -7155323.599119525 -7155323.880820476 34
173 101111111011001011110011 -7155323.62321719 -7155323.901510291 30
174 101011101011101011111011 -7155323.645733796 -7155323.917062401 29
175 101111111010101011110011 -7155323.604276076 -7155323.939098347 29
176 001011111011101111110011 -7155323.62321719 -7155323.90151036 30
177 001011111111101011110011 -7155323.622520393 -7155323.897610633 30
178 101011111011001111110011 -7155323.628439244 -7155323.938670455 30
179 101011011011101111110011 -7155323.62217152 -7155323.914002583 31
180 101001111011101011111011 -7155323.651375849 -7155323.952884608 26
181 111011111010101011110011 -7155323.604757162 -7155323.920806964 31
182 011011111011101011110011 -7155323.622242773 -7155323.882264619 38
183 001011111111101011110011 -7155323.622520393 -7155323.897610633 30
184 101111101011101011110011 -7155323.622080899 -7155323.918713951 30
185 111011111001101011110011 -7155323.628282926 -7155323.928874066 27
186 101011111011101001110111 -7155323.625756176 -7155323.940312142 28
187 101111111010101011110011 -7155323.604276076 -7155323.939098347 29
188 101001111111101011110011 -7155323.625756176 -7155323.940312143 28
189 101011111010101011110111 -7155323.604171265 -7155323.923031244 31
190 101011111111101011110010 -7155323.599605876 -7155323.917659037 30
191 101111111011001011110011 -7155323.62321719 -7155323.901510291 30
192 101011101011101111110011 -7155323.621766165 -7155323.924597133 31
193 101111111011101011110010 -7155323.602687546 -7155323.933841992 31
194 111001111011101011110011 -7155323.6257235175 -7155323.931922622 26
195 100011111011101111110011 -7155323.598527186 -7155323.93374487 30
196 101011111010101111110011 -7155323.604276076 -7155323.939098311 29
197 101011111010101011111011 -7155323.627686558 -7155323.93585481 30
198 101111111001101011110011 -7155323.628439229 -7155323.93607034 34
199 101011011011101111110011 -7155323.62217152 -7155323.914002583 31
