-7096527.685213270
-7096527.889369260
-7096527.929958890
-7096528.047841360
-7096528.297991840
-7096528.323812240
-7096528.591869110
-7096528.691447570
-7096528.775461980
-7096528.828704920
-7096528.839473170
-7096528.849622710
-7096528.854206540
-7096528.858545430
-7096528.861474950
-7096528.863439060
-7096528.865811250
-7096528.869075660
-7096528.871734830
-7096528.875030600
-7096528.877286980
-7096528.879857860
-7096528.882456330
-7096528.884954790
-7096528.887685760
-7096528.891349630
-7096528.894113880
-7096528.897352360
-7096528.900337630
-7096528.902388210
-7096528.903971120
-7096528.905673830
-7096528.907893360
-7096528.910284430
-7096528.913499430
-7096528.916087380
-7096528.918101480
-7096528.920328240
-7096528.922058120
-7096528.923541930
-7096528.924681730
-7096528.925446280
-7096528.926260760
-7096528.927028460
-7096528.927654640
-7096528.928270620
-7096528.928970640
-7096528.929578290
-7096528.930194240
-7096528.930855190
-7096528.931435210
-7096528.931808040
-7096528.932122980
