
-----------------------------   Welcome to ....   ------------------------------
                      _______  _______ _______ _______ 
                     |   _   \|   _   |   _   |   _   |
                     |.  1   /|.  |   |   1___|   1___|
                     |.  _   \|.  |   |____   |____   |
                     |:  1    |:  1   |:  1   |:  1   |
                     |::.. .  |::.. . |::.. . |::.. . |
                     `-------'`-------`-------`-------'

                                  Version 1.4                                   
                              26-07-2021 01:14:25                               
--------------------------------------------------------------------------------

--------------------------------------------------------------------------------
                               SIMULATION OPTIONS                               
--------------------------------------------------------------------------------
|| File input/output 
ipfile         boss.in
userfn         run.py <lambda>
outfile        gamma_boss_16/boss.out
rstfile        gamma_boss_16/boss.rst

|| Key settings 
bounds         -1.200E+01 0.000E+00
kerntype       rbf
yrange         -4.000E+00 0.000E+00
noise          1.000E-06
inittype       sobol
initpts   5    iterpts   15
gm_tol         none
verbosity      2

|| Data acquisition 
acqfn                elcb
acqtol               1.000E-03

|| GP hyperparameters 
thetainit       2.000E+00
thetabounds     2.000E-03 2.000E+03;    6.000E-03 6.000E+01
thetaprior      gamma
thetapriorpar   2.000E+00 5.000E-01;    1.571E+00 5.396E-01

|| Hyperparameter optimization
updatefreq   1  initupdate      True
updateoffset 0  updaterestarts  2

| postprocessing
pp_models         = False
pp_acq_funcs      = False
pp_truef_npts     = none
pp_model_slice        = 1 1 50
pp_truef_at_xhats = False
pp_local_minima   = none


--------------------------------------------------------------------------------
                              INITIAL DATAPOINT 1                               
--------------------------------------------------------------------------------
| Evaluating objective function at x = -1.200E+01
| Objective function evaluated, time [s]       41.271
| Data point added to dataset (x y): 
 -1.2000000000E+01      -3.6017752051E-01

| Total ensemble size: 1
| Next sampling location x_next:
 -6.0000000000E+00

Iteration time [s]:   41.284        Total time [s]:   41.297

--------------------------------------------------------------------------------
                              INITIAL DATAPOINT 2                               
--------------------------------------------------------------------------------
| Evaluating objective function at x = -6.000E+00
| Objective function evaluated, time [s]       41.284
| Data point added to dataset (x y): 
 -6.0000000000E+00      -2.0756388894E+00

| Total ensemble size: 2
| Next sampling location x_next:
 -3.0000000000E+00

Iteration time [s]:   41.292        Total time [s]:   82.597

--------------------------------------------------------------------------------
                              INITIAL DATAPOINT 3                               
--------------------------------------------------------------------------------
| Evaluating objective function at x = -3.000E+00
| Objective function evaluated, time [s]       41.298
| Data point added to dataset (x y): 
 -3.0000000000E+00      -2.2778666365E+00

| Total ensemble size: 3
| Next sampling location x_next:
 -9.0000000000E+00

Iteration time [s]:   41.302        Total time [s]:  123.901

--------------------------------------------------------------------------------
                              INITIAL DATAPOINT 4                               
--------------------------------------------------------------------------------
| Evaluating objective function at x = -9.000E+00
| Objective function evaluated, time [s]       41.295
| Data point added to dataset (x y): 
 -9.0000000000E+00      -1.1769536264E+00

| Total ensemble size: 4
| Next sampling location x_next:
 -7.5000000000E+00

Iteration time [s]:   41.305        Total time [s]:  165.208

--------------------------------------------------------------------------------
                              INITIAL DATAPOINT 5                               
--------------------------------------------------------------------------------
| Evaluating objective function at x = -7.500E+00
| Objective function evaluated, time [s]       41.268
| Data point added to dataset (x y): 
 -7.5000000000E+00      -1.6263667170E+00

| Total ensemble size: 5
| Best acquisition, x_best y_best:
 -3.0000000000E+00      -2.2778666365E+00
| Global minimum prediction, x_hat mu_hat +- nu_hat:
 -4.0389238419E+00      -2.3656405478E+00  6.6488374345E-04

| GP model hyperparameters:
  1.3440545054E+00  3.8244648687E+00
| Next sampling location x_next:
  0.0000000000E+00

Iteration time [s]:   41.477        Total time [s]:  206.691

--------------------------------------------------------------------------------
                                 BO ITERATION 1                                 
--------------------------------------------------------------------------------
| Evaluating objective function at x = 0.000E+00
| Objective function evaluated, time [s]      203.999
| Data point added to dataset (x y): 
  0.0000000000E+00      -4.4259510368E-01

| Total ensemble size: 6
| Best acquisition, x_best y_best:
 -3.0000000000E+00      -2.2778666365E+00
| Global minimum prediction, x_hat mu_hat +- nu_hat:
 -4.0301847974E+00      -2.4200468406E+00  3.1560512094E-04
| Global minimum convergence, d_xhat d_muhat:
  8.7390445094E-03  2.8370757448E-02

| GP model hyperparameters:
  1.9490960960E+00  3.7248223473E+00
| Next sampling location x_next:
 -4.0628575862E+00

Iteration time [s]:  204.263        Total time [s]:  410.956

--------------------------------------------------------------------------------
                                 BO ITERATION 2                                 
--------------------------------------------------------------------------------
| Evaluating objective function at x = -4.063E+00
| Objective function evaluated, time [s]       41.222
| Data point added to dataset (x y): 
 -4.0628575862E+00      -2.3844421852E+00

| Total ensemble size: 7
| Best acquisition, x_best y_best:
 -4.0628575862E+00      -2.3844421852E+00
| Global minimum prediction, x_hat mu_hat +- nu_hat:
 -3.9926050508E+00      -2.3850196761E+00  1.9988881962E-06
| Global minimum convergence, d_xhat d_muhat:
  3.7579746609E-02  1.7303648620E-02

| GP model hyperparameters:
  2.7738084914E+00  3.8089357045E+00
| Next sampling location x_next:
 -3.9921612151E+00

Iteration time [s]:   41.482        Total time [s]:  452.446

--------------------------------------------------------------------------------
                                 BO ITERATION 3                                 
--------------------------------------------------------------------------------
| Evaluating objective function at x = -3.992E+00
| Objective function evaluated, time [s]       41.068
| Data point added to dataset (x y): 
 -3.9921612151E+00      -2.3867587209E+00

| Total ensemble size: 8
| Best acquisition, x_best y_best:
 -3.9921612151E+00      -2.3867587209E+00
| Global minimum prediction, x_hat mu_hat +- nu_hat:
 -3.9911027954E+00      -2.3858896821E+00  1.5033718424E-06
| Global minimum convergence, d_xhat d_muhat:
  1.5022553956E-03  4.2929736350E-04

| GP model hyperparameters:
  2.6900404001E+00  3.7426095761E+00
| Next sampling location x_next:
 -3.9904463907E+00

Iteration time [s]:   41.319        Total time [s]:  493.768

--------------------------------------------------------------------------------
                                 BO ITERATION 4                                 
--------------------------------------------------------------------------------
| Evaluating objective function at x = -3.990E+00
| Objective function evaluated, time [s]       40.883
| Data point added to dataset (x y): 
 -3.9904463907E+00      -2.3867969791E+00

| Total ensemble size: 9
| Best acquisition, x_best y_best:
 -3.9904463907E+00      -2.3867969791E+00
| Global minimum prediction, x_hat mu_hat +- nu_hat:
 -3.9896099638E+00      -2.3861957305E+00  1.3366226733E-06
| Global minimum convergence, d_xhat d_muhat:
  1.4928315658E-03  1.5101424444E-04

| GP model hyperparameters:
  2.6463561811E+00  3.6870954433E+00
| Next sampling location x_next:
 -3.9887810011E+00

Iteration time [s]:   41.140        Total time [s]:  534.911

--------------------------------------------------------------------------------
                                 BO ITERATION 5                                 
--------------------------------------------------------------------------------
| Evaluating objective function at x = -3.989E+00
| Objective function evaluated, time [s]       41.127
| Data point added to dataset (x y): 
 -3.9887810011E+00      -2.3868326288E+00

| Total ensemble size: 10
| Best acquisition, x_best y_best:
 -3.9887810011E+00      -2.3868326288E+00
| Global minimum prediction, x_hat mu_hat +- nu_hat:
 -3.9880492681E+00      -2.3863589984E+00  1.2530230652E-06
| Global minimum convergence, d_xhat d_muhat:
  1.5606957408E-03  8.0560281051E-05

| GP model hyperparameters:
  2.6096151597E+00  3.6362762898E+00
| Next sampling location x_next:
 -3.9870157673E+00

Iteration time [s]:   41.379        Total time [s]:  576.293

--------------------------------------------------------------------------------
                                 BO ITERATION 6                                 
--------------------------------------------------------------------------------
| Evaluating objective function at x = -3.987E+00
| Objective function evaluated, time [s]       41.109
| Data point added to dataset (x y): 
 -3.9870157673E+00      -2.3868696236E+00

| Total ensemble size: 11
| Best acquisition, x_best y_best:
 -3.9870157673E+00      -2.3868696236E+00
| Global minimum prediction, x_hat mu_hat +- nu_hat:
 -3.9860682024E+00      -2.3864663479E+00  1.2029945612E-06
| Global minimum convergence, d_xhat d_muhat:
  1.9810656852E-03  5.2967841690E-05

| GP model hyperparameters:
  2.5587182958E+00  3.5781956352E+00
| Next sampling location x_next:
 -3.9847017651E+00

Iteration time [s]:   41.356        Total time [s]:  617.656

--------------------------------------------------------------------------------
                                 BO ITERATION 7                                 
--------------------------------------------------------------------------------
| Evaluating objective function at x = -3.985E+00
| Objective function evaluated, time [s]       40.870
| Data point added to dataset (x y): 
 -3.9847017651E+00      -2.3869177446E+00

| Total ensemble size: 12
| Best acquisition, x_best y_best:
 -3.9847017651E+00      -2.3869177446E+00
| Global minimum prediction, x_hat mu_hat +- nu_hat:
 -3.9822877035E+00      -2.3865526140E+00  1.1706196109E-06
| Global minimum convergence, d_xhat d_muhat:
  3.7804989004E-03  4.2563986404E-05

| GP model hyperparameters:
  2.4479622356E+00  3.4806357365E+00
| Next sampling location x_next:
 -3.9798675883E+00

Iteration time [s]:   41.124        Total time [s]:  658.783

--------------------------------------------------------------------------------
                                 BO ITERATION 8                                 
--------------------------------------------------------------------------------
| Evaluating objective function at x = -3.980E+00
| Objective function evaluated, time [s]       41.019
| Data point added to dataset (x y): 
 -3.9798675883E+00      -2.3870171203E+00

| Total ensemble size: 13
| Best acquisition, x_best y_best:
 -3.9798675883E+00      -2.3870171203E+00
| Global minimum prediction, x_hat mu_hat +- nu_hat:
 -3.9630886234E+00      -2.3867149038E+00  1.1754377217E-06
| Global minimum convergence, d_xhat d_muhat:
  1.9199080078E-02  8.0070380892E-05

| GP model hyperparameters:
  2.0487843364E+00  3.1543978641E+00
| Next sampling location x_next:
 -3.9453940183E+00

Iteration time [s]:   41.291        Total time [s]:  700.077

--------------------------------------------------------------------------------
                                 BO ITERATION 9                                 
--------------------------------------------------------------------------------
| Evaluating objective function at x = -3.945E+00
| Objective function evaluated, time [s]       40.882
| Data point added to dataset (x y): 
 -3.9453940183E+00      -2.3875912783E+00

| Total ensemble size: 14
| Best acquisition, x_best y_best:
 -3.9453940183E+00      -2.3875912783E+00
| Global minimum prediction, x_hat mu_hat +- nu_hat:
 -3.9270169026E+00      -2.3871836131E+00  1.3472242047E-06
| Global minimum convergence, d_xhat d_muhat:
  3.6071720829E-02  2.3118580797E-04

| GP model hyperparameters:
  1.7458085495E+00  2.8510994001E+00
| Next sampling location x_next:
 -3.8693872704E+00

Iteration time [s]:   41.148        Total time [s]:  741.232

--------------------------------------------------------------------------------
                                BO ITERATION 10                                 
--------------------------------------------------------------------------------
| Evaluating objective function at x = -3.869E+00
| Objective function evaluated, time [s]       40.918
| Data point added to dataset (x y): 
 -3.8693872704E+00      -2.3879737466E+00

| Total ensemble size: 15
| Best acquisition, x_best y_best:
 -3.8693872704E+00      -2.3879737466E+00
| Global minimum prediction, x_hat mu_hat +- nu_hat:
 -3.8999492881E+00      -2.3877064700E+00  1.3338879286E-06
| Global minimum convergence, d_xhat d_muhat:
  2.7067614509E-02  2.5784485285E-04

| GP model hyperparameters:
  1.6436948101E+00  2.7235392807E+00
| Next sampling location x_next:
 -3.8602233222E+00

Iteration time [s]:   41.195        Total time [s]:  782.431

--------------------------------------------------------------------------------
                                BO ITERATION 11                                 
--------------------------------------------------------------------------------
| Evaluating objective function at x = -3.860E+00
| Objective function evaluated, time [s]       40.909
| Data point added to dataset (x y): 
 -3.8602233222E+00      -2.3879532853E+00

| Total ensemble size: 16
| Best acquisition, x_best y_best:
 -3.8693872704E+00      -2.3879737466E+00
| Global minimum prediction, x_hat mu_hat +- nu_hat:
 -3.8942244032E+00      -2.3878421502E+00  1.2349202965E-06
| Global minimum convergence, d_xhat d_muhat:
  5.7248848891E-03  6.6910206387E-05

| GP model hyperparameters:
  1.6463281361E+00  2.7047037897E+00
| Next sampling location x_next:
 -3.8681940826E+00

Iteration time [s]:   41.188        Total time [s]:  823.622

--------------------------------------------------------------------------------
                                BO ITERATION 12                                 
--------------------------------------------------------------------------------
| Evaluating objective function at x = -3.868E+00
| Objective function evaluated, time [s]       41.150
| Data point added to dataset (x y): 
 -3.8681940826E+00      -2.3879727000E+00

| Total ensemble size: 17
| Best acquisition, x_best y_best:
 -3.8693872704E+00      -2.3879737466E+00
| Global minimum prediction, x_hat mu_hat +- nu_hat:
 -3.8923923519E+00      -2.3878889010E+00  1.1818954374E-06
| Global minimum convergence, d_xhat d_muhat:
  1.8320512679E-03  2.3054977949E-05

| GP model hyperparameters:
  1.6616654787E+00  2.7012440508E+00
| Next sampling location x_next:
 -3.8728495864E+00

Iteration time [s]:   41.468        Total time [s]:  865.101

--------------------------------------------------------------------------------
                                BO ITERATION 13                                 
--------------------------------------------------------------------------------
| Evaluating objective function at x = -3.873E+00
| Objective function evaluated, time [s]       41.179
| Data point added to dataset (x y): 
 -3.8728495864E+00      -2.3879766480E+00

| Total ensemble size: 18
| Best acquisition, x_best y_best:
 -3.8728495864E+00      -2.3879766480E+00
| Global minimum prediction, x_hat mu_hat +- nu_hat:
 -3.8915318975E+00      -2.3879118216E+00  1.1494319026E-06
| Global minimum convergence, d_xhat d_muhat:
  8.6045437186E-04  1.1303201730E-05

| GP model hyperparameters:
  1.6783771315E+00  2.7011044108E+00
| Next sampling location x_next:
 -3.8757887196E+00

Iteration time [s]:   41.521        Total time [s]:  906.625

--------------------------------------------------------------------------------
                                BO ITERATION 14                                 
--------------------------------------------------------------------------------
| Evaluating objective function at x = -3.876E+00
| Objective function evaluated, time [s]       41.221
| Data point added to dataset (x y): 
 -3.8757887196E+00      -2.3879789367E+00

| Total ensemble size: 19
| Best acquisition, x_best y_best:
 -3.8757887196E+00      -2.3879789367E+00
| Global minimum prediction, x_hat mu_hat +- nu_hat:
 -3.8910341258E+00      -2.3879255037E+00  1.1273740533E-06
| Global minimum convergence, d_xhat d_muhat:
  4.9777177081E-04  6.7472497198E-06

| GP model hyperparameters:
  1.6945259363E+00  2.7019707545E+00
| Next sampling location x_next:
 -3.8778064936E+00

Iteration time [s]:   41.556        Total time [s]:  948.184

--------------------------------------------------------------------------------
                                BO ITERATION 15                                 
--------------------------------------------------------------------------------
| Evaluating objective function at x = -3.878E+00
| Objective function evaluated, time [s]       41.251
| Data point added to dataset (x y): 
 -3.8778064936E+00      -2.3879792585E+00

| Total ensemble size: 20
| Best acquisition, x_best y_best:
 -3.8778064936E+00      -2.3879792585E+00
| Global minimum prediction, x_hat mu_hat +- nu_hat:
 -3.8907151882E+00      -2.3879345062E+00  1.1113009107E-06
| Global minimum convergence, d_xhat d_muhat:
  3.1893752795E-04  4.4395382512E-06

| GP model hyperparameters:
  1.7096989358E+00  2.7032171690E+00
| Next sampling location x_next:
 -3.8792537367E+00

Iteration time [s]:   41.560        Total time [s]:  989.747
