40
Lattice="7.74816177 -8.04720488 0.0 7.74816177 8.04720488 0.0 0.0 0.0 11.20743243" Properties=species:S:1:pos:R:3:forces:R:3 pbc="T T T"
Pb       0.00000000       0.00000000       0.00000000      -0.30459339      -0.14796061      -0.51599386
Pb       3.87408089      -4.02360244       0.00000000       0.21492087      -0.32568135       0.05364869
Pb       3.87408089       4.02360244       0.00000000       0.24034333       0.17042450      -0.50152605
Pb       7.74816177       0.00000000       0.00000000       0.02503414      -0.00429805       0.00053461
Pb       0.00000000       0.00000000       5.60371622       0.09249843      -0.01120774       0.46355486
Pb       3.87408089      -4.02360244       5.60371622       0.10049820      -0.01270598      -0.03247447
Pb       3.87408089       4.02360244       5.60371622      -0.01857107       0.05813816       0.51828757
Pb       7.74816177       0.00000000       5.60371622       0.00817459       0.00194860       0.07830563
Br       2.40612865      -1.55757891       0.53724744       0.05238440      -0.05276935      -0.00778577
Br       1.46795224       2.46602353       0.53724744       0.07858814      -0.14093441      -0.11847492
Br      -0.70412195      -0.14529888       2.80185811       0.47056460      -0.10922159       0.00108439
Cl       5.34203312      -6.48962597      -0.53724744       0.18994485       0.32804364       0.32329749
Cl       6.28020953      -2.46602353      -0.53724744      -0.12792991       0.15399806       0.19265722
Cl       4.57820283      -4.16890132       2.80185811      -0.13141757      -0.03408628       0.01774444
Cl       5.34203312       1.55757891      -0.53724744       0.17395288       0.13398010       0.21084966
Cl       6.28020953       5.58118135      -0.53724744      -0.09779052       0.13190497       0.16939288
Br       4.57820283       3.87830356       2.80185811       0.06916257       0.14216401       0.00470087
Cl      10.15429042      -1.55757891       0.53724744      -0.10743308      -0.08190186      -0.08664989
Cl       9.21611401       2.46602353       0.53724744       0.14877065      -0.15966809      -0.19833071
Cl       7.04403982      -0.14529888       2.80185811       0.28353782      -0.05321031      -0.00411109
Cl       2.40612865      -1.55757891       5.06646866      -0.11100254      -0.19545719       0.16289673
Cl       1.46795224       2.46602353       5.06646866       0.17071530      -0.21076987       0.21183573
Cl       0.70412195       0.14529888       8.40557432      -0.05633238      -0.01657925       0.00812308
Cl       5.34203312      -6.48962597       6.14096377       0.07854135       0.11231156      -0.12178156
Cl       6.28020953      -2.46602353       6.14096377      -0.09800813       0.08119003      -0.09915101
Cl       3.16995894      -3.87830356       8.40557432       0.48171404       0.04758300      -0.01303485
Cl       5.34203312       1.55757891       6.14096377       0.11740560       0.05776972      -0.13374985
Cl       6.28020953       5.58118135       6.14096377      -0.05720487       0.07787533      -0.09192409
Cl       3.16995894       4.16890132       8.40557432       0.18137901       0.05447598       0.01123020
Cl      10.15429042      -1.55757891       5.06646866      -0.18829538      -0.19493185       0.18930722
Cl       9.21611401       2.46602353       5.06646866       0.26107931      -0.33226227       0.38450571
Cl       8.45228372       0.14529888       8.40557432      -0.08666177      -0.01422967       0.02518409
Cs       3.88420866       0.51083045       2.97146758      -0.16272102      -0.02046255      -0.02315351
Cs       7.97966383      -3.57534545       2.87923982      -0.23759642       0.40955143       0.07166033
Cs       8.06642875       4.38924514       2.91637487      -0.18098090       0.37544798      -0.17750210
Cs      11.65349022       0.36237014       2.93642183      -0.57230830       0.30885759      -0.11870999
Cs       4.14605237      -0.59828409       8.50980423      -0.09663327       0.02451238      -0.18393969
Cs       7.69773286      -4.51162325       8.52782600      -0.09368474      -0.12260489      -0.20275810
Cs       7.86650665       3.56403116       8.58131348      -0.49512755      -0.12922590      -0.14574206
Cs      11.91285761      -0.49135927       8.60849184      -0.21491726      -0.30000800      -0.32200785
40
Lattice="7.74816177 -8.04720488 0.0 7.74816177 8.04720488 0.0 0.0 0.0 11.20743243" Properties=species:S:1:pos:R:3:forces:R:3 pbc="T T T"
Pb      -0.02669154      -0.01317200      -0.04537221      -0.11418916      -0.07491751      -0.19422156
Pb       3.89295257      -4.05207444       0.00490751       0.11903010      -0.14653508       0.03949799
Pb       3.89526925       4.03862603      -0.04380901       0.11382611       0.04057266      -0.14101618
Pb       7.75046193      -0.00041992       0.00002468       0.02141733      -0.01707913       0.01854250
Pb       0.00810979      -0.00109833       5.64455466       0.05517009      -0.00411449       0.18479962
Pb       3.88311411      -4.02477287       5.60076708       0.06443677      -0.01049446      -0.00177784
Pb       3.87265992       4.02863289       5.64910538       0.01458215       0.00663459       0.17690570
Pb       7.74875732      -0.00009005       5.61076686       0.01302094       0.00720038       0.05171703
Br       2.41069402      -1.56254013       0.53631945      -0.00151232      -0.05255282      -0.05426480
Br       1.47543962       2.45309631       0.52622523       0.08671844      -0.08948208      -0.11357979
Br      -0.66101152      -0.15517766       2.80207276       0.26672839      -0.04039361       0.01444776
Cl       5.35936001      -6.46046447      -0.50820818       0.12734862       0.15068440       0.16716922
Cl       6.26850400      -2.45203361      -0.51967814      -0.09163910       0.11092946       0.14540475
Cl       4.56626739      -4.17204861       2.80354138      -0.11250752      -0.03429357       0.01593462
Cl       5.35794490       1.56970233      -0.51803158       0.14657349       0.12190068       0.14221017
Cl       6.27146377       5.59297603      -0.52202045      -0.08222327       0.08516303       0.09208126
Br       4.58405226       3.89143416       2.80241532      -0.00818993       0.12938832       0.01158984
Cl      10.14459169      -1.56522802       0.52931268      -0.08382431      -0.07217627      -0.10439845
Cl       9.22970183       2.45151300       0.51917805       0.12281993      -0.13316748      -0.15484656
Cl       7.06990804      -0.15014551       2.80164486       0.23084033      -0.02432544       0.00838154
Cl       2.39590702      -1.57537476       5.08135900      -0.10170920      -0.16125359       0.16596122
Cl       1.48367740       2.44696998       5.08576170       0.14399576      -0.14345801       0.19203697
Cl       0.69941787       0.14386885       8.40639088      -0.02563107      -0.01544552      -0.00397261
Cl       5.34930591      -6.47950356       6.12985459       0.08609245       0.07605532      -0.07899206
Cl       6.27136297      -2.45853035       6.13192842      -0.08031117       0.06775923      -0.08416566
Cl       3.21358576      -3.87405285       8.40458353       0.29687598      -0.00219126      -0.00181655
Cl       5.35269927       1.56289412       6.12874591       0.09936458       0.06667137      -0.09072589
Cl       6.27506683       5.58830003       6.13260626      -0.06141586       0.06034849      -0.03471906
Cl       3.18602298       4.17398071       8.40670582       0.11897331       0.04527313       0.00227355
Cl      10.13711201      -1.57538555       5.08373423      -0.14980553      -0.16087107       0.18224242
Cl       9.23997219       2.43617933       5.10125583       0.18294749      -0.21086504       0.24783146
Cl       8.44439484       0.14400453       8.40792848      -0.07307192      -0.01799962       0.01550777
Cs       3.86938346       0.50891971       2.96936173      -0.13155571       0.00166394      -0.02776555
Cs       7.95797427      -3.53795786       2.88588280      -0.14971689       0.26027269       0.04809733
Cs       8.05008472       4.42326289       2.90042949      -0.08906674       0.22344743      -0.08548324
Cs      11.60133838       0.39058791       2.92557001      -0.33259763       0.22665753      -0.09519751
Cs       4.13722659      -0.59596349       8.49298397      -0.06676297       0.03325669      -0.12875882
Cs       7.68915315      -4.52280123       8.50927466      -0.10728183      -0.06451661      -0.15439913
Cs       7.82160673       3.55229772       8.56793241      -0.28437078      -0.10184555      -0.14359018
Cs      11.89333462      -0.51854641       8.57925789      -0.16337932      -0.13590113      -0.22894128
40
Lattice="7.74816177 -8.04720488 0.0 7.74816177 8.04720488 0.0 0.0 0.0 11.20743243" Properties=species:S:1:pos:R:3:forces:R:3 pbc="T T T"
Pb      -0.03074949      -0.02697945      -0.05421476      -0.08872273      -0.03924276      -0.15973754
Pb       3.91978924      -4.07258313       0.01696603       0.04675653      -0.07352053      -0.04776004
Pb       3.91300434       4.02803040      -0.02576648       0.04627373       0.08578238      -0.24378816
Pb       7.75792851      -0.00980046       0.01052408       0.04149835      -0.00562011      -0.02392920
Pb       0.02161110      -0.00199138       5.65900146       0.00336414      -0.02054708       0.16437608
Pb       3.90130857      -4.02964058       5.60706041       0.02569591      -0.03467416       0.06744310
Pb       3.88591388       4.02058685       5.64899276      -0.01829928       0.03652106       0.25789203
Pb       7.75457690       0.00392228       5.62598479       0.02989263      -0.01474517       0.05642760
Br       2.39862507      -1.58460771       0.50327731       0.02434991      -0.04857662      -0.02887448
Br       1.51067025       2.42814498       0.48169866      -0.00888005      -0.02967725      -0.00038769
Br      -0.60247543      -0.15525011       2.81046004       0.04575697       0.03480051      -0.00800688
Cl       5.39608577      -6.44026801      -0.47695495       0.05479717       0.03321984       0.05263441
Cl       6.23997897      -2.41711565      -0.47165405      -0.05157350       0.02609214       0.07348810
Cl       4.52454621      -4.18630524       2.81010963      -0.06079029      -0.00130688       0.01126933
Cl       5.41224491       1.61599773      -0.47655063       0.07968853       0.03657720       0.06122822
Cl       6.24083492       5.61726702      -0.50241800      -0.01349349       0.04383322       0.02898582
Br       4.56458600       3.94127243       2.80887288       0.01355396       0.07151979       0.01572800
Cl      10.11670235      -1.59305754       0.48213372      -0.04598041      -0.03590223      -0.04027389
Cl       9.27435169       2.40382979       0.46624874       0.08269871      -0.03884485      -0.04332719
Cl       7.15131201      -0.15302701       2.80851881       0.07343482       0.05135213       0.02614200
Cl       2.35686332      -1.63324854       5.15010710      -0.03618115      -0.06172196       0.07236316
Cl       1.53522813       2.40447212       5.15925402       0.05515148      -0.05313326       0.05584555
Cl       0.69485251       0.13747211       8.40286040      -0.01765454      -0.00747241       0.02059787
Cl       5.38641005      -6.45676649       6.10781081       0.07286843       0.04815051      -0.05153128
Cl       6.24320924      -2.43335452       6.10096721      -0.05265865       0.05088811      -0.06500387
Cl       3.29022891      -3.88722372       8.40715505       0.12594924      -0.03218867       0.01270547
Cl       5.38956207       1.59192761       6.10209537       0.07522477       0.03079803      -0.05492705
Cl       6.24904913       5.60969317       6.13217364      -0.03003084       0.05438698      -0.03093850
Cl       3.22205906       4.18989025       8.40656437       0.05298340      -0.01123364       0.01429970
Cl      10.08540995      -1.63284288       5.15647160      -0.05821882      -0.03582453       0.06185893
Cl       9.29608168       2.37960726       5.16939575       0.08008276      -0.06173434       0.07986145
Cl       8.41757181       0.13561495       8.41303172      -0.07531210      -0.02561699       0.00220081
Cs       3.82309762       0.51464409       2.95694532      -0.04025976      -0.03308762      -0.00141226
Cs       7.91796107      -3.46760183       2.90036290      -0.02743198       0.00848919       0.01851474
Cs       8.03626063       4.47759472       2.88792696       0.01590431      -0.00454870      -0.02679720
Cs      11.52224422       0.46355443       2.89244771      -0.16641613       0.03555431      -0.03743724
Cs       4.11707734      -0.57980243       8.45343922      -0.03224251       0.06492913      -0.04131806
Cs       7.64161530      -4.53503977       8.45734668      -0.03164365      -0.00558316      -0.07050780
Cs       7.75609826       3.51716140       8.50912622      -0.10887641      -0.01460106      -0.07522587
Cs      11.83845027      -0.53431232       8.50749142      -0.08125945      -0.02349055      -0.10267820
40
Lattice="7.74816177 -8.04720488 0.0 7.74816177 8.04720488 0.0 0.0 0.0 11.20743243" Properties=species:S:1:pos:R:3:forces:R:3 pbc="T T T"
Pb      -0.04994759      -0.04366037      -0.09427129       0.04546673       0.03058776       0.18835536
Pb       3.94432626      -4.09647091      -0.01095951       0.02527305       0.01699602       0.15267163
Pb       3.92531043       4.05294093      -0.10260561       0.03333567      -0.08800786       0.39557497
Pb       7.78687378      -0.01918250       0.00539918      -0.07806482       0.01928869       0.11200570
Pb       0.02353232      -0.01403747       5.71352594       0.04012624      -0.02818151      -0.20392179
Pb       3.91769196      -4.05418062       5.65899940      -0.00727857       0.04085229      -0.17699484
Pb       3.88565612       4.03210788       5.74779960       0.05914242      -0.07054934      -0.42017615
Pb       7.77895766      -0.00126386       5.66151005      -0.06136141      -0.01318211      -0.14540262
Br       2.39813583      -1.62516053       0.46046105      -0.01234706      -0.01203126      -0.03089924
Br       1.51788561       2.41234639       0.46959377       0.04595585       0.01561380      -0.05408119
Br      -0.60012069      -0.11076455       2.81193260       0.04277437      -0.00235123       0.03108459
Cl       5.42947965      -6.44871163      -0.46603212      -0.00837061      -0.02540916      -0.05850719
Cl       6.20457292      -2.39557971      -0.41393173       0.04766482       0.03115041      -0.01733988
Cl       4.46874775      -4.19076991       2.82022326      -0.04756421       0.00926449       0.02386933
Cl       5.48069697       1.65572214      -0.43475170       0.00352438       0.04166624      -0.03404285
Cl       6.22574612       5.64515452      -0.49458484      -0.02796147      -0.04654000      -0.09022842
Br       4.54655092       4.00771666       2.82328245      -0.07018772       0.01960633      -0.00659733
Cl      10.08102694      -1.62598227       0.43462884       0.03196377      -0.03011753      -0.04444638
Cl       9.34209380       2.36541029       0.42918208      -0.00417974      -0.05593030      -0.03374752
Cl       7.21812385      -0.10652171       2.83079016       0.06238046       0.02540339      -0.02059364
Cl       2.32131353      -1.68925696       5.22581296      -0.00635140      -0.01777830       0.04692336
Cl       1.58477851       2.36673348       5.21835810       0.02593328      -0.01078743       0.06566046
Cl       0.68846669       0.13048692       8.41345262       0.02373835       0.02563397      -0.00692742
Cl       5.45292153      -6.42238779       6.07382254       0.01483836       0.00268444       0.04382328
Cl       6.19946825      -2.39106763       6.04645869       0.00635382       0.03440835       0.00755799
Cl       3.35996516      -3.92737315       8.41923291       0.01781509      -0.00571944       0.00224301
Cl       5.45250427       1.62661733       6.06322584      -0.00223496       0.05961614       0.03378505
Cl       6.21712868       5.65111255       6.12339509      -0.02371988       0.02244639       0.05763124
Cl       3.25288982       4.18404866       8.41486023      -0.09433643      -0.00075659       0.04914041
Cl      10.03890347      -1.66973289       5.22182670       0.03923287      -0.02297345       0.05339838
Cl       9.35241573       2.34286249       5.21725014       0.02434253      -0.04026167       0.07142087
Cl       8.35724996       0.11294876       8.41554923      -0.01088889      -0.01847201       0.05762898
Cs       3.78712359       0.49605016       2.95145108       0.01232931       0.01729819       0.00178781
Cs       7.90740980      -3.47884338       2.91271036      -0.02827978      -0.02771992       0.00795509
Cs       8.06685003       4.45232524       2.88533879      -0.02651256       0.01489697      -0.03038746
Cs      11.43108022       0.49029187       2.86037920      -0.04760263      -0.04384558      -0.01838928
Cs       4.09409754      -0.52308857       8.42454403       0.01005234       0.02082560       0.01218705
Cs       7.60079165      -4.52792170       8.40081032      -0.02205106       0.02799003       0.00895801
Cs       7.70641331       3.50320457       8.43551378      -0.01149078       0.02052176      -0.00279971
Cs      11.77306400      -0.51625788       8.43107973      -0.02145970       0.06386342      -0.02817966
40
Lattice="7.74816177 -8.04720488 0.0 7.74816177 8.04720488 0.0 0.0 0.0 11.20743243" Properties=species:S:1:pos:R:3:forces:R:3 pbc="T T T"
Pb      -0.06099746      -0.04583443      -0.08074140       0.11218102       0.02732598       0.05740511
Pb       3.96649527      -4.11271276       0.02228935      -0.02439145       0.08492543      -0.09157149
Pb       3.94884105       4.05072514      -0.05147478      -0.11203934      -0.03625870      -0.02179262
Pb       7.77382500      -0.01413924       0.03403210      -0.00203421      -0.02439258      -0.11058579
Pb       0.03736283      -0.02951635       5.69773766      -0.02715767       0.02787386      -0.02100260
Pb       3.92249413      -4.05147303       5.62449844      -0.00259790      -0.02014128       0.10008554
Pb       3.89773311       4.02192491       5.69525809      -0.03003120      -0.00096847       0.05997801
Pb       7.76871521      -0.01016876       5.63274922       0.00331026       0.00696041       0.10038630
Br       2.40232689      -1.64313180       0.44224270      -0.03309418       0.01286021       0.00337082
Br       1.52691265       2.41110403       0.45479537       0.01354954      -0.01930169      -0.00680900
Br      -0.57938230      -0.09869733       2.81877204      -0.02490229      -0.01027783       0.00791441
Cl       5.43979457      -6.44996398      -0.47535215      -0.00615614      -0.05011363      -0.04018564
Cl       6.20762171      -2.38054031      -0.40128022       0.01426197      -0.00898268       0.01571081
Cl       4.43665975      -4.18615942       2.83063382      -0.00187871      -0.00712807       0.00249458
Cl       5.50258168       1.67858017      -0.43265332       0.00782750      -0.00072168      -0.00339674
Cl       6.21562592       5.64132577      -0.52234434       0.01858592       0.00223602      -0.04841683
Br       4.53064285       4.03326270       2.82506103      -0.00000721       0.00193635       0.04403409
Cl      10.07876774      -1.64459831       0.40906871       0.00643957       0.00378075       0.00789067
Cl       9.36465911       2.33774974       0.40845186       0.00249678      -0.00161234       0.01620035
Cl       7.25456147      -0.07776527       2.83103527       0.01217291       0.00453398       0.02955999
Cl       2.31242952      -1.70943614       5.25966325       0.01283008       0.00217062      -0.01960868
Cl       1.60581755       2.34912259       5.25316344       0.02578938       0.00692982      -0.01078751
Cl       0.69054277       0.13843397       8.41785809      -0.00628897       0.01676185      -0.00432190
Cl       5.48036222      -6.40684856       6.07521782       0.01981212       0.00732827       0.00132083
Cl       6.18529208      -2.36514680       6.03070045       0.00225642       0.01436984      -0.02406553
Cl       3.40092626      -3.94030957       8.42368257       0.01816967       0.00432634       0.00536960
Cl       5.47466954       1.65549251       6.06093222       0.00916010       0.01311178      -0.00451422
Cl       6.19918689       5.67513736       6.13522490      -0.01949435      -0.00064065       0.01411652
Cl       3.23427366       4.17650205       8.43450438       0.01737977      -0.00719485      -0.05377241
Cl      10.03990030      -1.68237851       5.25482610       0.00509595       0.00073894      -0.00869056
Cl       9.38080628       2.31404957       5.26212871      -0.00590977       0.00559776      -0.00629110
Cl       8.32789609       0.09729081       8.43368387      -0.05233124      -0.00407130      -0.02038459
Cs       3.78430544       0.48996902       2.95350702      -0.00616608      -0.00181794      -0.00735386
Cs       7.89270431      -3.49781518       2.92053163      -0.00863969      -0.03203803      -0.00099020
Cs       8.06548385       4.44663099       2.86710666       0.00729926      -0.00906225      -0.00828808
Cs      11.36606676       0.47504137       2.84435718       0.02137432      -0.05174468      -0.00315982
Cs       4.08939504      -0.49365646       8.42029468       0.00690450      -0.01090878       0.02786374
Cs       7.58706189      -4.51682615       8.38639525       0.00218875       0.02991412       0.02293701
Cs       7.67464290       3.51115337       8.41520094       0.05690091      -0.00430147       0.00362203
Cs      11.74317179      -0.49651289       8.39350532      -0.03286631       0.02799656      -0.00427124
40
Lattice="7.74816177 -8.04720488 0.0 7.74816177 8.04720488 0.0 0.0 0.0 11.20743243" Properties=species:S:1:pos:R:3:forces:R:3 pbc="T T T"
Pb      -0.02817265      -0.03755075      -0.06080394      -0.12275361      -0.05418581      -0.09842798
Pb       3.96558583      -4.09053646       0.00465032       0.00655557      -0.10375237       0.02595093
Pb       3.91948533       4.03809119      -0.04412920       0.08410537       0.09503929      -0.06753972
Pb       7.76679096      -0.02040993       0.00562203       0.03118326       0.03304356       0.07541053
Pb       0.03383000      -0.02338560       5.68742899      -0.00328378      -0.01989381       0.07265092
Pb       3.92318033      -4.05554774       5.64300732      -0.01141149      -0.01118293      -0.03476166
Pb       3.89078727       4.01884612       5.69812863       0.00887263       0.03286170       0.06167653
Pb       7.76471907      -0.00939253       5.65625113       0.00613678       0.00986222      -0.06514303
Br       2.39330536      -1.64075047       0.44390084       0.03686172      -0.01044119       0.00921502
Br       1.53472076       2.40256983       0.44815556      -0.00913932       0.01171589       0.02967979
Br      -0.57550911      -0.10649353       2.82341757      -0.03798879       0.00476546      -0.00650612
Cl       5.44038513      -6.46276286      -0.48894891      -0.01245918       0.02461120      -0.01095804
Cl       6.21621730      -2.38017795      -0.39400837      -0.00394333      -0.02673672       0.00041906
Cl       4.42828716      -4.18768953       2.83369484      -0.01202192      -0.00916271      -0.01388247
Cl       5.50723315       1.68396222      -0.43392080      -0.00547958      -0.01581679      -0.00491694
Cl       6.21818848       5.64064543      -0.54719106      -0.01586905       0.01562225      -0.00079770
Br       4.52780254       4.03727244       2.83999428      -0.00595327      -0.00199400      -0.05763940
Cl      10.08202278      -1.64563622       0.40868964      -0.02042595      -0.00923684      -0.01338041
Cl       9.36829097       2.32988543       0.40915064       0.02363542       0.01640019      -0.01220906
Cl       7.27007675      -0.07315712       2.83882159       0.01345866      -0.00488153      -0.01090391
Cl       2.31621427      -1.71201591       5.25640288       0.00228935       0.00486836      -0.01132861
Cl       1.61952208       2.34631367       5.25578285      -0.01897702      -0.01461188      -0.02823298
Cl       0.68794697       0.14825855       8.41678964       0.00437656       0.01781081       0.01250602
Cl       5.49024950      -6.40106891       6.07802558       0.01583596       0.01068896       0.00291105
Cl       6.18468176      -2.35548415       6.02013793      -0.01290336      -0.01727919       0.00039691
Cl       3.41982436      -3.93653301       8.42538038      -0.00428797       0.01031331       0.02144358
Cl       5.47976852       1.66682561       6.06018176       0.01588028      -0.02106607       0.01201157
Cl       6.18876235       5.67959459       6.14363730       0.00623207       0.02422261       0.00502083
Cl       3.23477605       4.17327785       8.42154864      -0.00240755      -0.00709035       0.05065081
Cl      10.04294186      -1.68484583       5.25717946      -0.02519562       0.01467175       0.00255239
Cl       9.38528822       2.30622397       5.27409044       0.00779760       0.02933596       0.00057118
Cl       8.30448979       0.09375571       8.43182454      -0.02609322      -0.01145529       0.01149951
Cs       3.78189091       0.48900313       2.95107194       0.02872465      -0.00348331       0.01674810
Cs       7.88154530      -3.50802413       2.92235420      -0.01236891      -0.00626893       0.01253267
Cs       8.06170905       4.45065351       2.85561317       0.01365370      -0.04462640       0.00844383
Cs      11.35558074       0.45172008       2.83963275       0.02210882      -0.01643661      -0.00523938
Cs       4.09164795      -0.49542526       8.43054442      -0.00493150       0.01827210      -0.00364074
Cs       7.58683077      -4.50401525       8.39418875       0.00236003       0.00322271       0.00262818
Cs       7.68582769       3.51064737       8.41605681       0.03123451       0.02432272       0.00120349
Cs      11.72345080      -0.48677870       8.38290942       0.00659146       0.00795168       0.00938523
40
Lattice="7.74816177 -8.04720488 0.0 7.74816177 8.04720488 0.0 0.0 0.0 11.20743243" Properties=species:S:1:pos:R:3:forces:R:3 pbc="T T T"
Pb      -0.04399675      -0.04718564      -0.07202117      -0.01063378       0.00605523      -0.01372786
Pb       3.96512324      -4.10582103       0.00483399       0.01941861      -0.00495661       0.02874745
Pb       3.92842313       4.05380344      -0.05124084       0.01334957      -0.00742428      -0.01692324
Pb       7.77261556      -0.01475419       0.01512890      -0.02382898      -0.00156762       0.01715167
Pb       0.03133029      -0.02524111       5.69650894       0.01825950      -0.00418627       0.00884347
Pb       3.92001627      -4.05921742       5.64213588       0.01105708       0.02156462      -0.02989003
Pb       3.89163761       4.02467723       5.70747378      -0.00192466      -0.00015015       0.00580284
Pb       7.76555523      -0.00533662       5.64841516      -0.01249580      -0.01007832      -0.01386060
Br       2.39765714      -1.64205157       0.44524769       0.00458473      -0.00853281       0.00079455
Br       1.53690381       2.40272233       0.45251198      -0.00652006      -0.00589505       0.01128308
Br      -0.58743104      -0.10724758       2.82369564      -0.02110755      -0.00725912      -0.00777470
Cl       5.43617830      -6.46312721      -0.49863269      -0.00384797      -0.00390255      -0.01421623
Cl       6.21775684      -2.38711167      -0.39147445       0.00671570      -0.00204412       0.01101982
Cl       4.42367673      -4.19204529       2.83079191      -0.01357324      -0.01688532       0.01118272
Cl       5.50668222       1.68165226      -0.43581523       0.00447563       0.00142533       0.00192447
Cl       6.21478533       5.64421633      -0.55543072      -0.00094785       0.01040102      -0.01958599
Br       4.52296853       4.03761676       2.83058380       0.00016345       0.00604356       0.01072629
Cl      10.07716324      -1.64826049       0.40409619      -0.00420302       0.00378491      -0.00934953
Cl       9.37430331       2.33223437       0.40612025      -0.00044417      -0.00272485      -0.00682502
Cl       7.27779860      -0.07563174       2.83865980       0.00887790       0.00407870      -0.00635883
Cl       2.31722153      -1.71150838       5.25258875      -0.00226048      -0.00329301      -0.00408839
Cl       1.61909842       2.34249117       5.24906170       0.00246361       0.00026793      -0.01256722
Cl       0.68962138       0.15607659       8.41873228       0.00469565       0.01192957       0.00813462
Cl       5.49698149      -6.39703101       6.08028966       0.00368516       0.00674129       0.00792702
Cl       6.18171867      -2.35810165       6.01754711      -0.00050437       0.00327530      -0.00599729
Cl       3.42117506      -3.93264425       8.43101217      -0.00563167       0.00343518      -0.00860501
Cl       5.48441833       1.66441326       6.06399639      -0.00288699       0.01126209       0.00497829
Cl       6.18721335       5.68584611       6.14898175      -0.00657321       0.00507614       0.01427850
Cl       3.23473995       4.17154118       8.42879646      -0.00678480       0.00277868      -0.00385033
Cl      10.03624856      -1.68300352       5.25930496       0.00281754      -0.00205168       0.00407927
Cl       9.38660404       2.31360445       5.27517534      -0.00835681       0.00530408       0.00080931
Cl       8.29055935       0.08986735       8.43319654      -0.01449845      -0.00648412       0.00506826
Cs       3.78884780       0.48937971       2.95456824       0.01474031      -0.00157932       0.00405763
Cs       7.87529809      -3.51111478       2.92616518      -0.00821501      -0.01808222       0.00328184
Cs       8.06527368       4.43912262       2.85695633       0.00865303      -0.01914847       0.00588214
Cs      11.36577083       0.44231673       2.83693473       0.01276251      -0.01496530       0.00103905
Cs       4.09114365      -0.49229027       8.43241600       0.00516045       0.01251548       0.00431675
Cs       7.58598425      -4.49929450       8.39752310       0.00340568       0.01038422       0.00527067
Cs       7.70246548       3.51624939       8.41610732       0.02181738       0.00989701      -0.00065409
Cs      11.72064484      -0.47994650       8.38432111      -0.01186459       0.00499082      -0.00232537
40
Lattice="7.74816177 -8.04720488 0.0 7.74816177 8.04720488 0.0 0.0 0.0 11.20743243" Properties=species:S:1:pos:R:3:forces:R:3 pbc="T T T"
Pb      -0.05031742      -0.04724683      -0.08053973       0.01958523       0.00311263       0.04443029
Pb       3.97583081      -4.11190728       0.01548320      -0.03171023       0.01660478      -0.03561784
Pb       3.93410825       4.05445578      -0.06192839      -0.01558698       0.00103813       0.04751320
Pb       7.76206871      -0.01462956       0.02227202       0.03101781      -0.00236873      -0.01838556
Pb       0.03914171      -0.02703951       5.70376707      -0.02733528       0.00948862      -0.03560665
Pb       3.92468951      -4.05101334       5.63153318      -0.01649838      -0.02919712       0.04476831
Pb       3.88976804       4.02670012       5.71657999       0.01454466       0.00213895      -0.04622714
Pb       7.75909075      -0.00833364       5.64348405       0.02259312       0.02366220       0.02398413
Br       2.39941245      -1.64770743       0.44519682      -0.00341628      -0.00522582       0.00020879
Br       1.53710757       2.39748771       0.45857143       0.01397499       0.00950770       0.00271821
Br      -0.60160615      -0.11296267       2.82109634       0.00217053      -0.01330352       0.01387825
Cl       5.43338304      -6.46719265      -0.51261096       0.00495801      -0.00636777      -0.00868608
Cl       6.22280585      -2.39038770      -0.38076404       0.00038204      -0.00743819       0.01531272
Cl       4.41141697      -4.20492650       2.83612458       0.00417558      -0.01230636      -0.01096081
Cl       5.51165769       1.68400170      -0.43441091      -0.01301535       0.01180221       0.00180108
Cl       6.21226811       5.65243822      -0.57468871      -0.01696946      -0.00964630      -0.02158266
Br       4.51982824       4.04416404       2.83485380      -0.00026819       0.00460374      -0.01600042
Cl      10.07234566      -1.64887906       0.39465422       0.00414999      -0.00807141      -0.01069560
Cl       9.37919378       2.32847956       0.39902042       0.00210690      -0.00190734      -0.00376412
Cl       7.29120104      -0.07296353       2.83754769      -0.00774348      -0.00121462       0.00792598
Cl       2.31582190      -1.71533985       5.25002460       0.00111305       0.00654310      -0.00706546
Cl       1.62476592       2.33896900       5.24165290      -0.00160769      -0.00488908      -0.00521298
Cl       0.69277962       0.16814002       8.42351533       0.01785045       0.01196751      -0.01733212
Cl       5.50572839      -6.38906693       6.08524430       0.01229973       0.00452200       0.00254213
Cl       6.17917331      -2.35457066       6.00988286       0.00481274       0.00386340      -0.00662866
Cl       3.42612953      -3.92905827       8.42966536       0.01145592       0.00917416       0.00876541
Cl       5.48764166       1.67279366       6.06732418      -0.00032180      -0.00247590       0.00227579
Cl       6.17986074       5.69353815       6.16107718       0.00198239       0.00899843       0.01512511
Cl       3.23168635       4.17229494       8.42735357      -0.01788253       0.00040763       0.01670311
Cl      10.03376328      -1.68536556       5.26546847      -0.00975519       0.00545180       0.00245784
Cl       9.38564373       2.31614219       5.28131562      -0.00289215      -0.00516849       0.00255923
Cl       8.27004490       0.08316033       8.43637873      -0.01662412      -0.00695854      -0.01085047
Cs       3.79864816       0.48821149       2.95769934       0.00368858       0.00661816      -0.00317863
Cs       7.86444925      -3.52343917       2.93047927       0.00758246      -0.01436003      -0.00147918
Cs       8.07097369       4.42501901       2.85814624      -0.00166296      -0.00573464       0.00137686
Cs      11.37183648       0.42723493       2.83447196      -0.00424847      -0.01916311       0.00564894
Cs       4.09369886      -0.48272632       8.43631872       0.00572453      -0.00028745       0.00657872
Cs       7.58614830      -4.48904899       8.40155130      -0.00325534       0.00771095       0.00180023
Cs       7.72147747       3.52339162       8.41373901       0.02136549       0.00031693      -0.00293365
Cs      11.70651018      -0.47295218       8.37871293      -0.01674033       0.00855139      -0.00616630
40
Lattice="7.74816177 -8.04720488 0.0 7.74816177 8.04720488 0.0 0.0 0.0 11.20743243" Properties=species:S:1:pos:R:3:forces:R:3 pbc="T T T"
Pb      -0.05354744      -0.04895139      -0.07930756       0.03747860       0.01191064       0.02135006
Pb       3.97616423      -4.11666515       0.01301033      -0.01031000       0.02408376      -0.00710180
Pb       3.93643182       4.06007783      -0.06106089      -0.02622495      -0.01922806       0.01852187
Pb       7.76382167      -0.01420174       0.02300154       0.00499192      -0.00994905      -0.00579147
Pb       0.03699608      -0.02616259       5.70350616       0.00221480       0.01130614      -0.01775846
Pb       3.92330094      -4.05491923       5.63652665       0.00490341       0.00345229       0.01400600
Pb       3.89271947       4.03095055       5.71516861      -0.00087530      -0.00885557      -0.01287425
Pb       7.76060353      -0.00239305       5.64644343      -0.00717971      -0.00210272       0.00601349
Br       2.40131490      -1.65523574       0.44622608      -0.01983761       0.00679070       0.00059435
Br       1.54281213       2.39511636       0.46525616       0.00274683      -0.00744929       0.00075501
Br      -0.61058688      -0.12478182       2.82373588       0.00251323      -0.01629265      -0.00293102
Cl       5.43394602      -6.47027440      -0.52749171       0.01109411      -0.01212566      -0.00347630
Cl       6.22741764      -2.39590745      -0.36301399       0.00039875       0.00083455       0.01539131
Cl       4.39931071      -4.22132289       2.83709538       0.00362884      -0.01612263      -0.00381196
Cl       5.51284623       1.69087886      -0.43118912       0.00264449       0.00121716       0.00619041
Cl       6.20284508       5.65761601      -0.60205502      -0.00050071       0.00571454      -0.01510450
Br       4.51799833       4.05287787       2.83198870       0.00849201       0.00955177       0.01485242
Cl      10.06892814      -1.65353327       0.38141406       0.00016579       0.00931359      -0.00428117
Cl       9.38643108       2.32337417       0.38988641      -0.00852489      -0.00538275      -0.00414673
Cl       7.30372801      -0.07040437       2.83966514      -0.00652620      -0.00106154       0.00080811
Cl       2.31507155      -1.71749774       5.24525783      -0.00087768      -0.00202522      -0.00329212
Cl       1.63102104       2.33173788       5.23343364       0.01103713       0.00715663      -0.00405695
Cl       0.70202491       0.18533945       8.42233003       0.01239457       0.00481222      -0.00132140
Cl       5.52030059      -6.37834071       6.09052683      -0.00480967       0.00281627       0.00318163
Cl       6.17728711      -2.34854603       5.99846024      -0.00499095      -0.00400122      -0.00464892
Cl       3.44032325      -3.92066607       8.43261004       0.00382688       0.00666546       0.00042872
Cl       5.49222832       1.67996756       6.07066185      -0.00477495       0.00670860      -0.00265514
Cl       6.17307484       5.70608498       6.17813864      -0.00682492      -0.00727424       0.00988620
Cl       3.22256114       4.17220979       8.43322772      -0.00869399       0.00188777      -0.02107208
Cl      10.02665059      -1.68606562       5.27303871       0.00241472      -0.00125815       0.00041280
Cl       9.38654658       2.31460038       5.29194286       0.00447201       0.00157282       0.00371267
Cl       8.24151910       0.07331110       8.43646542      -0.00283119      -0.00093021      -0.00295474
Cs       3.80908325       0.48907921       2.95976309      -0.00126855       0.00246874      -0.00719949
Cs       7.85492745      -3.53940959       2.93491554       0.00272143      -0.00263695      -0.00180312
Cs       8.07392539       4.41100587       2.85697765       0.00412471       0.00122789       0.00078948
Cs      11.36903671       0.40418060       2.83318901      -0.00785082      -0.00708733       0.00340622
Cs       4.09761892      -0.47312236       8.44213952       0.00707075       0.00051881       0.00400292
Cs       7.58486656      -4.47640281       8.40528487      -0.00272435       0.00396563       0.00053516
Cs       7.74450453       3.53057454       8.40997763       0.00306685      -0.00170265       0.00143369
Cs      11.68412282      -0.46431417       8.36811654      -0.00677538       0.00150989       0.00000909
40
Lattice="7.74816177 -8.04720488 0.0 7.74816177 8.04720488 0.0 0.0 0.0 11.20743243" Properties=species:S:1:pos:R:3:forces:R:3 pbc="T T T"
Pb      -0.04772858      -0.04886495      -0.07898149      -0.00216594       0.00359311      -0.00474572
Pb       3.97324435      -4.11796525       0.01222347       0.02422246       0.00366257       0.00979684
Pb       3.93229349       4.06262373      -0.05923320       0.00727505      -0.02086371      -0.01565761
Pb       7.76849781      -0.01628903       0.02817404      -0.03068390      -0.00404352      -0.02919157
Pb       0.03808899      -0.02160578       5.70253312       0.00739649      -0.00499167      -0.00315671
Pb       3.92497231      -4.05508979       5.64122590       0.00113842       0.00889958      -0.01503746
Pb       3.89441663       4.03204438       5.71486993      -0.00106237       0.00400515       0.00746546
Pb       7.75628050      -0.00000359       5.64411814       0.00038958      -0.00517916       0.02101809
Br       2.39501213      -1.65777869       0.44854327       0.00754191      -0.01270449       0.00371299
Br       1.54717163       2.38924200       0.47313184       0.00891814       0.00441217       0.00510154
Br      -0.61751645      -0.14277029       2.82257941       0.00144045      -0.01208189       0.00633683
Cl       5.44013055      -6.47580847      -0.54010117      -0.00836525       0.01956723       0.00460173
Cl       6.23058807      -2.40104350      -0.34099067      -0.00326487       0.00148658       0.01370046
Cl       4.39100372      -4.24343545       2.83522280       0.00295347      -0.01226426       0.00998168
Cl       5.51627000       1.69456406      -0.42509005      -0.00192888       0.00886422       0.01255871
Cl       6.19451508       5.66711450      -0.63010043      -0.00950373       0.00165602      -0.00223085
Br       4.52168900       4.06535699       2.83396377       0.00843148       0.00956840      -0.00251830
Cl      10.06515412      -1.65215882       0.36850118       0.01173740       0.00104729       0.00353441
Cl       9.38896886       2.31779698       0.37921296      -0.00892947      -0.00122971      -0.00103338
Cl       7.31095655      -0.06945900       2.84005985      -0.00598027      -0.00097379       0.00429068
Cl       2.31397959      -1.72062520       5.23948094      -0.00748162       0.00377660      -0.00085382
Cl       1.64102655       2.32913879       5.22307867      -0.00220911      -0.00397721      -0.00572009
Cl       0.71589504       0.20191212       8.42271504       0.00987123       0.00124416      -0.01027297
Cl       5.52896729      -6.36804873       6.09633818      -0.00254301      -0.00603082       0.00236841
Cl       6.17146437      -2.34788987       5.98767848       0.01255004       0.01240483      -0.00269075
Cl       3.45353113      -3.90969081       8.43662879      -0.00137504       0.00601810      -0.01244403
Cl       5.49470437       1.68756073       6.07220311      -0.00178803       0.00006458      -0.00648723
Cl       6.16454289       5.71340494       6.19597510       0.00577208       0.00462373       0.00145436
Cl       3.21117681       4.17237314       8.42970833      -0.00124713      -0.00011843       0.00031833
Cl      10.02111949      -1.68660833       5.27938754      -0.00287730      -0.00120143      -0.00250821
Cl       9.39194944       2.31609860       5.30373697      -0.01283818      -0.01886884       0.00391740
Cl       8.21704004       0.06476489       8.43681655       0.00037304       0.00077470      -0.00556772
Cs       3.81799490       0.49029897       2.95841043      -0.00577479       0.00265663      -0.00842276
Cs       7.84734377      -3.55144739       2.93851196      -0.00288518       0.00316195      -0.00272145
Cs       8.07965222       4.39858487       2.85628512       0.00649315       0.00476797       0.00307220
Cs      11.36171365       0.38265660       2.83305260       0.00110259       0.00451798       0.00359390
Cs       4.10395759      -0.46375909       8.44784425       0.00943395       0.00173651       0.00335386
Cs       7.58238039      -4.46508854       8.40808379      -0.00648856      -0.00022866       0.00321078
Cs       7.76271695       3.53707800       8.40847406      -0.01096680      -0.00460592       0.00402043
Cs      11.66501108      -0.45731889       8.36099139       0.00331849      -0.00314657       0.00385153
40
Lattice="7.74816177 -8.04720488 0.0 7.74816177 8.04720488 0.0 0.0 0.0 11.20743243" Properties=species:S:1:pos:R:3:forces:R:3 pbc="T T T"
Pb      -0.04602465      -0.04820967      -0.08004070      -0.00870667      -0.00400116      -0.02018107
Pb       3.97821434      -4.11867847       0.01469839      -0.00535493      -0.01444187       0.00508716
Pb       3.93328337       4.05829399      -0.06169847       0.00347327       0.01887095      -0.01443381
Pb       7.76220873      -0.01872872       0.02223883       0.00703212       0.00166474       0.02314140
Pb       0.04013358      -0.02035076       5.69953793       0.00521500      -0.00072371       0.01497187
Pb       3.92513072      -4.05322018       5.63942326       0.00027306       0.00021696      -0.00465800
Pb       3.89624271       4.03495237       5.71503033      -0.00446620       0.00511089       0.00598016
Pb       7.75443049       0.00055592       5.64905651      -0.00447037      -0.00458596      -0.02242516
Br       2.39389364      -1.66479238       0.45165675      -0.00271837       0.00230557       0.00216251
Br       1.55387664       2.38812758       0.48148877      -0.00997545      -0.01452643       0.00329879
Br      -0.62301032      -0.15998641       2.82428730       0.00288602      -0.00605601      -0.01897259
Cl       5.44096156      -6.47180928      -0.54708905       0.01010202       0.00666149       0.00648433
Cl       6.23112874      -2.40515690      -0.32055327      -0.00048839      -0.00071350       0.00354710
Cl       4.38795552      -4.26408657       2.83667445       0.00458355      -0.00516770       0.00496280
Cl       5.51656594       1.70008511      -0.41601699       0.00326779      -0.00801334       0.00497718
Cl       6.18398919       5.67404739      -0.64965354       0.00552619       0.01678220       0.00281467
Br       4.52756619       4.07794011       2.83181369       0.00582805       0.00669027       0.00453095
Cl      10.06717853      -1.65085118       0.36077812      -0.00242809       0.00505646       0.00025706
Cl       9.38708586       2.31433352       0.37141620      -0.00342385      -0.00025398      -0.00413805
Cl       7.31212488      -0.06947430       2.84188141      -0.00178363      -0.00164170      -0.01147300
Cl       2.31041458      -1.72046565       5.23480936       0.00327154      -0.00440891      -0.00277559
Cl       1.64589464       2.32603221       5.21282649       0.00185152       0.00054280      -0.00495300
Cl       0.73063986       0.21359825       8.41829607       0.00241118      -0.00069227       0.01327310
Cl       5.53363985      -6.36400204       6.10131114      -0.00932120       0.00251195      -0.00025169
Cl       6.17240049      -2.34369034       5.97975786      -0.00534687      -0.00790091       0.00286010
Cl       3.46040405      -3.89954045       8.43555442       0.00215989       0.00511245      -0.00671906
Cl       5.49552013       1.69144456       6.07063221      -0.00673092       0.00383834      -0.00287210
Cl       6.16196792       5.72033841       6.20882880       0.00205642      -0.00093602      -0.00192836
Cl       3.20191615       4.17217645       8.42907184       0.00280644      -0.00253600      -0.00565986
Cl      10.01540962      -1.68661157       5.28217963       0.00479987      -0.00959510      -0.00006552
Cl       9.39030915       2.31074077       5.31221928       0.00777056       0.00112135       0.00586467
Cl       8.20170753       0.05937604       8.43470770       0.00288744       0.00035930       0.01150156
Cs       3.82175419       0.49277664       2.95364774      -0.00375507       0.00645787      -0.00354810
Cs       7.84223831      -3.55857641       2.93950448      -0.00106023       0.01410241       0.00015177
Cs       8.08733144       4.39080300       2.85832057       0.00416647      -0.00056351       0.00217740
Cs      11.35911609       0.37009430       2.83505938      -0.00400276       0.00308124       0.00015622
Cs       4.11276158      -0.45661064       8.45330352       0.00324792      -0.00049135      -0.00232866
Cs       7.57738248      -4.45773738       8.41151188      -0.00603845      -0.00524957      -0.00070563
Cs       7.77137853       3.53972386       8.40944114      -0.01274418      -0.00138005       0.00392867
Cs      11.65505410      -0.45299635       8.35935053       0.00719931      -0.00660817       0.00595980
40
Lattice="7.74816177 -8.04720488 0.0 7.74816177 8.04720488 0.0 0.0 0.0 11.20743243" Properties=species:S:1:pos:R:3:forces:R:3 pbc="T T T"
Pb      -0.04560451      -0.04790945      -0.08256080      -0.00189969      -0.00473742      -0.01242681
Pb       3.97655819      -4.12027706       0.01498770      -0.00547975      -0.00685923       0.00706368
Pb       3.93291009       4.06043533      -0.06369934       0.00071311       0.01103254      -0.00719788
Pb       7.76217249      -0.01970188       0.02398628       0.00322706       0.00295453       0.01337523
Pb       0.04078411      -0.02002664       5.69931252       0.00529280       0.00077749       0.00887266
Pb       3.92399006      -4.05379622       5.63937375       0.00474339       0.00336829      -0.00597555
Pb       3.89592945       4.03734434       5.71274410      -0.00104546      -0.00430772       0.00809402
Pb       7.75440151      -0.00025304       5.64667869      -0.01264729      -0.00266114      -0.00866492
Br       2.39279960      -1.66682234       0.45308902      -0.00242115       0.00259613       0.00118765
Br       1.55332437       2.38427222       0.48470475       0.00543486       0.00409421       0.00244796
Br      -0.62319925      -0.16664282       2.81940793       0.00256636      -0.00366865       0.00279743
Cl       5.44411852      -6.46756430      -0.54576814       0.00674101       0.00282432       0.00176233
Cl       6.23050477      -2.40641348      -0.31404497      -0.00245315      -0.00432208       0.00080046
Cl       4.39106905      -4.27111640       2.83913835       0.00163936      -0.00266183      -0.01196448
Cl       5.51617323       1.69966151      -0.41116127       0.00149749      -0.00423202       0.00351022
Cl       6.18238908       5.68041881      -0.65247568      -0.00710331      -0.00002421      -0.00079657
Br       4.53168198       4.08375444       2.83178985       0.00307818       0.00577754      -0.00511627
Cl      10.06899781      -1.64869044       0.36010246      -0.00102760       0.00211058       0.00100868
Cl       9.38363626       2.31403600       0.36913656       0.00168379       0.00244165      -0.00207874
Cl       7.30855727      -0.07025674       2.83923335       0.00097122       0.00016750       0.00349199
Cl       2.31038388      -1.72075290       5.23247121      -0.00076633       0.00049043      -0.00289993
Cl       1.64636130       2.32577269       5.20830117       0.00214496       0.00262793      -0.00376823
Cl       0.73637973       0.21512932       8.41952212       0.00007649       0.00009647      -0.00547862
Cl       5.53065285      -6.36401936       6.10238026      -0.00234630      -0.00380218       0.00032994
Cl       6.17292754      -2.34448576       5.97949267      -0.00582273      -0.00790354       0.00230096
Cl       3.46068555      -3.89524333       8.43185758       0.00130980       0.00194836       0.01238723
Cl       5.49228899       1.69294754       6.06839895       0.00685194      -0.00656064      -0.00332458
Cl       6.16371909       5.72135589       6.21078042      -0.00024273      -0.00164695      -0.00184011
Cl       3.20027121       4.17108536       8.42736092       0.00253118      -0.00217680       0.00019129
Cl      10.01575587      -1.68967330       5.28177699      -0.00552243       0.00431281      -0.00128897
Cl       9.39026510       2.30813021       5.31477939       0.00773213       0.00206433       0.00453648
Cl       8.20092286       0.05876587       8.43665452       0.00079565      -0.00030673      -0.00394166
Cs       3.81967967       0.49702856       2.94977050      -0.00428641       0.00604532      -0.00214610
Cs       7.84276292      -3.55486681       2.93861785      -0.00196802       0.00870088      -0.00076305
Cs       8.09151061       4.38931740       2.86099151       0.00220842      -0.00000183       0.00145310
Cs      11.35901753       0.36929810       2.83682975      -0.00012896       0.00139076       0.00022482
Cs       4.11731746      -0.45612528       8.45428258       0.00242519       0.00023512      -0.00250229
Cs       7.57291115      -4.45853296       8.41247639      -0.00274170      -0.00394130      -0.00036579
Cs       7.76803449       3.53851755       8.41167282      -0.00993855      -0.00157904       0.00281331
Cs      11.65713448      -0.45423581       8.36287120       0.00417718      -0.00466390       0.00389113
40
Lattice="7.74816177 -8.04720488 0.0 7.74816177 8.04720488 0.0 0.0 0.0 11.20743243" Properties=species:S:1:pos:R:3:forces:R:3 pbc="T T T"
Pb      -0.04253871      -0.04823075      -0.08758555      -0.00690749      -0.00014853       0.00764158
Pb       3.97186731      -4.12194234       0.01796568       0.00709846      -0.00284461      -0.00705539
Pb       3.93079163       4.06484420      -0.06702035       0.00530213      -0.00212828       0.01059427
Pb       7.76214655      -0.02035442       0.02878997      -0.00477576       0.00137741      -0.01458240
Pb       0.04379134      -0.01876366       5.69984281      -0.00800423      -0.00374206      -0.00878916
Pb       3.92504235      -4.05267083       5.63750152      -0.00762933      -0.01047860       0.00587063
Pb       3.89555607       4.03703922       5.71136911       0.00135972       0.00821144      -0.00466867
Pb       7.74828488      -0.00254313       5.64327239       0.01426384       0.00518937       0.01315449
Br       2.38997183      -1.66853374       0.45520535       0.00181959       0.00306235       0.00131350
Br       1.55697908       2.38334496       0.48977834       0.00066661       0.00314285       0.00001217
Br      -0.62246628      -0.17670015       2.81691406       0.00476844       0.00165604       0.00168225
Cl       5.45077712      -6.46179447      -0.54422582       0.00252743      -0.00018572      -0.00212466
Cl       6.22853466      -2.41020500      -0.30543027       0.00340033       0.00291697      -0.00091573
Cl       4.39592646      -4.28131377       2.83584400      -0.00083927       0.00299915       0.00471628
Cl       5.51578948       1.69827037      -0.40323130      -0.00107833       0.00038144       0.00122303
Cl       6.17569597       5.68643710      -0.65750658      -0.00071159       0.00215437      -0.00413967
Br       4.53808255       4.09422749       2.82944046      -0.00230695       0.00296819      -0.00345649
Cl      10.07168813      -1.64499315       0.36009702      -0.00155915      -0.00002905       0.00168065
Cl       9.37978166       2.31490705       0.36597737      -0.00256499      -0.00318823       0.00247230
Cl       7.30395507      -0.07058423       2.83935246      -0.00021493       0.00305990       0.00002136
Cl       2.30952990      -1.72015551       5.22798033       0.00429397       0.00108009      -0.00272548
Cl       1.64782614       2.32728943       5.20077646      -0.00011772       0.00240919      -0.00163589
Cl       0.74382087       0.21706689       8.41615485       0.00188959       0.00137555      -0.00125222
Cl       5.52630292      -6.36701861       6.10410420       0.00313228      -0.00138180      -0.00054045
Cl       6.17177186      -2.34857946       5.98027869       0.00079300      -0.00245604       0.00182208
Cl       3.46085000      -3.88953328       8.43378217       0.00039427      -0.00067764      -0.00270662
Cl       5.49211677       1.69124660       6.06376975      -0.00113987      -0.00126368      -0.00115952
Cl       6.16566330       5.72165436       6.21254495      -0.00158310      -0.00097294      -0.00151188
Cl       3.19903366       4.16871289       8.42530754      -0.00151760      -0.00381626      -0.00088608
Cl      10.01292438      -1.69025138       5.28039006      -0.00306154      -0.00124845       0.00019587
Cl       9.39284742       2.30504274       5.31961106       0.00074846      -0.00292455       0.00227800
Cl       8.20021467       0.05780733       8.43541738      -0.00524407      -0.00220888       0.00282941
Cs       3.81440342       0.50575872       2.94345889      -0.00302842       0.00548727      -0.00222637
Cs       7.84299754      -3.54732153       2.93653146      -0.00103873       0.00042483      -0.00269438
Cs       8.09808454       4.38741883       2.86550457      -0.00242681      -0.00101547       0.00297519
Cs      11.36020138       0.36850500       2.83961879       0.00468152      -0.00284516       0.00353841
Cs       4.12475225      -0.45544699       8.45469582       0.00107548      -0.00173187       0.00106028
Cs       7.56613289      -4.46109561       8.41385955       0.00034022      -0.00020487       0.00203515
Cs       7.75961478       3.53577506       8.41581647       0.00050510      -0.00345798      -0.00117058
Cs      11.66143048      -0.45745141       8.36931027      -0.00331056       0.00105424      -0.00287525
40
Lattice="7.74816177 -8.04720488 0.0 7.74816177 8.04720488 0.0 0.0 0.0 11.20743243" Properties=species:S:1:pos:R:3:forces:R:3 pbc="T T T"
Pb      -0.04392745      -0.04842498      -0.08785515       0.01033889      -0.00075802       0.00193137
Pb       3.97384505      -4.12408578       0.01782362      -0.00535493       0.00777551      -0.00246663
Pb       3.93211936       4.06574503      -0.06574115      -0.00546341       0.00012088       0.00228299
Pb       7.76003156      -0.02009670       0.02710149       0.00207646      -0.00016045       0.00415285
Pb       0.04333036      -0.01959189       5.69833414       0.00278897       0.00152082      -0.00035975
Pb       3.92374873      -4.05487529       5.63792276       0.00217574       0.00145864       0.00550176
Pb       3.89559830       4.03948267       5.71097768      -0.00184067      -0.00426144      -0.00159464
Pb       7.74980811      -0.00210754       5.64542463      -0.00375747      -0.00222770      -0.00057930
Br       2.38929822      -1.66787560       0.45629131       0.00703685      -0.00703922      -0.00092085
Br       1.55814020       2.38330680       0.49174544       0.00110186       0.00349892      -0.00147716
Br      -0.62143868      -0.17992298       2.81633721       0.00193394       0.00219558       0.00215831
Cl       5.45403732      -6.46130299      -0.54620515      -0.00619854       0.00369473      -0.00354488
Cl       6.22972646      -2.41051956      -0.30188361      -0.00238983      -0.00368046      -0.00248902
Cl       4.39530398      -4.28461207       2.83653648      -0.00147182       0.00154007       0.00097342
Cl       5.51615728       1.69806077      -0.40035380      -0.00597718       0.00559659      -0.00037793
Cl       6.17332954       5.69002770      -0.66316395      -0.00177665      -0.00104526      -0.00412018
Br       4.53907995       4.09935803       2.82881413      -0.00097436       0.00406689      -0.00501457
Cl      10.07075638      -1.64366517       0.35945131       0.00326431      -0.00478062       0.00040015
Cl       9.37855981       2.31334141       0.36493775       0.00445496       0.00249183       0.00130012
Cl       7.30445473      -0.06900693       2.83939823       0.00119269       0.00379547       0.00432103
Cl       2.31081252      -1.72031694       5.22550232       0.00045999       0.00110756      -0.00153827
Cl       1.64951340       2.32843565       5.19741580      -0.00519160      -0.00285581      -0.00063768
Cl       0.74704104       0.21962994       8.41550514      -0.00150744      -0.00042922      -0.00202937
Cl       5.52714452      -6.36718554       6.10494369       0.00273256      -0.00421688      -0.00082123
Cl       6.17053791      -2.35069443       5.98006204       0.00624053       0.00464080       0.00142520
Cl       3.46222962      -3.88764804       8.43403306      -0.00109431      -0.00289618       0.00050542
Cl       5.49229790       1.69142504       6.06221899      -0.00021506       0.00171657      -0.00064272
Cl       6.16428730       5.72184007       6.21398393       0.00383317       0.00358258      -0.00139394
Cl       3.19755248       4.16653128       8.42374173       0.00122974      -0.00206090       0.00595267
Cl      10.01073232      -1.69097569       5.28083498       0.00097206      -0.00064374       0.00062639
Cl       9.39475357       2.30379764       5.32305632      -0.00569598      -0.00721138       0.00192315
Cl       8.19570678       0.05588034       8.43656564      -0.00190907      -0.00149267      -0.00202561
Cs       3.81290384       0.50997577       2.94111244      -0.00101712       0.00304732      -0.00019310
Cs       7.84127907      -3.54631684       2.93548066      -0.00119152       0.00146699      -0.00135789
Cs       8.09943671       4.38508659       2.86762964      -0.00025970      -0.00153984       0.00129066
Cs      11.36158039       0.36518714       2.84139298       0.00257535      -0.00246804       0.00161915
Cs       4.12741602      -0.45467613       8.45555874      -0.00151994      -0.00189249      -0.00059398
Cs       7.56455298      -4.46070624       8.41521798       0.00264778      -0.00027428      -0.00002650
Cs       7.75910734       3.53458438       8.41617822       0.00114091      -0.00146577      -0.00049986
Cs      11.65933142      -0.45722413       8.36893628      -0.00339014       0.00008260      -0.00165957
40
Lattice="7.74816177 -8.04720488 0.0 7.74816177 8.04720488 0.0 0.0 0.0 11.20743243" Properties=species:S:1:pos:R:3:forces:R:3 pbc="T T T"
Pb      -0.04193436      -0.04898237      -0.08806150       0.00089520       0.00138951      -0.00191283
Pb       3.97403113      -4.12351409       0.01713862      -0.00130213      -0.00172985       0.00439024
Pb       3.93156953       4.06674673      -0.06474471      -0.00157597       0.00182868      -0.00443656
Pb       7.75937319      -0.01987825       0.02812952       0.00250415       0.00157522       0.00375730
Pb       0.04432870      -0.01979693       5.69805130       0.00290132       0.00033390       0.00095471
Pb       3.92384437      -4.05573258       5.63985755       0.00456449       0.00227505      -0.00298648
Pb       3.89475396       4.03985026       5.71109235       0.00072357      -0.00569562      -0.00000773
Pb       7.74962352      -0.00278430       5.64600348      -0.00768765      -0.00123038      -0.00012976
Br       2.39147170      -1.66964984       0.45663875      -0.00077043       0.00204860      -0.00054135
Br       1.55845144       2.38382776       0.49229059       0.00011842       0.00278569      -0.00079095
Br      -0.62011107      -0.18077016       2.81608532       0.00197661       0.00134073       0.00130905
Cl       5.45391447      -6.46014800      -0.54911090       0.00232071      -0.00322315      -0.00184636
Cl       6.22999714      -2.41167105      -0.30064332       0.00040949       0.00018921      -0.00196629
Cl       4.39346741      -4.28593322       2.83797768      -0.00172780       0.00067768      -0.00141246
Cl       5.51478080       1.69983031      -0.39899072      -0.00024367      -0.00096985       0.00014281
Cl       6.17186580       5.69257455      -0.66865853      -0.00148586      -0.00091583      -0.00182318
Br       4.53899044       4.10403694       2.82734634      -0.00043282       0.00361017       0.00422881
Cl      10.07067015      -1.64454589       0.35884683      -0.00281601       0.00161078       0.00098948
Cl       9.37981254       2.31283150       0.36457033       0.00075318      -0.00024329       0.00053341
Cl       7.30602033      -0.06636858       2.84046811      -0.00005159       0.00287745       0.00190360
Cl       2.31204429      -1.72053006       5.22355364       0.00159657      -0.00100402      -0.00001293
Cl       1.64899741       2.32801636       5.19524734      -0.00203994       0.00090919      -0.00056443
Cl       0.74820311       0.22138767       8.41544386       0.00015778      -0.00133368      -0.00156483
Cl       5.52903538      -6.36809041       6.10509570      -0.00059870      -0.00137404      -0.00100977
Cl       6.17164131      -2.35036892       5.98021947      -0.00050728      -0.00216455       0.00129593
Cl       3.46316706      -3.88772682       8.43398486      -0.00290123      -0.00174587       0.00291287
Cl       5.49228198       1.69284580       6.06135493       0.00101765      -0.00039883      -0.00077503
Cl       6.16417129       5.72335843       6.21451282       0.00076268      -0.00039678      -0.00203376
Cl       3.19711623       4.16440456       8.42444456       0.00186071      -0.00105127      -0.00022303
Cl      10.00997739      -1.69211705       5.28184297      -0.00026988       0.00115068       0.00037158
Cl       9.39438436       2.30077848       5.32637602       0.00105652       0.00011357       0.00157135
Cl       8.19126964       0.05383612       8.43739900      -0.00095077      -0.00095521      -0.00020276
Cs       3.81220726       0.51324509       2.94002121      -0.00024266       0.00175823       0.00022656
Cs       7.83915832      -3.54554267       2.93465662      -0.00149389       0.00071539      -0.00080378
Cs       8.09993973       4.38269140       2.86909980       0.00115453      -0.00126875       0.00152759
Cs      11.36287387       0.36165977       2.84280349       0.00285430      -0.00007306       0.00025698
Cs       4.12800187      -0.45462157       8.45584548      -0.00055795      -0.00014055      -0.00122601
Cs       7.56501205      -4.46016938       8.41594273       0.00198023      -0.00088988      -0.00033321
Cs       7.75995914       3.53368215       8.41584580      -0.00116145      -0.00044570      -0.00004207
Cs      11.65581345      -0.45679690       8.36728652      -0.00079043       0.00006044       0.00027328
40
Lattice="7.74816177 -8.04720488 0.0 7.74816177 8.04720488 0.0 0.0 0.0 11.20743243" Properties=species:S:1:pos:R:3:forces:R:3 pbc="T T T"
Pb      -0.04092845      -0.04870488      -0.08869732       0.00084081      -0.00035694      -0.00271408
Pb       3.97384547      -4.12448412       0.01784819       0.00289550       0.00165626       0.00113744
Pb       3.93097224       4.06864027      -0.06533934       0.00181956      -0.00087742      -0.00165542
Pb       7.75979779      -0.01878707       0.02933475      -0.00453685      -0.00107298       0.00379382
Pb       0.04558468      -0.02027267       5.69754660       0.00265455      -0.00215126       0.00206844
Pb       3.92507862      -4.05664059       5.64058768      -0.00061451       0.00078150      -0.00149204
Pb       3.89452574       4.03838222       5.71047383      -0.00139485       0.00271023       0.00011940
Pb       7.74741102      -0.00347104       5.64747883       0.00142312      -0.00235667      -0.00423074
Br       2.39278965      -1.66950190       0.45673183      -0.00154653       0.00132175      -0.00075736
Br       1.55845858       2.38569926       0.49214787      -0.00194118       0.00037489      -0.00097518
Br      -0.61708934      -0.18042608       2.81608073       0.00113605       0.00065971      -0.00239587
Cl       5.45553476      -6.46024014      -0.55137810       0.00085557      -0.00210183      -0.00073056
Cl       6.23042040      -2.41190911      -0.30117753      -0.00071253       0.00007443      -0.00026158
Cl       4.39213925      -4.28589073       2.83894587      -0.00111181      -0.00076824      -0.00282078
Cl       5.51341659       1.70025655      -0.39752653       0.00077600      -0.00069943       0.00022657
Cl       6.17028323       5.69441262      -0.67267217       0.00022922       0.00130813      -0.00061559
Br       4.53879893       4.10958060       2.82778843      -0.00020089       0.00252257       0.00199155
Cl      10.06938541      -1.64419614       0.35972314      -0.00184275       0.00256440       0.00074171
Cl       9.38029372       2.31229790       0.36512569       0.00079495       0.00079524       0.00034023
Cl       7.30617751      -0.06287699       2.84178653      -0.00121410       0.00164876       0.00056232
Cl       2.31425201      -1.72099607       5.22199135       0.00134342      -0.00065838       0.00088471
Cl       1.64713807       2.32856747       5.19334825       0.00161960       0.00367628      -0.00038202
Cl       0.74934138       0.22131518       8.41462723       0.00105209      -0.00102335       0.00135152
Cl       5.52951188      -6.37001566       6.10434838      -0.00100362      -0.00048210      -0.00097468
Cl       6.17251110      -2.35178822       5.98173130      -0.00280350      -0.00449108       0.00092314
Cl       3.46193424      -3.88876110       8.43459029      -0.00253583      -0.00142052       0.00375842
Cl       5.49209212       1.69319314       6.05992132      -0.00032205      -0.00161571       0.00042012
Cl       6.16494218       5.72378837       6.21289402      -0.00234780      -0.00433198      -0.00183579
Cl       3.19805819       4.16187604       8.42455944       0.00146831       0.00008017      -0.00135604
Cl      10.00922635      -1.69283305       5.28247742      -0.00127041       0.00119794       0.00122572
Cl       9.39477656       2.29808301       5.32957280       0.00349102       0.00323705       0.00118125
Cl       8.18831953       0.05205237       8.43839559      -0.00019882      -0.00008430       0.00116068
Cs       3.81052685       0.51748059       2.93877106       0.00028729       0.00050201      -0.00111628
Cs       7.83729145      -3.54343211       2.93311292      -0.00065560       0.00130444      -0.00060566
Cs       8.10082415       4.38084027       2.87151543       0.00152400      -0.00067658       0.00243608
Cs      11.36587752       0.35994638       2.84442976       0.00185277      -0.00081336       0.00173749
Cs       4.12842846      -0.45528894       8.45525796       0.00006633      -0.00061786       0.00058794
Cs       7.56594957      -4.46104337       8.41635686       0.00135604      -0.00047858      -0.00008879
Cs       7.75845626       3.53195600       8.41579814      -0.00091078       0.00074553      -0.00049065
Cs      11.65382266      -0.45694343       8.36675544      -0.00032182      -0.00008273      -0.00114943
