40
Lattice="8.10231951 -8.10231951 0.0 8.10231951 8.10231951 0.0 0.0 0.0 11.89569039" Properties=species:S:1:pos:R:3:forces:R:3 pbc="T T T"
Pb       0.00000000       0.00000000       0.00000000      -0.02575919       0.00834361       0.03361263
Pb       4.05115975      -4.05115975       0.00000000       0.05937827      -0.01309786       0.00578068
Pb       4.05115975       4.05115975       0.00000000       0.00346389       0.04945593       0.02297269
Pb       8.10231951       0.00000000       0.00000000       0.03575240      -0.04357455      -0.00224097
Pb       0.00000000       0.00000000       5.94784520       0.04825767      -0.01261202      -0.00083635
Pb       4.05115975      -4.05115975       5.94784520       0.01255487       0.04526411       0.02700308
Pb       4.05115975       4.05115975       5.94784520       0.03909742      -0.03724852       0.00683146
Pb       8.10231951       0.00000000       5.94784520      -0.03532400       0.01778849       0.03219909
Br       2.35375736      -1.69740239       0.00000000       0.08162069       0.06581938       0.00879997
Br       1.69740239       2.35375736       0.00000000      -0.08271174       0.07225515       0.00854046
Br       0.00000000       0.00000000       2.97392260      -0.00168103       0.01194907       0.01251446
Br       5.74856215      -6.40491712       0.00000000      -0.07870039      -0.07615642       0.02055150
Br       6.40491712      -2.35375736       0.00000000       0.07362131      -0.08455568       0.00470276
Br       4.05115975      -4.05115975       2.97392260       0.00587585      -0.01121699       0.00867748
Br       5.74856215       1.69740239       0.00000000      -0.07408977      -0.08740660       0.01257320
Br       6.40491712       5.74856215       0.00000000       0.10758944      -0.07556048      -0.00346374
Br       4.05115975       4.05115975       2.97392260      -0.01474694      -0.01077800       0.00968434
Br      10.45607687      -1.69740239       0.00000000       0.08295315       0.08438520      -0.00199453
Br       9.79972190       2.35375736       0.00000000      -0.06057682       0.09143056      -0.00299792
Br       8.10231951       0.00000000       2.97392260      -0.00404409       0.00979592       0.00584596
Br       1.69740239      -2.35375736       5.94784520      -0.07291088      -0.09073844       0.01296879
Br       2.35375736       1.69740239       5.94784520       0.07519417      -0.08582553       0.00295717
Br       0.00000000       0.00000000       8.92176779       0.00243182      -0.00498485       0.01199077
Br       6.40491712      -5.74856215       5.94784520       0.07445127       0.07222074       0.00067775
Br       5.74856215      -1.69740239       5.94784520      -0.08775745       0.07592585       0.00647741
Br       4.05115975      -4.05115975       8.92176779      -0.00399857       0.00425486       0.01492390
Br       6.40491712       2.35375736       5.94784520       0.09974092       0.08196400      -0.01305088
Br       5.74856215       6.40491712       5.94784520      -0.06346284       0.09264676       0.05003074
Br       4.05115975       4.05115975       8.92176779      -0.01165141       0.00458010       0.01320221
Br       9.79972190      -2.35375736       5.94784520      -0.08098216      -0.08326049       0.00714656
Br      10.45607687       1.69740239       5.94784520       0.09620379      -0.06393245       0.01071986
Br       8.10231951       0.00000000       8.92176779      -0.00067726      -0.00741144       0.01619062
Cs       4.16578878       0.08999911       3.02510999      -0.01694047      -0.00615949      -0.00267064
Cs       8.15208298      -4.09077734       3.07545339       0.00898638       0.01742821      -0.04816310
Cs       8.32631032       3.98338944       2.99808084      -0.07905696       0.01623735       0.01082671
Cs      12.28958802       0.04953385       3.18636642      -0.03157785      -0.01613356      -0.11345002
Cs       4.09693340      -0.01677885       9.05250952       0.00701495       0.01680989      -0.07296986
Cs       8.18146799      -4.01543177       8.99948555      -0.00522859       0.00542811      -0.02964055
Cs       8.25992437       4.13404097       9.03960400      -0.05208910      -0.01948831      -0.05759093
Cs      12.25455708      -0.02030741       9.01195616      -0.03022077      -0.01384158      -0.02933275
40
Lattice="8.10231951 -8.10231951 0.0 8.10231951 8.10231951 0.0 0.0 0.0 11.89569039" Properties=species:S:1:pos:R:3:forces:R:3 pbc="T T T"
Pb      -0.00786791       0.00284651       0.01203758       0.07309775      -0.00964998      -0.00908906
Pb       4.07098357      -4.05539403       0.00249641      -0.06353076       0.02707053       0.02158818
Pb       4.05291185       4.06729894       0.00835946       0.02755376      -0.07452143       0.00097983
Pb       8.11440268      -0.01391954      -0.00028441      -0.03071270       0.07921578       0.02831592
Pb       0.01629282      -0.00423469       5.94809473      -0.04588404       0.01787776       0.03024813
Pb       4.05583497      -4.03634230       5.95760380       0.01659131      -0.06978252      -0.00023801
Pb       4.06447081       4.03915005       5.95068142      -0.02892384       0.06674379       0.02015507
Pb       8.09148690       0.00572150       5.95934598       0.09097246      -0.02781146      -0.00745213
Br       2.38467497      -1.67239353       0.00338113       0.06606770       0.07219728       0.01070271
Br       1.66667577       2.38204010       0.00328298      -0.04907722       0.10054691       0.00979815
Br      -0.00064705       0.00459401       2.97888082      -0.00287486       0.00546108       0.01224682
Br       5.71866857      -6.43476088       0.00789857      -0.06953460      -0.10171241       0.01840279
Br       6.43411136      -2.38546035       0.00180956       0.11643608      -0.06064670       0.00624370
Br       4.05341328      -4.05547221       2.97756595       0.00505144      -0.00628353       0.01578671
Br       5.72047717       1.66433877       0.00483062      -0.06762022      -0.06261549       0.00801952
Br       6.44576921       5.71906504      -0.00132800       0.06940724      -0.09945835       0.00742903
Br       4.04549083       4.04701628       2.97785220      -0.00664375      -0.00355883       0.01341750
Br      10.48850048      -1.66516699      -0.00076246       0.10525402       0.07816064       0.00780157
Br       9.77636369       2.38817938      -0.00115236      -0.07710302       0.05010917      -0.00218980
Br       8.10076440       0.00376623       2.97653977      -0.00311705       0.00443029       0.01716725
Br       1.66925498      -2.38859397       5.95283040      -0.08373536      -0.07888443       0.00963215
Br       2.38345616       1.66522672       5.94898447       0.11401260      -0.06072503       0.00718600
Br       0.00093449      -0.00191653       8.92654680       0.00309028      -0.00248413       0.01071547
Br       6.43359953      -5.72150351       5.94810534       0.08381020       0.05955383       0.00412385
Br       5.71563307      -1.66728104       5.95033689      -0.06023304       0.11892781       0.01035085
Br       4.04962110      -4.04952369       8.92754869       0.00243622       0.00637878       0.00536318
Br       6.44324918       2.38555507       5.94283104       0.08973254       0.09641620      -0.00353390
Br       5.72405312       6.43988211       5.96705953      -0.08113476       0.05466057       0.03122080
Br       4.04668045       4.05292038       8.92690122      -0.00623660       0.00148162       0.00714119
Br       9.76936036      -2.38561953       5.95059244      -0.05848513      -0.07899054       0.00734715
Br      10.49225762       1.67273870       5.95196362       0.05415282      -0.08343194       0.01224109
Br       8.10205913      -0.00284946       8.92792489      -0.00368210      -0.00773544       0.00186961
Cs       4.15927400       0.08762881       3.02408064      -0.01913021      -0.01403440      -0.02656661
Cs       8.15553513      -4.08407724       3.05693598      -0.00015746       0.01294854      -0.03484356
Cs       8.29592039       3.98963209       3.00223752      -0.05407658       0.01031142      -0.00941281
Cs      12.27745389       0.04332060       3.14276803      -0.03125617      -0.00752878      -0.07626139
Cs       4.09962795      -0.01031692       9.02445841      -0.00708631       0.01198828      -0.04246404
Cs       8.17945625      -4.01334679       8.98808894      -0.00653406      -0.00720710      -0.03723523
Cs       8.23989884       4.12654437       9.01746157      -0.03813110      -0.01681661      -0.04132601
Cs      12.24293915      -0.02562448       9.00067960      -0.02276547      -0.00060119      -0.04488164
40
Lattice="8.10231951 -8.10231951 0.0 8.10231951 8.10231951 0.0 0.0 0.0 11.89569039" Properties=species:S:1:pos:R:3:forces:R:3 pbc="T T T"
Pb       0.00742910       0.00301031       0.02305730       0.02246021      -0.00330176      -0.02455768
Pb       4.07392982      -4.05145075       0.01312719      -0.02724372       0.00355542       0.01518489
Pb       4.06438913       4.06165369       0.01859914       0.00744977      -0.03039597      -0.01085167
Pb       8.11893040      -0.00416075       0.00944380      -0.01042996       0.03174230       0.02535908
Pb       0.02076319      -0.00322114       5.95916672      -0.01877987       0.00441739       0.02774765
Pb       4.06726939      -4.04174382       5.96904938      -0.00200212      -0.02242981      -0.01432341
Pb       4.07088893       4.04716026       5.96120726      -0.01473307       0.02567201       0.01393437
Pb       8.10906688       0.00339442       5.97027400       0.03074513      -0.00858016      -0.02431100
Br       2.44556311      -1.61639028       0.01130815       0.07230910       0.06580237       0.01371868
Br       1.61177201       2.45135542       0.01074696      -0.04895143       0.06526645       0.00555097
Br      -0.00248600       0.01182571       2.98903789      -0.00204466      -0.00281091       0.00817428
Br       5.65800583      -6.50606168       0.02384282      -0.05796494      -0.06747193       0.00417840
Br       6.50985793      -2.44554203       0.00625272       0.07883460      -0.06381384       0.00973900
Br       4.05788383      -4.06271159       2.98743251      -0.00007187      -0.00251695       0.01083547
Br       5.66266711       1.60234543       0.01332116      -0.04893514      -0.05345744      -0.00189161
Br       6.51920671       5.64913109       0.00009035       0.06301757      -0.06394614       0.02131096
Br       4.03660409       4.04102589       2.98724453       0.00359552       0.00576422       0.00908183
Br      10.56410084      -1.59881210       0.00142953       0.07344662       0.06635336       0.02088399
Br       9.72121549       2.44739020      -0.00328701      -0.05068628       0.05309719       0.00151719
Br       8.09782245       0.00967694       2.98570935       0.00463463       0.00082513       0.01156826
Br       1.60622315      -2.45801934       5.96212081      -0.05249524      -0.05735848       0.00090678
Br       2.45898246       1.60458591       5.95304966       0.07466192      -0.06004895       0.01409924
Br       0.00317640      -0.00501373       8.93595562       0.00683755       0.00349449       0.00787461
Br       6.49788035      -5.66734565       5.95000150       0.07349177       0.06238184       0.01178123
Br       5.65434253      -1.58970088       5.95713704      -0.05630005       0.07070359       0.00942302
Br       4.04885968      -4.04522143       8.93624830       0.00691324       0.00438053       0.00322132
Br       6.52066430       2.45731829       5.93588352       0.06637377       0.06651374       0.01432243
Br       5.66611205       6.50135771       6.00056927      -0.05496511       0.05716954      -0.00565028
Br       4.03927409       4.05545381       8.93549351       0.00024364      -0.00504151       0.00388756
Br       9.71187795      -2.45187688       5.95650631      -0.04711329      -0.05653628       0.00366292
Br      10.55515737       1.61368104       5.96130851       0.06415447      -0.06250008       0.01002424
Br       8.10033579      -0.00902839       8.93585290      -0.00234285      -0.00267154      -0.00071940
Cs       4.14458338       0.07952825       3.01258957      -0.02027490      -0.02208904      -0.02174179
Cs       8.15930987      -4.07158870       3.02278833      -0.01152494       0.00755777      -0.02485471
Cs       8.24109000       4.00058564       3.00319110      -0.02918337       0.01120174      -0.02011816
Cs      12.25179742       0.03348382       3.06461925      -0.02365048      -0.00900139      -0.03695301
Cs       4.09986206       0.00153310       8.97674831      -0.01418487       0.00245282      -0.02046549
Cs       8.17467586      -4.01383775       8.96092235      -0.01308694      -0.01378036      -0.02127700
Cs       8.20279572       4.11166431       8.97676165      -0.02618830      -0.01633817      -0.02900083
Cs      12.22116249      -0.03176633       8.97066850      -0.01601608       0.01573880      -0.02127231
40
Lattice="8.10231951 -8.10231951 0.0 8.10231951 8.10231951 0.0 0.0 0.0 11.89569039" Properties=species:S:1:pos:R:3:forces:R:3 pbc="T T T"
Pb       0.01938967       0.00445940       0.01954754       0.02574664      -0.01765175       0.06607860
Pb       4.08255989      -4.05441137       0.03535201      -0.01092291       0.02994884      -0.04274977
Pb       4.07700252       4.05877605       0.02309401       0.00613894      -0.01645946       0.02667705
Pb       8.13089550       0.00448254       0.03742910      -0.02205964      -0.00074387      -0.07305378
Pb       0.03160356      -0.00563521       5.99110929      -0.02759154       0.02496560      -0.07590992
Pb       4.07603480      -4.03945199       5.97246308       0.01736368      -0.03128290       0.02882843
Pb       4.08075896       4.05319861       5.98264874      -0.01721019       0.01647399      -0.04051696
Pb       8.12392910       0.00486159       5.96580383       0.01764863      -0.00812666       0.05413832
Br       2.59092624      -1.48821667       0.03448533      -0.01568460       0.01251892      -0.00576524
Br       1.49353794       2.58288057       0.02367518       0.04316938      -0.01522466      -0.02574282
Br      -0.00622749       0.01669820       3.00720840       0.00408639      -0.00877812      -0.01122816
Br       5.53152667      -6.64325167       0.04354059       0.04868849       0.02312632      -0.05597570
Br       6.65940989      -2.58289978       0.02161306      -0.00025992       0.04134468      -0.00476531
Br       4.06194188      -4.07365359       3.00594076      -0.00045349       0.00414933      -0.01676931
Br       5.54972743       1.47580684       0.01981592       0.01746140       0.03766599      -0.01881054
Br       6.67080414       5.51586524       0.02410893      -0.05048282       0.00674609      -0.00410284
Br       4.03074994       4.04063345       3.00451816       0.01648708       0.00771367      -0.01497835
Br      10.71336377      -1.45817567       0.02594468      -0.02598579      -0.04522449      -0.01138084
Br       9.61459350       2.57539878      -0.00354142      -0.01321227      -0.03951255       0.00266705
Br       8.10066703       0.01751823       3.00316861       0.00768962      -0.00096880      -0.01894517
Br       1.48910719      -2.59144047       5.97236594       0.01963238       0.04317890      -0.02478076
Br       2.60452166       1.47081485       5.97259675      -0.00972359       0.04749726      -0.00741385
Br       0.01332542      -0.00419899       8.95338502       0.00636501       0.00296561      -0.00144270
Br       6.64018546      -5.53936380       5.96505943      -0.00035183      -0.00558864       0.00203262
Br       5.52411121      -1.44821422       5.97342638       0.06024998      -0.01470382      -0.02840340
Br       4.05467621      -4.03675671       8.95016640       0.01006894       0.00028410       0.00043796
Br       6.67188416       2.59749504       5.94446126      -0.04886610      -0.03424244       0.01530813
Br       5.55232104       6.63522719       6.02870966       0.00407688      -0.05207736      -0.06342062
Br       4.03142977       4.05243351       8.94919073       0.01130401      -0.00300380       0.00252564
Br       9.59653064      -2.57957989       5.96609302       0.03048648       0.03352559      -0.02080999
Br      10.70006177       1.49026322       5.98129815      -0.04086354      -0.01486931      -0.02430827
Br       8.09689692      -0.01758996       8.94615414       0.00509828       0.00358168       0.00385550
Cs       4.10755888       0.04779193       2.98334934      -0.02778380      -0.01920992       0.00533879
Cs       8.15129502      -4.05002203       2.95833391      -0.01503281      -0.01498580       0.05755737
Cs       8.14965866       4.02575147       2.98564348       0.01559245       0.01942123      -0.01417043
Cs      12.20028485       0.01117012       2.93948091       0.00219551      -0.00676367       0.12322022
Cs       4.08704941       0.01637517       8.90048882      -0.00833858      -0.01860088       0.08569939
Cs       8.15483649      -4.02724547       8.91349587      -0.02525795      -0.01064656       0.03029352
Cs       8.13393325       4.07779310       8.90058658       0.00665208      -0.01640443       0.05819919
Cs      12.18018018      -0.02191960       8.92325819      -0.01612083       0.03996209       0.04258695
40
Lattice="8.10231951 -8.10231951 0.0 8.10231951 8.10231951 0.0 0.0 0.0 11.89569039" Properties=species:S:1:pos:R:3:forces:R:3 pbc="T T T"
Pb       0.02052619      -0.00047112       0.03813858      -0.00357413       0.01104442      -0.07192738
Pb       4.07986301      -4.04719644       0.01774583      -0.01133632      -0.01698224       0.03305914
Pb       4.07454919       4.05773357       0.02890023      -0.00971126      -0.00557572      -0.03488529
Pb       8.12369631      -0.00070503       0.01013038       0.00684072       0.01347071       0.06113582
Pb       0.02334512       0.00095678       5.96226390       0.00776533      -0.01019563       0.06706465
Pb       4.07741857      -4.04547433       5.97894300      -0.01463354       0.00584985      -0.03976747
Pb       4.07470577       4.05370735       5.96593866      -0.00262674      -0.00335648       0.03030088
Pb       8.12149944       0.00382429       5.98104646      -0.00289985       0.00222649      -0.06690547
Br       2.55650271      -1.51229551       0.02787262       0.02960679       0.00738857       0.00968406
Br       1.53158038       2.54702110       0.01225089      -0.01754835      -0.00878143       0.00572766
Br      -0.00403830       0.01236284       2.99971076       0.00222922      -0.00176091       0.00338031
Br       5.57425213      -6.60369846       0.02022603      -0.01059702       0.00801466      -0.00156630
Br       6.62413636      -2.54202396       0.01700313      -0.00530727      -0.03023671       0.00294033
Br       4.06064030      -4.06980656       2.99661248       0.00268737       0.00105991       0.00492343
Br       5.58083685       1.51458642       0.01174584       0.00193700      -0.01286977      -0.00270046
Br       6.62325630       5.54947643       0.01841619       0.02002941       0.00398084       0.01280904
Br       4.03792039       4.04372878       2.99602814       0.00905306       0.00323580       0.00631159
Br      10.67077908      -1.50283993       0.01772403       0.00491043       0.01661319       0.01373767
Br       9.63590991       2.53712359      -0.00239576       0.01330844       0.02207317      -0.00515398
Br       8.10303672       0.01538169       2.99328932       0.00507591      -0.00052922       0.00682947
Br       1.52286129      -2.54830158       5.96160035       0.00648880      -0.00363789      -0.00578736
Br       2.56691613       1.51337514       5.96641121      -0.00659258      -0.02393721       0.00166835
Br       0.01348346      -0.00306867       8.94888316       0.00511638      -0.00078093      -0.00785313
Br       6.60925320      -5.56755241       5.96297412       0.01076848       0.02588133       0.00683318
Br       5.57005545      -1.48739316       5.96059068      -0.01960687      -0.01720988       0.00450058
Br       4.05695179      -4.03858959       8.94693450       0.00623184       0.00224340      -0.01082803
Br       6.62282896       2.55459464       5.94863586       0.00788212       0.00612099       0.01529245
Br       5.58053528       6.59155144       6.00000946       0.00579745       0.02424035      -0.01876574
Br       4.03712374       4.05172945       8.94652856       0.00789546       0.00047137      -0.01116150
Br       9.63122143      -2.54039598       5.95703497      -0.00899200      -0.00109385       0.00045321
Br      10.65841691       1.51421004       5.96898024       0.03078593       0.00588870       0.00961378
Br       8.09940151      -0.01430470       8.94456589       0.00374358       0.00021609      -0.01329615
Cs       4.10622936       0.04779815       2.99178252      -0.00571566      -0.01516411      -0.00307566
Cs       8.14747608      -4.05976499       2.99126267      -0.00996358       0.00738279      -0.00034069
Cs       8.17531824       4.02690900       2.98426342      -0.00391625      -0.00128299      -0.00416824
Cs      12.21232511       0.01351199       3.00822138      -0.01816190      -0.00373898      -0.00028724
Cs       4.08673740       0.00662476       8.94567612      -0.01774902       0.00219122       0.00275830
Cs       8.15037492      -4.02817148       8.93445191      -0.00289873      -0.01740072       0.00224392
Cs       8.15123437       4.07958008       8.93631092      -0.01474047      -0.00348372      -0.00099463
Cs      12.18388208      -0.01006563       8.94876110      -0.00158220       0.00842449      -0.00180310
40
Lattice="8.10231951 -8.10231951 0.0 8.10231951 8.10231951 0.0 0.0 0.0 11.89569039" Properties=species:S:1:pos:R:3:forces:R:3 pbc="T T T"
Pb       0.02049318       0.00198238       0.01924604       0.00136158      -0.00853029       0.03834968
Pb       4.07748751      -4.05100014       0.02632850       0.00486267       0.00919414      -0.02293356
Pb       4.07209034       4.05643351       0.01961674       0.00373089       0.00076281       0.01738111
Pb       8.12574759       0.00214264       0.02596446      -0.00631295      -0.00984250      -0.03883146
Pb       0.02550951      -0.00090346       5.98003327      -0.01013092       0.00904299      -0.04312466
Pb       4.07436174      -4.04432349       5.96828637       0.00647903      -0.00581491       0.01725225
Pb       4.07404050       4.05262624       5.97381645      -0.00453212       0.00434126      -0.02099519
Pb       8.12074562       0.00476803       5.96301884       0.00033488      -0.00229988       0.03399563
Br       2.56901989      -1.50561858       0.03149692       0.00276210       0.01547238       0.00527114
Br       1.52538404       2.54620892       0.01303299       0.00521794       0.01082304       0.00028197
Br      -0.00293298       0.01166826       3.00052339       0.00326223      -0.00046947      -0.00817353
Br       5.57108134      -6.60251927       0.01661502       0.00288379      -0.00977703       0.00090470
Br       6.62579916      -2.55280117       0.01789670       0.01689149       0.00651814       0.00827365
Br       4.06197319      -4.06958963       2.99739009       0.00074498      -0.00054687      -0.00698263
Br       5.57944152       1.50937345       0.01000548      -0.00366296       0.00254795       0.00197046
Br       6.63076748       5.54778143       0.02267712      -0.00639996      -0.01017303       0.00219119
Br       4.04188873       4.04493956       2.99747737       0.00812125       0.00066049      -0.00852701
Br      10.67436589      -1.49667922       0.02190658       0.00946326       0.00381328       0.01192618
Br       9.63656231       2.54533898      -0.00441509      -0.01598485      -0.00715586       0.00172254
Br       8.10528323       0.01555316       2.99446895       0.00463957       0.00207894      -0.00712494
Br       1.52342154      -2.55002668       5.95819640      -0.00881444       0.00205662      -0.00014742
Br       2.56750130       1.50507838       5.96646392       0.01539541       0.00180433       0.00739183
Br       0.01595246      -0.00347489       8.94645416       0.00475304      -0.00212211       0.00484801
Br       6.61646511      -5.55590404       5.96565091       0.01465905       0.00433800       0.00734171
Br       5.56439940      -1.49102898       5.96053973       0.00846072       0.01335890      -0.00084104
Br       4.05984235      -4.03752053       8.94367840       0.00300529       0.00166260       0.00333412
Br       6.62625947       2.55792417       5.95486808       0.00230199       0.00802290       0.00791114
Br       5.57970210       6.59978242       5.99069661      -0.01353090      -0.00388011      -0.00306800
Br       4.04046936       4.05201337       8.94327857       0.00672747       0.00132202       0.00554873
Br       9.62695918      -2.54193064       5.95604351       0.00112698      -0.00303554       0.00088759
Br      10.66982361       1.51191038       5.97142741      -0.00513199      -0.01772810       0.00269948
Br       8.10121509      -0.01431320       8.94075354       0.00521982       0.00138580       0.00404213
Cs       4.10146975       0.04048040       2.99097093      -0.01488660      -0.00880284      -0.00033533
Cs       8.14309205      -4.05719292       2.99329419      -0.00571756      -0.00592235      -0.00006997
Cs       8.17151146       4.02836881       2.98236664      -0.00876072       0.01083634       0.00103056
Cs      12.20410945       0.01097439       3.01195273      -0.00074503      -0.00522794      -0.00526100
Cs       4.07965632       0.00696084       8.94970816      -0.00237324      -0.00824731      -0.00437458
Cs       8.14739962      -4.03535758       8.93624126      -0.01136450      -0.00150277      -0.00198374
Cs       8.14379202       4.07635129       8.93774024      -0.00429125      -0.01052646      -0.00441848
Cs      12.18089172      -0.00480858       8.94975820      -0.00976544       0.01156245      -0.00736326
40
Lattice="8.10231951 -8.10231951 0.0 8.10231951 8.10231951 0.0 0.0 0.0 11.89569039" Properties=species:S:1:pos:R:3:forces:R:3 pbc="T T T"
Pb       0.02135715       0.00023167       0.02536722       0.00220126      -0.00351500      -0.00048946
Pb       4.07903638      -4.04966622       0.02265249      -0.00361475       0.00247042      -0.00343811
Pb       4.07292652       4.05647744       0.02241804       0.00065893      -0.00034305      -0.00067133
Pb       8.12540215       0.00004562       0.01974990      -0.00044425       0.00064753      -0.00306795
Pb       0.02394230       0.00119270       5.97330141      -0.00303642       0.00189892      -0.00365143
Pb       4.07580197      -4.04535242       5.97048691      -0.00104194      -0.00296689      -0.00132446
Pb       4.07308218       4.05356074       5.97053327      -0.00013318       0.00019410      -0.00239897
Pb       8.12092117       0.00470882       5.96786779       0.00010045       0.00246053      -0.00058499
Br       2.58344946      -1.49034619       0.03615555      -0.00240498      -0.00366662       0.00064037
Br       1.51798504       2.55655110       0.01397339       0.00334021      -0.00483037       0.00127365
Br      -0.00141899       0.01148294       2.99891147       0.00324146       0.00068107       0.00168962
Br       5.56382723      -6.61280475       0.01633825       0.00516833       0.00610332      -0.00014215
Br       6.64033937      -2.56285231       0.02226783      -0.00460203       0.00181393       0.00170311
Br       4.06300134      -4.07033718       2.99608807       0.00190406      -0.00027178      -0.00070101
Br       5.57152724       1.50115889       0.01038623       0.00338172       0.00479766       0.00089660
Br       6.64005033       5.53637857       0.02636384      -0.00532226       0.00580172      -0.00105574
Br       4.04627882       4.04563022       2.99591890       0.00717494      -0.00050189       0.00126341
Br      10.68731469      -1.48512480       0.02934117      -0.00196959      -0.00378644       0.00201771
Br       9.62551258       2.55346962      -0.00450904       0.00478306      -0.00264126      -0.00035411
Br       8.10813452       0.01689622       2.99319677       0.00354801       0.00174260      -0.00035884
Br       1.51421369      -2.55733311       5.95728355       0.00657006       0.00505809      -0.00043384
Br       2.58091027       1.49471047       5.97036847      -0.00358201       0.00369941       0.00049094
Br       0.01933842      -0.00441251       8.94801699       0.00359310      -0.00234827      -0.00577644
Br       6.63239503      -5.54208351       5.97034609      -0.00327511       0.00010251       0.00193566
Br       5.55768527      -1.48042556       5.96087697       0.00516409      -0.00675469      -0.00049810
Br       4.06245614      -4.03600362       8.94425294       0.00338184       0.00173623      -0.00303244
Br       6.63672159       2.56970913       5.96080685      -0.00470251      -0.00493078       0.00221920
Br       5.56845808       6.60931108       5.98727498       0.00170423      -0.00269895      -0.00412500
Br       4.04395394       4.05247367       8.94463462       0.00583121       0.00281298      -0.00388421
Br       9.61914275      -2.55042947       5.95640568       0.00283143       0.00497255       0.00093222
Br      10.68095510       1.49804897       5.97433755      -0.00417255       0.00429029      -0.00042128
Br       8.10379307      -0.01423501       8.94121948       0.00510471      -0.00011067      -0.00198545
Cs       4.09161937       0.03243858       2.98906895      -0.00517219      -0.00425044       0.00326437
Cs       8.13872709      -4.05740080       2.99075385      -0.00302238      -0.00168659       0.00297973
Cs       8.16148305       4.03472171       2.98110371      -0.00453706       0.00126572       0.00346023
Cs      12.19784654       0.00663896       3.00492666      -0.00366585      -0.00114337       0.00112414
Cs       4.07538160       0.00461131       8.94566982      -0.00384300      -0.00361894       0.00214622
Cs       8.14057618      -4.03939328       8.93373031      -0.00307774      -0.00251840       0.00487324
Cs       8.13541617       4.06900475       8.93260718      -0.00435423      -0.00298282       0.00381635
Cs      12.17349836       0.00241558       8.94497565      -0.00370905       0.00301764       0.00166851
40
Lattice="8.10231951 -8.10231951 0.0 8.10231951 8.10231951 0.0 0.0 0.0 11.89569039" Properties=species:S:1:pos:R:3:forces:R:3 pbc="T T T"
Pb       0.02166467      -0.00106038       0.02488854      -0.00131001       0.00235203      -0.00461363
Pb       4.07771868      -4.04892394       0.02079799       0.00116874      -0.00187880       0.00089465
Pb       4.07278442       4.05647496       0.02186593      -0.00166215      -0.00088424      -0.00242981
Pb       8.12506793      -0.00013851       0.01804350      -0.00013862      -0.00054323       0.00232865
Pb       0.02253376       0.00195577       5.97120818      -0.00029339       0.00004416       0.00195821
Pb       4.07508224      -4.04632543       5.96955493      -0.00020823       0.00092615      -0.00327249
Pb       4.07267299       4.05351175       5.96912523      -0.00210709       0.00103906       0.00076870
Pb       8.12039659       0.00557898       5.96741056      -0.00039898      -0.00205192      -0.00375802
Br       2.58068695      -1.49330483       0.03655211      -0.00120012       0.00015489       0.00079330
Br       1.52109814       2.55254821       0.01464194       0.00188879      -0.00164241       0.00150489
Br       0.00020600       0.01167578       2.99883318       0.00290443       0.00062840      -0.00459666
Br       5.56789657      -6.60819245       0.01640049       0.00385928       0.00203177      -0.00017969
Br       6.63641537      -2.56019613       0.02325531      -0.00004296       0.00223447       0.00137699
Br       4.06382304      -4.07028346       2.99524034       0.00134384      -0.00035278      -0.00248305
Br       5.57480022       1.50499743       0.01083364       0.00148812      -0.00003375       0.00050824
Br       6.63550095       5.54075023       0.02595035      -0.00146028       0.00132646       0.00023188
Br       4.04992784       4.04548623       2.99581157       0.00621387      -0.00074700      -0.00301016
Br      10.68446306      -1.48830351       0.03081010      -0.00095520      -0.00022147       0.00086084
Br       9.62897870       2.55034298      -0.00469339      -0.00059923      -0.00159828       0.00001126
Br       8.10988838       0.01758516       2.99258137       0.00300922       0.00202270      -0.00202148
Br       1.51859269      -2.55291634       5.95697818       0.00086966       0.00338724       0.00046020
Br       2.57736230       1.49784636       5.97072487      -0.00151703       0.00093938       0.00044549
Br       0.02098696      -0.00556177       8.94551954       0.00308279      -0.00217371       0.00228307
Br       6.62944482      -5.54355990       5.97142527       0.00070468      -0.00031750       0.00193011
Br       5.56177623      -1.48550371       5.96068058       0.00265425      -0.00208535       0.00008318
Br       4.06399915      -4.03529294       8.94266174       0.00257084       0.00159388       0.00028504
Br       6.63258115       2.56594186       5.96224915      -0.00145687      -0.00040862       0.00183809
Br       5.57067306       6.60649334       5.98491345      -0.00019556       0.00071730      -0.00223191
Br       4.04700851       4.05381045       8.94286942       0.00486979       0.00261072       0.00204587
Br       9.62208605      -2.54641959       5.95686077       0.00094059       0.00089599       0.00112879
Br      10.67727570       1.50141308       5.97436186      -0.00171056       0.00064562      -0.00008861
Br       8.10632881      -0.01406922       8.94007170       0.00441901      -0.00012822       0.00106187
Cs       4.08945398       0.03057549       2.99085324      -0.00333049      -0.00359238       0.00254639
Cs       8.13718047      -4.05853195       2.99269424      -0.00250249      -0.00039695       0.00118520
Cs       8.16062238       4.03515467       2.98294448      -0.00484296       0.00033426       0.00207355
Cs      12.19679131       0.00627018       3.00640930      -0.00413307      -0.00011671      -0.00184278
Cs       4.07352309       0.00257144       8.94710079      -0.00298903      -0.00240185      -0.00116534
Cs       8.13919379      -4.04060503       8.93637041      -0.00186806      -0.00188408       0.00222998
Cs       8.13425570       4.06788779       8.93487652      -0.00440280      -0.00170923      -0.00000941
Cs      12.17230048       0.00398497       8.94579240      -0.00266275       0.00128406       0.00086860
40
Lattice="8.10231951 -8.10231951 0.0 8.10231951 8.10231951 0.0 0.0 0.0 11.89569039" Properties=species:S:1:pos:R:3:forces:R:3 pbc="T T T"
Pb       0.02102900      -0.00058192       0.02212498       0.00345072      -0.00523456       0.00161954
Pb       4.07781437      -4.04951301       0.01958774      -0.00459583       0.00326937      -0.00145117
Pb       4.07163875       4.05593822       0.02013371       0.00473127       0.00005534       0.00136431
Pb       8.12467849      -0.00098164       0.01758959       0.00043377       0.00377335      -0.00097929
Pb       0.02117042       0.00277377       5.97012656      -0.00048471      -0.00081948      -0.00165917
Pb       4.07456651      -4.04644463       5.96689632      -0.00157562      -0.00233643       0.00188517
Pb       4.07085100       4.05422185       5.96819326       0.00450846      -0.00051428      -0.00048148
Pb       8.11964994       0.00480316       5.96513655       0.00148881       0.00461583       0.00240625
Br       2.57894512      -1.49405535       0.03786906       0.00278140      -0.00391752      -0.00005774
Br       1.52433532       2.54910203       0.01619305      -0.00295151       0.00182821       0.00078660
Br       0.00361077       0.01218088       2.99514883       0.00196448       0.00145371       0.00829223
Br       5.57320841      -6.60396935       0.01603884      -0.00440111       0.00211050      -0.00043325
Br       6.63451895      -2.55728572       0.02535553      -0.00250383      -0.00523911       0.00115440
Br       4.06543030      -4.07051101       2.99260831       0.00156513      -0.00052640       0.00423065
Br       5.57772797       1.50732973       0.01145108      -0.00292838      -0.00309231       0.00000557
Br       6.63160393       5.54396704       0.02623584       0.00179992       0.00025108       0.00017891
Br       4.05746485       4.04494653       2.99325231       0.00343528      -0.00081331       0.00712567
Br      10.68250237      -1.49004973       0.03318396       0.00134619       0.00064046      -0.00116322
Br       9.63014137       2.54738616      -0.00482712       0.00297758       0.00504713       0.00111101
Br       8.11357693       0.01963180       2.99045939       0.00210819       0.00106526       0.00588872
Br       1.52174253      -2.54763699       5.95688911       0.00139263      -0.00248226       0.00121164
Br       2.57461270       1.50015579       5.97163262      -0.00078504      -0.00077129       0.00059168
Br       0.02467394      -0.00802464       8.94554782       0.00188675      -0.00088510      -0.00860585
Br       6.62907219      -5.54376525       5.97406792      -0.00188591       0.00219131       0.00116832
Br       5.56634156      -1.49002667       5.96052483      -0.00348282      -0.00147358      -0.00022370
Br       4.06716770      -4.03353699       8.94174352       0.00214261       0.00103829      -0.00433678
Br       6.62909281       2.56372269       5.96531650       0.00035775      -0.00073386       0.00026565
Br       5.57129346       6.60544695       5.98101376      -0.00104547       0.00335561       0.00075650
Br       4.05307401       4.05666264       8.94318990       0.00232832       0.00218505      -0.00663744
Br       9.62443437      -2.54335786       5.95792812      -0.00316798      -0.00272937       0.00075256
Br      10.67412246       1.50313214       5.97457709       0.00253780       0.00284895      -0.00082501
Br       8.11156201      -0.01396624       8.93997818       0.00314777      -0.00098519      -0.00533987
Cs       4.08462212       0.02587890       2.99382791      -0.00176509      -0.00069931      -0.00189192
Cs       8.13380664      -4.05969231       2.99500725      -0.00063166      -0.00048532      -0.00179866
Cs       8.15592309       4.03631654       2.98555718      -0.00508817      -0.00017188      -0.00155368
Cs      12.19259128       0.00555791       3.00612129      -0.00270861       0.00056861      -0.00407940
Cs       4.06963487      -0.00089580       8.94722450      -0.00053719      -0.00141882      -0.00044793
Cs       8.13619032      -4.04324871       8.93969029      -0.00058875       0.00060897       0.00113203
Cs       8.12967915       4.06522402       8.93617785      -0.00296785      -0.00067778      -0.00027462
Cs      12.16894115       0.00683306       8.94669632      -0.00228926      -0.00089988       0.00031278
40
Lattice="8.10231951 -8.10231951 0.0 8.10231951 8.10231951 0.0 0.0 0.0 11.89569039" Properties=species:S:1:pos:R:3:forces:R:3 pbc="T T T"
Pb       0.02211052      -0.00223463       0.02136729      -0.00038414       0.00352390      -0.00065490
Pb       4.07638632      -4.04859622       0.01811747       0.00300809      -0.00114994       0.00190742
Pb       4.07280025       4.05554162       0.01978074      -0.00095672      -0.00028770       0.00031921
Pb       8.12465037      -0.00021627       0.01666606       0.00069979      -0.00119621       0.00260421
Pb       0.02009039       0.00316887       5.96851091       0.00110907       0.00036114       0.00213220
Pb       4.07387218      -4.04743876       5.96609256       0.00160043       0.00154153       0.00010028
Pb       4.07133341       4.05464512       5.96732244      -0.00082304       0.00084057       0.00178832
Pb       8.11988986       0.00594184       5.96492810       0.00053990      -0.00281512       0.00000781
Br       2.58071127      -1.49415887       0.03907274      -0.00286704       0.00135264      -0.00129009
Br       1.52408182       2.54917875       0.01757830      -0.00007324       0.00127460       0.00016088
Br       0.00681762       0.01317725       2.99600534       0.00140394       0.00087174      -0.00434749
Br       5.57391374      -6.60192366       0.01541003       0.00119075      -0.00332768      -0.00093107
Br       6.63435499      -2.55882704       0.02753112       0.00163075       0.00297408      -0.00008716
Br       4.06729881      -4.07101476       2.99256181       0.00074339      -0.00033331      -0.00201754
Br       5.57709190       1.50611142       0.01182445      -0.00327475      -0.00293507      -0.00086157
Br       6.63138124       5.54454209       0.02682180       0.00185001      -0.00103287      -0.00026106
Br       4.06423773       4.04427086       2.99440018       0.00237939      -0.00078934      -0.00344766
Br      10.68348694      -1.48943502       0.03463023      -0.00044987      -0.00182907      -0.00296997
Br       9.63049076       2.54879716      -0.00442387      -0.00391273       0.00043032       0.00085012
Br       8.11716227       0.02160513       2.99140477       0.00134025       0.00123681      -0.00346324
Br       1.52301281      -2.54639588       5.95727665      -0.00281308      -0.00250094       0.00078434
Br       2.57426480       1.50003652       5.97275033       0.00094516       0.00165706      -0.00027336
Br       0.02824499      -0.01008554       8.94239203       0.00118592      -0.00087365       0.00536907
Br       6.63008781      -5.54135275       5.97666768      -0.00057450      -0.00176609      -0.00011942
Br       5.56689682      -1.49194002       5.96029441      -0.00015236       0.00343362      -0.00045438
Br       4.07046118      -4.03175650       8.93958844       0.00062591       0.00073295       0.00339004
Br       6.62849810       2.56350565       5.96785701       0.00092143      -0.00020155      -0.00108533
Br       5.56973930       6.60761174       5.97851550      -0.00263254       0.00174275       0.00136872
Br       4.05828763       4.05953656       8.94100596       0.00165056       0.00148203       0.00475513
Br       9.62340937      -2.54389813       5.95894441      -0.00178345      -0.00264650       0.00001248
Br      10.67464865       1.50361391       5.97449000      -0.00047268      -0.00135321      -0.00105559
Br       8.11657443      -0.01440857       8.93799243       0.00189397      -0.00025236       0.00506509
Cs       4.07971903       0.02171337       2.99466888       0.00048347       0.00091704       0.00045733
Cs       8.13095571      -4.06054758       2.99539277      -0.00007829      -0.00018467       0.00008717
Cs       8.14928356       4.03760315       2.98632530      -0.00275854      -0.00125030       0.00046966
Cs      12.18780819       0.00491346       3.00337861      -0.00121647       0.00233830      -0.00190820
Cs       4.06646390      -0.00387799       8.94675947       0.00037017      -0.00071452      -0.00289787
Cs       8.13333817      -4.04508802       8.94208080       0.00082132       0.00155314      -0.00088267
Cs       8.12430164       4.06244497       8.93637784      -0.00095145       0.00163286      -0.00180664
Cs      12.16488468       0.00890479       8.94710878      -0.00021878      -0.00245700      -0.00081427
40
Lattice="8.10231951 -8.10231951 0.0 8.10231951 8.10231951 0.0 0.0 0.0 11.89569039" Properties=species:S:1:pos:R:3:forces:R:3 pbc="T T T"
Pb       0.02270048      -0.00186284       0.02138611      -0.00189236       0.00266316       0.00011267
Pb       4.07666069      -4.04840162       0.01848110       0.00200498      -0.00249225       0.00122103
Pb       4.07326423       4.05537662       0.02012605       0.00037831      -0.00118523       0.00028004
Pb       8.12500163      -0.00003442       0.01739451      -0.00040424       0.00040908       0.00085988
Pb       0.02028905       0.00332721       5.96892978       0.00082865      -0.00152894       0.00096882
Pb       4.07424822      -4.04737287       5.96637427      -0.00021864       0.00214024       0.00019023
Pb       4.07171729       4.05496108       5.96785567      -0.00079015       0.00154163       0.00090629
Pb       8.12042695       0.00567522       5.96528516       0.00054105      -0.00266647       0.00058465
Br       2.58048564      -1.49389771       0.03862669      -0.00050396      -0.00032959      -0.00108478
Br       1.52336922       2.55023410       0.01783832       0.00109507       0.00177039      -0.00010701
Br       0.00792249       0.01381697       2.99576445       0.00117096       0.00085001      -0.00134458
Br       5.57354493      -6.60310647       0.01487180      -0.00026049      -0.00075267      -0.00110309
Br       6.63496817      -2.55884646       0.02782705       0.00074330       0.00256483       0.00004876
Br       4.06800973      -4.07129419       2.99244781       0.00090642      -0.00021203      -0.00003239
Br       5.57502952       1.50417563       0.01147916      -0.00078739      -0.00307484      -0.00097794
Br       6.63268860       5.54400543       0.02675616      -0.00006176      -0.00081201      -0.00024748
Br       4.06627391       4.04380544       2.99429665       0.00196312      -0.00044453      -0.00076361
Br      10.68394327      -1.48984191       0.03339201      -0.00204304      -0.00086966      -0.00186291
Br       9.62920274       2.55018437      -0.00391930      -0.00226231       0.00019724       0.00062397
Br       8.11833360       0.02243604       2.99097911       0.00131078       0.00076447       0.00127523
Br       1.52201083      -2.54803027       5.95772303      -0.00315909       0.00014370       0.00010236
Br       2.57489265       1.50033099       5.97281701      -0.00078062       0.00095489      -0.00022750
Br       0.02934810      -0.01073076       8.94291582       0.00111225      -0.00051817       0.00229402
Br       6.62998667      -5.54117916       5.97697885       0.00089773      -0.00300547      -0.00003459
Br       5.56613548      -1.49060918       5.96002866       0.00056248       0.00206690      -0.00070077
Br       4.07134292      -4.03112726       8.94017754       0.00063844       0.00065560       0.00120729
Br       6.62918076       2.56348059       5.96765182      -0.00075212      -0.00044043      -0.00048481
Br       5.56812710       6.60925601       5.97886607      -0.00042400       0.00183056       0.00018358
Br       4.05973263       4.06066135       8.94171990       0.00144137       0.00111217       0.00188536
Br       9.62189718      -2.54562022       5.95910170      -0.00011224      -0.00210978      -0.00036050
Br      10.67520346       1.50323190       5.97390733      -0.00058009      -0.00076900      -0.00065733
Br       8.11819595      -0.01470564       8.93917837       0.00153428      -0.00021309       0.00008388
Cs       4.07907060       0.02152895       2.99467993       0.00011435       0.00093228      -0.00007157
Cs       8.13054384      -4.06075501       2.99523048      -0.00031341      -0.00062627       0.00011783
Cs       8.14665343       4.03727952       2.98642357      -0.00168305      -0.00086850       0.00033870
Cs      12.18639384       0.00581057       3.00181020      -0.00056979       0.00208443      -0.00115581
Cs       4.06618201      -0.00461806       8.94549881       0.00015591      -0.00088576      -0.00137403
Cs       8.13324605      -4.04459734       8.94208739       0.00052572       0.00133627       0.00003412
Cs       8.12284948       4.06265744       8.93566846      -0.00027696       0.00150246      -0.00039427
Cs      12.16396982       0.00806396       8.94681225      -0.00004947      -0.00171560      -0.00033372
