0 101001000011101011110000 -7508092.791504886 -7508093.16090373 102 1
1 101001001010101011110000 -7508092.794072765 -7508093.150979125 98 0
2 101001001011101011100000 -7508092.814945534 -7508093.21534118 91 1
3 101001001011101010100100 -7508092.788790965 -7508093.141987578 91 0
4 101101001011100011100000 -7508092.794484886 -7508093.165453641 96 0
5 101001001011101111000000 -7508092.812061418 -7508093.188968582 84 0
6 001001001011101011100100 -7508092.8082201965 -7508093.175989194 183 0
7 101001001111001011100000 -7508092.812369887 -7508093.181023476 92 0
8 101001001110101011100000 -7508092.792989461 -7508093.138588043 98 0
9 110001001011101011100000 -7508092.794447922 -7508093.184500559 92 0
10 101000001011101011110000 -7508092.794388969 -7508093.189994881 114 0
11 001001001111101011100000 -7508092.812941242 -7508093.188034536 98 0
12 100001011011101011100000 -7508092.7947586095 -7508093.181250153 100 0
13 100001001111101011100000 -7508092.796515515 -7508093.192366708 147 0
14 101001101011101011000000 -7508092.814559434 -7508093.217090074 97 1
15 101000101011101011100000 -7508092.79490568 -7508093.210761128 104 0
16 100001101011101011001000 -7508092.811243009 -7508093.193609688 94 0
17 100001101011101011000001 -7508092.814241198 -7508093.208168623 89 0
18 001001101011101011100000 -7508092.813615083 -7508093.199366311 97 0
19 101100101011101011000000 -7508092.790823599 -7508093.163794253 118 0
20 101001101011100011000010 -7508092.792481316 -7508093.172001245 97 0
21 101001101010101011010000 -7508092.793246387 -7508093.142797614 100 0
22 101001101011101001000010 -7508092.81310388 -7508093.217422845 88 1
23 101001101011101001001000 -7508092.830757417 -7508093.240356334 94 1
24 101011001011101001001000 -7508092.825708633 -7508093.252591177 143 1
25 101011001011101100001000 -7508092.802209749 -7508093.173644252 140 0
26 101011001011100001001001 -7508092.825595707 -7508093.225779779 178 0
27 001011001011101001001100 -7508092.822059905 -7508093.255280842 131 1
28 001011001011101001001001 -7508092.84182704 -7508093.304968002 131 1
29 001011101011001001001001 -7508092.844058077 -7508093.302969897 161 1
30 001011101001001001001011 -7508092.84699656 -7508093.277954282 79 0
31 000011111011001001001001 -7508092.827166295 -7508093.214015983 88 0
32 001011111011000001001001 -7508092.829517854 -7508093.226418152 168 0
33 001011001011001001001011 -7508092.84246105 -7508093.290083027 162 0
34 000011101011001101001001 -7508092.825713657 -7508093.232210284 154 0
35 001011101010011001001001 -7508092.82417199 -7508093.210824208 156 0
36 001011100011101001001001 -7508092.827788322 -7508093.231046394 143 0
37 101011101011000001001001 -7508092.829590946 -7508093.222885203 152 0
38 001011101011001101000001 -7508092.827962968 -7508093.2358221235 151 0
39 001011101011001000011001 -7508092.8271425925 -7508093.222206098 161 0
40 001011101011000001001011 -7508092.829074358 -7508093.217923783 87 0
41 101011101011001001001000 -7508092.8266839 -7508093.244651075 165 0
42 101011100011001001001001 -7508092.829557673 -7508093.230899577 196 0
43 001011101011000001001011 -7508092.829074358 -7508093.217923783 87 0
44 001011100011001001011001 -7508092.826990241 -7508093.19957174 203 0
45 000011101011001001011001 -7508092.825684914 -7508093.192298245 77 0
46 001011100111001001001001 -7508092.824129064 -7508093.277599537 174 0
47 001011111001001001001001 -7508092.8482837025 -7508093.283996188 88 0
48 001011111001001001001001 -7508092.8482837025 -7508093.283996188 88 0
49 001101101011001001001001 -7508092.847791574 -7508093.278489478 98 0
50 001011101011001011000001 -7508092.830697408 -7508093.206377675 91 0
51 001010111011001001001001 -7508092.826761179 -7508093.226330113 188 0
52 000011101011001101001001 -7508092.825713657 -7508093.232210284 154 0
53 001011100011001001101001 -7508092.827613543 -7508093.22753072 163 0
54 001011101011101000001001 -7508092.82416326 -7508093.24588791 154 0
55 001011101001101001001001 -7508092.846996557 -7508093.275495518 75 0
56 001011100011001001101001 -7508092.827613543 -7508093.22753072 163 0
57 001101101011001001001001 -7508092.847791574 -7508093.278489478 98 0
58 001011101011001000011001 -7508092.8271425925 -7508093.222206098 161 0
59 001011101010101001001001 -7508092.826181866 -7508093.239079337 134 0
60 011011001011001001001001 -7508092.842663724 -7508093.291502235 162 0
61 001011101011001000011001 -7508092.8271425925 -7508093.222206098 161 0
62 000011101011011001001001 -7508092.825862284 -7508093.192561688 79 0
63 011011101010001001001001 -7508092.825695585 -7508093.22191907 188 0
64 000011101011001011001001 -7508092.826913161 -7508093.216570107 86 0
65 001010111011001001001001 -7508092.826761179 -7508093.226330113 188 0
66 001011101001001011001001 -7508092.847643865 -7508093.284959603 77 0
67 001011101011010001001001 -7508092.827788357 -7508093.220384367 213 0
68 000011101111001001001001 -7508092.82463921 -7508093.249091742 188 0
69 001011101011000001011001 -7508092.827962964 -7508093.222739625 179 0
70 001011101111000001001001 -7508092.8246391835 -7508093.249091653 188 0
71 001011101010011001001001 -7508092.82417199 -7508093.210824208 156 0
72 001011101011011001001000 -7508092.8242897 -7508093.229114959 181 0
73 011001101011001001001001 -7508092.8477917025 -7508093.278489465 98 0
74 000011101011001001011001 -7508092.825684914 -7508093.192298245 77 0
75 001011101011000101001001 -7508092.82795289 -7508093.236586811 144 0
76 000011101011001001011001 -7508092.825684914 -7508093.192298245 77 0
77 001011101011001001000101 -7508092.827125957 -7508093.235510072 164 0
78 001011101001001011001001 -7508092.847643865 -7508093.284959603 77 0
79 001011101101001001001001 -7508092.844058075 -7508093.292358119 152 0
80 001011001011001011001001 -7508092.84246102 -7508093.2900828235 162 0
81 001001101011001001011001 -7508092.84677267 -7508093.272524197 75 0
82 001011001011001001001011 -7508092.84246105 -7508093.290083027 162 0
83 101011101011001000001001 -7508092.8265332235 -7508093.23531326 176 0
84 001011101001001001001101 -7508092.846996557 -7508093.277933483 81 0
85 001111101011001001001000 -7508092.828010274 -7508093.241074694 153 0
86 001011001011001001011001 -7508092.84182704 -7508093.288709648 144 0
87 001011101001001001101001 -7508092.847643865 -7508093.285709914 78 0
88 101010101011001001001001 -7508092.826712751 -7508093.2350359615 176 0
89 001011100011001011001001 -7508092.82841635 -7508093.20249859 90 0
90 001011101011000001001101 -7508092.828470196 -7508093.250473433 153 0
91 001011101111001000001001 -7508092.821985519 -7508093.25285737 187 0
92 000011101011101001001001 -7508092.825852041 -7508093.229786781 150 0
93 001011101010001101001001 -7508092.824172027 -7508093.239726131 131 0
94 001011101011001011000001 -7508092.830697408 -7508093.206377675 91 0
95 001111101010001001001001 -7508092.825772831 -7508093.228140978 144 0
96 000011101111001001001001 -7508092.82463921 -7508093.249091742 188 0
97 001011101011001001010001 -7508092.827277239 -7508093.204566695 184 0
98 001011100011001001101001 -7508092.827613543 -7508093.22753072 163 0
99 001011101001001101001001 -7508092.846996557 -7508093.272655464 78 0
100 001011100011001001001011 -7508092.830523078 -7508093.201945 87 0
101 001011101011001000001101 -7508092.825087148 -7508093.250602911 150 0
102 001010111011001001001001 -7508092.826761179 -7508093.226330113 188 0
103 101011001011001001001001 -7508092.844058072 -7508093.292358224 152 0
104 001011101001001101001001 -7508092.846996557 -7508093.272655464 78 0
105 001011100011001001001011 -7508092.830523078 -7508093.201945 87 0
106 001010111011001001001001 -7508092.826761179 -7508093.226330113 188 0
107 001011001011001001001011 -7508092.84246105 -7508093.290083027 162 0
108 011001101011001001001001 -7508092.8477917025 -7508093.278489465 98 0
109 101011001011001001001001 -7508092.844058072 -7508093.292358224 152 0
110 001011101011010001001001 -7508092.827788357 -7508093.220384367 213 0
111 001011110011001001001001 -7508092.828709278 -7508093.192898931 89 0
112 000011111011001001001001 -7508092.827166295 -7508093.214015983 88 0
113 001011101011001000011001 -7508092.8271425925 -7508093.222206098 161 0
114 001011001011101001001001 -7508092.84182704 -7508093.304968002 131 1
115 001010001011101011001001 -7508092.822728866 -7508093.213077559 145 0
116 101011001011001001001001 -7508092.844058072 -7508093.292358224 152 0
117 001011001001101011001001 -7508092.847416887 -7508093.283894608 80 0
118 001011001111101001001000 -7508092.824172001 -7508093.23972612 131 0
119 001011001011001001011001 -7508092.84182704 -7508093.288709648 144 0
120 011001001011101001001001 -7508092.845625398 -7508093.271288178 81 0
121 001011001111100001001001 -7508092.825713632 -7508093.232210156 154 0
122 001011001010101001011001 -7508092.826068036 -7508093.237718054 159 0
123 001011101011101000001001 -7508092.82416326 -7508093.24588791 154 0
124 001011001011111001000001 -7508092.827195616 -7508093.214429938 147 0
125 001011101011101001000001 -7508092.827962968 -7508093.240633435 149 0
126 001011001001101001011001 -7508092.846772684 -7508093.269218992 78 0
127 000011001011111001001001 -7508092.824479739 -7508093.217292471 133 0
128 001011001011101011000001 -7508092.830418273 -7508093.218628634 138 0
129 001011001011111000001001 -7508092.823295926 -7508093.21732885 133 0
130 001011001011100011001001 -7508092.825468042 -7508093.201040612 80 0
131 001011001011111001001000 -7508092.824339105 -7508093.226503724 128 0
132 001011001011111001000001 -7508092.827195616 -7508093.214429938 147 0
133 001011001011100011001001 -7508092.825468042 -7508093.201040612 80 0
134 001001011011101001001001 -7508092.846492814 -7508093.278862117 81 0
135 001011001011001101001001 -7508092.841827044 -7508093.304967996 131 1
136 101011000011001101001001 -7508092.828470192 -7508093.233838299 145 0
137 001011001011001100001011 -7508092.8227289 -7508093.2130775545 145 0
138 001010001011001101001101 -7508092.822954499 -7508093.255314037 140 0
139 001011001010101101001001 -7508092.821117491 -7508093.263779522 183 0
140 001111001011001100001001 -7508092.824074387 -7508093.240695251 143 0
141 001011001011000101101001 -7508092.826248568 -7508093.231391605 142 0
142 001011011011001101000001 -7508092.82711184 -7508093.21437058 170 0
143 001011001011001011001001 -7508092.84246102 -7508093.2900828235 162 0
144 001011101011001100001001 -7508092.824313954 -7508093.24051969 143 0
145 001011001011001100101001 -7508092.822178445 -7508093.2465763 162 0
146 001111000011001101001001 -7508092.829074327 -7508093.243300229 168 0
147 001011000011001101001101 -7508092.827120653 -7508093.25384665 131 0
148 001011001011011101001000 -7508092.826067974 -7508093.237718053 159 0
149 001011001011001111000001 -7508092.830744665 -7508093.204562907 87 0
150 001011001011000101001011 -7508092.825598942 -7508093.218450445 121 0
151 001111001011000101001001 -7508092.825855046 -7508093.228670993 153 0
152 011011001001001101001001 -7508092.846492819 -7508093.278862124 81 0
153 011001001011001101001001 -7508092.84562553 -7508093.269061778 80 0
154 001011101011001100001001 -7508092.824313954 -7508093.24051969 143 0
155 001001001011001101011001 -7508092.84699656 -7508093.276502044 75 0
156 001010001011001111001001 -7508092.822841352 -7508093.214852068 160 0
157 000111001011001101001001 -7508092.825595733 -7508093.225779893 178 0
158 001011001011000111001001 -7508092.825909514 -7508093.202166211 84 0
159 000011001011001101001011 -7508092.825468031 -7508093.201040611 80 0
160 001011001111001101001000 -7508092.826181839 -7508093.239079343 134 0
161 001010001011001101011001 -7508092.8232959015 -7508093.217328892 133 0
162 001011001011101101000001 -7508092.822844664 -7508093.246530955 170 0
163 000011001011001101001101 -7508092.826993896 -7508093.238441367 143 0
164 001011100011001101001001 -7508092.827788327 -7508093.235193683 154 0
165 001011011011001001001001 -7508092.842663694 -7508093.291502274 162 0
166 000011001011001111001001 -7508092.825780522 -7508093.204363273 82 0
167 001010001011011101001001 -7508092.825001238 -7508093.214795086 146 0
168 001011001001001111001001 -7508092.847643865 -7508093.285709853 78 0
169 001010001111001101001001 -7508092.824163256 -7508093.245887678 154 0
170 001011000011001101001101 -7508092.827120653 -7508093.25384665 131 0
171 001011001011011101000001 -7508092.826892385 -7508093.214283617 169 0
172 001111001011001001001001 -7508092.844058077 -7508093.292358109 152 0
173 001011001010001101001101 -7508092.823062159 -7508093.255060071 141 0
174 001011001010001101011001 -7508092.824339111 -7508093.22650387 128 0
175 001010001011011101001001 -7508092.825001238 -7508093.214795086 146 0
176 101011000011001101001001 -7508092.828470192 -7508093.233838299 145 0
177 001010101011001101001001 -7508092.82416326 -7508093.236584466 142 0
178 001011011011000101001001 -7508092.824206917 -7508093.21530267 174 0
179 001111001011001001001001 -7508092.844058077 -7508093.292358109 152 0
180 001011001011001101000011 -7508092.828309824 -7508093.21858682 118 0
181 001011101011001101001000 -7508092.826297388 -7508093.245764403 150 0
182 001011001001001101001011 -7508092.84677267 -7508093.275742258 79 0
183 001111001010001101001001 -7508092.825708659 -7508093.252591244 143 0
184 001111001011001101001000 -7508092.829836949 -7508093.252181075 128 0
185 001011010011001101001001 -7508092.826993865 -7508093.2139785895 174 0
186 001001001011001101001101 -7508092.846492819 -7508093.27886212 81 0
187 000011001011001101011001 -7508092.824212985 -7508093.177456548 75 0
188 001011001010001101011001 -7508092.824339111 -7508093.22650387 128 0
189 011011001011001100001001 -7508092.823082754 -7508093.21385808 197 0
190 010011001011001101001001 -7508092.824097502 -7508093.217291834 182 0
191 001111001011001001001001 -7508092.844058077 -7508093.292358109 152 0
192 001011001001001101101001 -7508092.845625401 -7508093.27128811 81 0
193 001110001011001101001001 -7508092.823794169 -7508093.228816941 142 0
194 101011001010001101001001 -7508092.827125984 -7508093.246823321 132 0
195 011011001010001101001001 -7508092.824074788 -7508093.231257443 161 0
196 001011001011001001001101 -7508092.84182704 -7508093.306548229 150 1
197 000011001011001001101101 -7508092.822844691 -7508093.246530975 170 0
198 000011001011001001011101 -7508092.826866001 -7508093.182938573 79 0
199 001011001010011001001101 -7508092.823410836 -7508093.222570634 138 0
