0 111111111111111111111100 -6861349.479096526 -6861349.613740984 94 0
1 111111111111111111111010 -6861349.479430808 -6861349.614986984 73 0
2 111111111111111111111001 -6861349.504065498 -6861349.626997249 72 0
3 111111111111111111110110 -6861349.456152316 -6861349.60636527 72 0
4 111111111111111111110101 -6861349.480842652 -6861349.600062848 74 0
5 111111111111111111110011 -6861349.479096584 -6861349.613740989 94 0
6 111111111111111111101110 -6861349.480842709 -6861349.604268614 87 0
7 111111111111111111101101 -6861349.505367255 -6861349.634659173 70 0
8 111111111111111111101011 -6861349.502745957 -6861349.625871296 73 0
9 111111111111111111100111 -6861349.4781536665 -6861349.612589536 72 0
10 111111111111111111011110 -6861349.4781536665 -6861349.612589538 72 0
11 111111111111111111011101 -6861349.502745959 -6861349.625871321 73 0
12 111111111111111111011011 -6861349.501264611 -6861349.581607033 55 0
13 111111111111111111010111 -6861349.478661286 -6861349.607350757 64 0
14 111111111111111111001111 -6861349.504065497 -6861349.626997288 72 0
15 111111111111111110111110 -6861349.456152316 -6861349.606365291 72 0
16 111111111111111110111101 -6861349.47943075 -6861349.614986988 73 0
17 111111111111111110111011 -6861349.480842709 -6861349.599401128 75 0
18 111111111111111110110111 -6861349.4560762085 -6861349.594829711 57 0
19 111111111111111110101111 -6861349.478936734 -6861349.599078188 73 0
20 111111111111111110011111 -6861349.480842709 -6861349.604268558 87 0
21 111111111111111101111110 -6861349.478661286 -6861349.60735083 64 0
22 111111111111111101111101 -6861349.501264612 -6861349.581607029 55 0
23 111111111111111101111011 -6861349.502745957 -6861349.625871335 73 0
24 111111111111111101110111 -6861349.478936734 -6861349.599078162 73 0
25 111111111111111101101111 -6861349.50505569 -6861349.628674996 59 0
26 111111111111111101011111 -6861349.504065497 -6861349.626997244 72 0
27 111111111111111100111111 -6861349.4781536665 -6861349.61258954 72 0
28 111111111111111011111110 -6861349.478936734 -6861349.599078144 73 0
29 111111111111111011111101 -6861349.502745959 -6861349.625871226 73 0
30 111111111111111011111011 -6861349.505367253 -6861349.634659166 70 0
31 111111111111111011110111 -6861349.480842709 -6861349.604268539 87 0
32 111111111111111011101111 -6861349.504065497 -6861349.626997261 72 0
33 111111111111111011011111 -6861349.50505569 -6861349.6286749905 59 0
34 111111111111111010111111 -6861349.478661286 -6861349.607350732 64 0
35 111111111111111001111111 -6861349.504065497 -6861349.626997199 72 0
36 111111111111110111111110 -6861349.4560762085 -6861349.5948296925 57 0
37 111111111111110111111101 -6861349.480842652 -6861349.599401135 75 0
38 111111111111110111111011 -6861349.480842709 -6861349.6000629 74 0
39 111111111111110111110111 -6861349.456152316 -6861349.606365282 72 0
40 111111111111110111101111 -6861349.478661286 -6861349.607350763 64 0
41 111111111111110111011111 -6861349.478936734 -6861349.599078232 73 0
42 111111111111110110111111 -6861349.456152316 -6861349.606365291 72 0
43 111111111111110101111111 -6861349.480842709 -6861349.60426863 87 0
44 111111111111110011111111 -6861349.4781536665 -6861349.61258954 72 0
45 111111111111101111111110 -6861349.480842652 -6861349.599401125 75 0
46 111111111111101111111101 -6861349.505055691 -6861349.628675147 59 0
47 111111111111101111111011 -6861349.504065498 -6861349.626997265 72 0
48 111111111111101111110111 -6861349.47943075 -6861349.614986977 73 0
49 111111111111101111101111 -6861349.501264612 -6861349.581607008 55 0
50 111111111111101111011111 -6861349.502745959 -6861349.625871292 73 0
51 111111111111101110111111 -6861349.480842652 -6861349.600062933 74 0
52 111111111111101101111111 -6861349.505367255 -6861349.634659171 70 0
53 111111111111101011111111 -6861349.502745959 -6861349.625871265 73 0
54 111111111111100111111111 -6861349.479096526 -6861349.613740721 94 0
55 111111111111011111111110 -6861349.480842709 -6861349.600062829 74 0
56 111111111111011111111101 -6861349.504065498 -6861349.626997258 72 0
57 111111111111011111111011 -6861349.50505569 -6861349.628675054 59 0
58 111111111111011111110111 -6861349.480842709 -6861349.599401108 75 0
59 111111111111011111101111 -6861349.502745957 -6861349.625871258 73 0
60 111111111111011111011111 -6861349.505367253 -6861349.63465918 70 0
61 111111111111011110111111 -6861349.479096584 -6861349.613740843 94 0
62 111111111111011101111111 -6861349.502745957 -6861349.625871335 73 0
63 111111111111011011111111 -6861349.501264611 -6861349.581607017 55 0
64 111111111111010111111111 -6861349.479430808 -6861349.614986987 73 0
65 111111111111001111111111 -6861349.504065498 -6861349.62699724 72 0
66 111111111110111111111110 -6861349.451926213 -6861349.555372531 52 0
67 111111111110111111111101 -6861349.478661288 -6861349.607350841 64 0
68 111111111110111111111011 -6861349.478153668 -6861349.612589535 72 0
69 111111111110111111110111 -6861349.456076211 -6861349.604273399 75 0
70 111111111110111111101111 -6861349.4808427105 -6861349.599401208 75 0
71 111111111110111111011111 -6861349.47943081 -6861349.614986975 73 0
72 111111111110111110111111 -6861349.456076211 -6861349.604273405 75 0
73 111111111110111101111111 -6861349.479096586 -6861349.613740938 94 0
74 111111111110111011111111 -6861349.4808427105 -6861349.600062846 74 0
75 111111111110110111111111 -6861349.456076211 -6861349.599659329 73 0
76 111111111110101111111111 -6861349.48084271 -6861349.604268629 87 0
77 111111111110011111111111 -6861349.478936735 -6861349.599078173 73 0
78 111111111101111111111110 -6861349.479096526 -6861349.61374093 94 0
79 111111111101111111111101 -6861349.505309565 -6861349.636711934 72 0
80 111111111101111111111011 -6861349.504850803 -6861349.617622385 72 0
81 111111111101111111110111 -6861349.480842652 -6861349.600062804 74 0
82 111111111101111111101111 -6861349.505055691 -6861349.624453556 69 0
83 111111111101111111011111 -6861349.505055691 -6861349.618616532 73 0
84 111111111101111110111111 -6861349.47943075 -6861349.614987 73 0
85 111111111101111101111111 -6861349.505055691 -6861349.632399198 59 0
86 111111111101111011111111 -6861349.505055691 -6861349.618616521 73 0
87 111111111101110111111111 -6861349.480842652 -6861349.599401135 75 0
88 111111111101101111111111 -6861349.505055691 -6861349.620972268 59 0
89 111111111101011111111111 -6861349.504850803 -6861349.61762245 72 0
90 111111111100111111111111 -6861349.478661288 -6861349.607350881 64 0
91 111111111011111111111110 -6861349.479430808 -6861349.61498699 73 0
92 111111111011111111111101 -6861349.504850803 -6861349.617622419 72 0
93 111111111011111111111011 -6861349.505309563 -6861349.636711723 72 0
94 111111111011111111110111 -6861349.479096584 -6861349.613740866 94 0
95 111111111011111111101111 -6861349.50505569 -6861349.618616492 73 0
96 111111111011111111011111 -6861349.50505569 -6861349.632399214 59 0
97 111111111011111110111111 -6861349.480842709 -6861349.59940112 75 0
98 111111111011111101111111 -6861349.50505569 -6861349.618616531 73 0
99 111111111011111011111111 -6861349.50505569 -6861349.624453479 69 0
100 111111111011110111111111 -6861349.480842709 -6861349.600062836 74 0
101 111111111011101111111111 -6861349.504850803 -6861349.617622351 72 0
102 111111111011011111111111 -6861349.50505569 -6861349.620972122 59 0
103 111111111010111111111111 -6861349.478153668 -6861349.612589528 72 0
104 111111111001111111111111 -6861349.504065498 -6861349.626997247 72 0
105 111111110111111111111110 -6861349.4560762085 -6861349.604273321 75 0
106 111111110111111111111101 -6861349.478936676 -6861349.599078149 73 0
107 111111110111111111111011 -6861349.478661286 -6861349.607350755 64 0
108 111111110111111111110111 -6861349.45192621 -6861349.555372622 52 0
109 111111110111111111101111 -6861349.479430808 -6861349.614986996 73 0
110 111111110111111111011111 -6861349.479096584 -6861349.613740753 94 0
111 111111110111111110111111 -6861349.4560762085 -6861349.599659318 73 0
112 111111110111111101111111 -6861349.480842709 -6861349.600062874 74 0
113 111111110111111011111111 -6861349.480842709 -6861349.599401154 75 0
114 111111110111110111111111 -6861349.4560762085 -6861349.604273471 75 0
115 111111110111101111111111 -6861349.478153609 -6861349.612589532 72 0
116 111111110111011111111111 -6861349.480842709 -6861349.604268481 87 0
117 111111110110111111111111 -6861349.456152319 -6861349.606365291 72 0
118 111111110101111111111111 -6861349.478936676 -6861349.599078156 73 0
119 111111110011111111111111 -6861349.478661286 -6861349.607350778 64 0
120 111111101111111111111110 -6861349.480842709 -6861349.604268622 87 0
121 111111101111111111111101 -6861349.505055691 -6861349.624453519 69 0
122 111111101111111111111011 -6861349.50505569 -6861349.618616508 73 0
123 111111101111111111110111 -6861349.4781536665 -6861349.612589533 72 0
124 111111101111111111101111 -6861349.505309563 -6861349.636711704 72 0
125 111111101111111111011111 -6861349.504850801 -6861349.617622337 72 0
126 111111101111111110111111 -6861349.478936734 -6861349.599078175 73 0
127 111111101111111101111111 -6861349.50505569 -6861349.620972298 59 0
128 111111101111111011111111 -6861349.504850801 -6861349.617622325 72 0
129 111111101111110111111111 -6861349.478661286 -6861349.607350757 64 0
130 111111101111101111111111 -6861349.505055691 -6861349.632399234 59 0
131 111111101111011111111111 -6861349.50505569 -6861349.618616508 73 0
132 111111101110111111111111 -6861349.4808427105 -6861349.599401116 75 0
133 111111101101111111111111 -6861349.505367255 -6861349.634659186 70 0
134 111111101011111111111111 -6861349.502745957 -6861349.625871269 73 0
135 111111100111111111111111 -6861349.479430808 -6861349.614986893 73 0
136 111111011111111111111110 -6861349.4781536665 -6861349.612589536 72 0
137 111111011111111111111101 -6861349.505055691 -6861349.618616524 73 0
138 111111011111111111111011 -6861349.50505569 -6861349.632399231 59 0
139 111111011111111111110111 -6861349.478661286 -6861349.60735073 64 0
140 111111011111111111101111 -6861349.504850801 -6861349.61762229 72 0
141 111111011111111111011111 -6861349.505309563 -6861349.636711927 72 0
142 111111011111111110111111 -6861349.480842709 -6861349.604268557 87 0
143 111111011111111101111111 -6861349.504850801 -6861349.6176224565 72 0
144 111111011111111011111111 -6861349.50505569 -6861349.620972284 59 0
145 111111011111110111111111 -6861349.478936734 -6861349.599078175 73 0
146 111111011111101111111111 -6861349.505055691 -6861349.618616547 73 0
147 111111011111011111111111 -6861349.50505569 -6861349.62445326 69 0
148 111111011110111111111111 -6861349.47943081 -6861349.614986982 73 0
149 111111011101111111111111 -6861349.502745959 -6861349.625871275 73 0
150 111111011011111111111111 -6861349.501264611 -6861349.581606993 55 0
151 111111010111111111111111 -6861349.479096584 -6861349.613740879 94 0
152 111111001111111111111111 -6861349.504065497 -6861349.626997267 72 0
153 111110111111111111111110 -6861349.4560762085 -6861349.604273387 75 0
154 111110111111111111111101 -6861349.478153609 -6861349.612589536 72 0
155 111110111111111111111011 -6861349.480842709 -6861349.604268544 87 0
156 111110111111111111110111 -6861349.4560762085 -6861349.599659339 73 0
157 111110111111111111101111 -6861349.480842709 -6861349.600062837 74 0
158 111110111111111111011111 -6861349.480842709 -6861349.599401139 75 0
159 111110111111111110111111 -6861349.45192621 -6861349.555372641 52 0
160 111110111111111101111111 -6861349.479430808 -6861349.614986978 73 0
161 111110111111111011111111 -6861349.479096584 -6861349.613740964 94 0
162 111110111111110111111111 -6861349.4560762085 -6861349.604273399 75 0
163 111110111111101111111111 -6861349.478936676 -6861349.599078165 73 0
164 111110111111011111111111 -6861349.478661286 -6861349.607350789 64 0
165 111110111110111111111111 -6861349.456152319 -6861349.606365274 72 0
166 111110111101111111111111 -6861349.478153609 -6861349.612589532 72 0
167 111110111011111111111111 -6861349.480842709 -6861349.604268548 87 0
168 111110110111111111111111 -6861349.4560762085 -6861349.594829771 57 0
169 111110101111111111111111 -6861349.480842709 -6861349.600062849 74 0
170 111110011111111111111111 -6861349.480842709 -6861349.59940113 75 0
171 111101111111111111111110 -6861349.478661286 -6861349.607350875 64 0
172 111101111111111111111101 -6861349.505055691 -6861349.632399166 59 0
173 111101111111111111111011 -6861349.50505569 -6861349.618616534 73 0
174 111101111111111111110111 -6861349.478936734 -6861349.59907818 73 0
175 111101111111111111101111 -6861349.50505569 -6861349.620972183 59 0
176 111101111111111111011111 -6861349.504850801 -6861349.61762232 72 0
177 111101111111111110111111 -6861349.4781536665 -6861349.612589539 72 0
178 111101111111111101111111 -6861349.505309563 -6861349.636711735 72 0
179 111101111111111011111111 -6861349.504850801 -6861349.617622312 72 0
180 111101111111110111111111 -6861349.480842709 -6861349.604268533 87 0
181 111101111111101111111111 -6861349.505055691 -6861349.624453445 69 0
182 111101111111011111111111 -6861349.50505569 -6861349.618616521 73 0
183 111101111110111111111111 -6861349.479096586 -6861349.613740851 94 0
184 111101111101111111111111 -6861349.501264612 -6861349.581607042 55 0
185 111101111011111111111111 -6861349.502745957 -6861349.625871317 73 0
186 111101110111111111111111 -6861349.480842709 -6861349.600062735 74 0
187 111101101111111111111111 -6861349.50505569 -6861349.6286750175 59 0
188 111101011111111111111111 -6861349.504065497 -6861349.626997187 72 0
189 111100111111111111111111 -6861349.479430808 -6861349.614986989 73 0
190 111011111111111111111110 -6861349.478936734 -6861349.599078182 73 0
191 111011111111111111111101 -6861349.505055691 -6861349.618616523 73 0
192 111011111111111111111011 -6861349.50505569 -6861349.624453567 69 0
193 111011111111111111110111 -6861349.480842709 -6861349.604268474 87 0
194 111011111111111111101111 -6861349.504850801 -6861349.617622322 72 0
195 111011111111111111011111 -6861349.50505569 -6861349.62097228 59 0
196 111011111111111110111111 -6861349.478661286 -6861349.607350717 64 0
197 111011111111111101111111 -6861349.504850801 -6861349.6176222665 72 0
198 111011111111111011111111 -6861349.505309563 -6861349.636711899 72 0
199 111011111111110111111111 -6861349.4781536665 -6861349.6125895325 72 0
200 111011111111101111111111 -6861349.505055691 -6861349.618616564 73 0
201 111011111111011111111111 -6861349.50505569 -6861349.632399198 59 0
202 111011111110111111111111 -6861349.4808427105 -6861349.600062873 74 0
203 111011111101111111111111 -6861349.502745959 -6861349.625871334 73 0
204 111011111011111111111111 -6861349.505367253 -6861349.634659177 70 0
205 111011110111111111111111 -6861349.480842709 -6861349.599401136 75 0
206 111011101111111111111111 -6861349.504065497 -6861349.626997248 72 0
207 111011011111111111111111 -6861349.50505569 -6861349.628675003 59 0
208 111010111111111111111111 -6861349.479096584 -6861349.613740702 94 0
209 111001111111111111111111 -6861349.504065497 -6861349.626997187 72 0
210 110111111111111111111110 -6861349.456076211 -6861349.599659346 73 0
211 110111111111111111111101 -6861349.48084271 -6861349.604268555 87 0
212 110111111111111111111011 -6861349.478936735 -6861349.599078166 73 0
213 110111111111111111110111 -6861349.456076211 -6861349.604273412 75 0
214 110111111111111111101111 -6861349.479096586 -6861349.613740671 94 0
215 110111111111111111011111 -6861349.4808427105 -6861349.600062783 74 0
216 110111111111111110111111 -6861349.456076211 -6861349.604273425 75 0
217 110111111111111101111111 -6861349.4808427105 -6861349.599401121 75 0
218 110111111111111011111111 -6861349.47943081 -6861349.61498698 73 0
219 110111111111110111111111 -6861349.451926213 -6861349.555372622 52 0
220 110111111111101111111111 -6861349.478661288 -6861349.607350878 64 0
221 110111111111011111111111 -6861349.478153668 -6861349.612589529 72 0
222 110111111110111111111111 -6861349.456076211 -6861349.594829703 57 0
223 110111111101111111111111 -6861349.48084271 -6861349.60426853 87 0
224 110111111011111111111111 -6861349.478936735 -6861349.599078158 73 0
225 110111110111111111111111 -6861349.456152319 -6861349.606365289 72 0
226 110111101111111111111111 -6861349.479096586 -6861349.613740938 94 0
227 110111011111111111111111 -6861349.4808427105 -6861349.60006282 74 0
228 110110111111111111111111 -6861349.456152319 -6861349.606365254 72 0
229 110101111111111111111111 -6861349.4808427105 -6861349.599401112 75 0
230 110011111111111111111111 -6861349.47943081 -6861349.614986988 73 0
231 101111111111111111111110 -6861349.480842652 -6861349.599401106 75 0
232 101111111111111111111101 -6861349.505055691 -6861349.62097225 59 0
233 101111111111111111111011 -6861349.504850803 -6861349.61762226 72 0
234 101111111111111111110111 -6861349.47943075 -6861349.614986988 73 0
235 101111111111111111101111 -6861349.505055691 -6861349.632399216 59 0
236 101111111111111111011111 -6861349.505055691 -6861349.61861651 73 0
237 101111111111111110111111 -6861349.480842652 -6861349.6000628285 74 0
238 101111111111111101111111 -6861349.505055691 -6861349.624453173 69 0
239 101111111111111011111111 -6861349.505055691 -6861349.618616499 73 0
240 101111111111110111111111 -6861349.479096526 -6861349.613741002 94 0
241 101111111111101111111111 -6861349.505309565 -6861349.636711727 72 0
242 101111111111011111111111 -6861349.504850803 -6861349.617622454 72 0
243 101111111110111111111111 -6861349.48084271 -6861349.604268562 87 0
244 101111111101111111111111 -6861349.505055691 -6861349.628674926 59 0
245 101111111011111111111111 -6861349.504065498 -6861349.626997253 72 0
246 101111110111111111111111 -6861349.478153609 -6861349.612589535 72 0
247 101111101111111111111111 -6861349.501264612 -6861349.581607001 55 0
248 101111011111111111111111 -6861349.502745959 -6861349.625871295 73 0
249 101110111111111111111111 -6861349.478936676 -6861349.599078161 73 0
250 101101111111111111111111 -6861349.505367255 -6861349.63465906 70 0
251 101011111111111111111111 -6861349.502745959 -6861349.625871128 73 0
252 100111111111111111111111 -6861349.478661288 -6861349.607350819 64 0
253 011111111111111111111110 -6861349.480842709 -6861349.600062806 74 0
254 011111111111111111111101 -6861349.504850803 -6861349.617622245 72 0
255 011111111111111111111011 -6861349.50505569 -6861349.620972119 59 0
256 011111111111111111110111 -6861349.480842709 -6861349.599401118 75 0
257 011111111111111111101111 -6861349.50505569 -6861349.618616523 73 0
258 011111111111111111011111 -6861349.50505569 -6861349.624453422 69 0
259 011111111111111110111111 -6861349.479096584 -6861349.613740806 94 0
260 011111111111111101111111 -6861349.50505569 -6861349.618616512 73 0
261 011111111111111011111111 -6861349.50505569 -6861349.632399193 59 0
262 011111111111110111111111 -6861349.479430808 -6861349.614986979 73 0
263 011111111111101111111111 -6861349.504850803 -6861349.617622454 72 0
264 011111111111011111111111 -6861349.505309563 -6861349.636711712 72 0
265 011111111110111111111111 -6861349.478936735 -6861349.599078178 73 0
266 011111111101111111111111 -6861349.504065498 -6861349.626997265 72 0
267 011111111011111111111111 -6861349.50505569 -6861349.628675021 59 0
268 011111110111111111111111 -6861349.480842709 -6861349.604268473 87 0
269 011111101111111111111111 -6861349.502745957 -6861349.625871299 73 0
270 011111011111111111111111 -6861349.505367253 -6861349.634659173 70 0
271 011110111111111111111111 -6861349.478661286 -6861349.607350798 64 0
272 011101111111111111111111 -6861349.502745957 -6861349.625871305 73 0
273 011011111111111111111111 -6861349.501264611 -6861349.581607029 55 0
274 010111111111111111111111 -6861349.478153668 -6861349.612589523 72 0
275 001111111111111111111111 -6861349.504065498 -6861349.626997238 72 0
