0 110000000000000000000000 -8037246.948563904 -8037247.05422608 92 0
1 101000000000000000000000 -8037246.966044297 -8037247.079191654 77 0
2 100100000000000000000000 -8037246.945311075 -8037247.013912668 82 0
3 100010000000000000000000 -8037246.94799689 -8037247.051941908 80 0
4 100001000000000000000000 -8037246.9659149535 -8037247.075551788 78 0
5 100000100000000000000000 -8037246.948133311 -8037247.064282007 91 0
6 100000010000000000000000 -8037246.94799689 -8037247.051941925 80 0
7 100000001000000000000000 -8037246.966172927 -8037247.066727128 80 0
8 100000000100000000000000 -8037246.948462379 -8037247.054298563 98 0
9 100000000010000000000000 -8037246.948563904 -8037247.05422593 92 0
10 100000000001000000000000 -8037246.964788507 -8037247.071873961 76 0
11 100000000000100000000000 -8037246.949111605 -8037247.063650503 94 0
12 100000000000010000000000 -8037246.948462401 -8037247.045151315 91 0
13 100000000000001000000000 -8037246.96617839 -8037247.081196345 79 0
14 100000000000000100000000 -8037246.948462391 -8037247.058783724 64 0
15 100000000000000010000000 -8037246.948462389 -8037247.045617626 92 0
16 100000000000000001000000 -8037246.96629431 -8037247.077882314 77 0
17 100000000000000000100000 -8037246.948462391 -8037247.061936265 67 0
18 100000000000000000010000 -8037246.948462389 -8037247.045617567 92 0
19 100000000000000000001000 -8037246.966172917 -8037247.066610443 79 0
20 100000000000000000000100 -8037246.948462379 -8037247.055391125 99 0
21 100000000000000000000010 -8037246.948462401 -8037247.045151257 91 0
22 100000000000000000000001 -8037246.966172917 -8037247.070049188 81 0
23 011000000000000000000000 -8037246.965914954 -8037247.07555178 78 0
24 010100000000000000000000 -8037246.947996905 -8037247.0519419 80 0
25 010010000000000000000000 -8037246.948133331 -8037247.064282017 91 0
26 010001000000000000000000 -8037246.9647885505 -8037247.071873986 76 0
27 010000100000000000000000 -8037246.947996905 -8037247.051941977 80 0
28 010000010000000000000000 -8037246.945311095 -8037247.013904439 81 0
29 010000001000000000000000 -8037246.966044341 -8037247.079191666 77 0
30 010000000100000000000000 -8037246.948563904 -8037247.054225894 92 0
31 010000000010000000000000 -8037246.94846238 -8037247.054298509 98 0
32 010000000001000000000000 -8037246.966172927 -8037247.0667272 80 0
33 010000000000100000000000 -8037246.948462401 -8037247.0451513445 91 0
34 010000000000010000000000 -8037246.949111606 -8037247.063650517 94 0
35 010000000000001000000000 -8037246.966294346 -8037247.077882254 77 0
36 010000000000000100000000 -8037246.948462404 -8037247.045617535 92 0
37 010000000000000010000000 -8037246.948462411 -8037247.061936279 67 0
38 010000000000000001000000 -8037246.966172953 -8037247.070049267 81 0
39 010000000000000000100000 -8037246.948462404 -8037247.045617634 92 0
40 010000000000000000010000 -8037246.948462411 -8037247.05878375 64 0
41 010000000000000000001000 -8037246.966178426 -8037247.081196352 79 0
42 010000000000000000000100 -8037246.948462401 -8037247.045151283 91 0
43 010000000000000000000010 -8037246.94846238 -8037247.055391115 99 0
44 010000000000000000000001 -8037246.966172953 -8037247.06661052 79 0
45 001100000000000000000000 -8037246.966178383 -8037247.081196336 79 0
46 001010000000000000000000 -8037246.966172909 -8037247.066610442 79 0
47 001001000000000000000000 -8037246.984576161 -8037247.116499293 70 0
48 001000100000000000000000 -8037246.966172909 -8037247.070049189 81 0
49 001000010000000000000000 -8037246.966294303 -8037247.077882263 77 0
50 001000001000000000000000 -8037246.984576161 -8037247.11649929 70 0
51 001000000100000000000000 -8037246.964788507 -8037247.071873886 76 0
52 001000000010000000000000 -8037246.966172927 -8037247.066727313 80 0
53 001000000001000000000000 -8037246.98343973 -8037247.110955698 58 0
54 001000000000100000000000 -8037246.966044297 -8037247.079191654 77 0
55 001000000000010000000000 -8037246.965914954 -8037247.075551767 78 0
56 001000000000001000000000 -8037246.980409115 -8037247.064574813 60 0
57 001000000000000100000000 -8037246.966178383 -8037247.081196353 79 0
58 001000000000000010000000 -8037246.966172909 -8037247.066610438 79 0
59 001000000000000001000000 -8037246.983439789 -8037247.113557171 72 0
60 001000000000000000100000 -8037246.966172909 -8037247.0700491965 81 0
61 001000000000000000010000 -8037246.966294303 -8037247.077882263 77 0
62 001000000000000000001000 -8037246.983439789 -8037247.113557094 72 0
63 001000000000000000000100 -8037246.964788507 -8037247.07187392 76 0
64 001000000000000000000010 -8037246.966172927 -8037247.066727187 80 0
65 001000000000000000000001 -8037246.983439789 -8037247.107709682 68 0
66 000110000000000000000000 -8037246.948563903 -8037247.05422591 92 0
67 000101000000000000000000 -8037246.966294326 -8037247.077882341 77 0
68 000100100000000000000000 -8037246.948462399 -8037247.054298545 98 0
69 000100010000000000000000 -8037246.948563903 -8037247.054226065 92 0
70 000100001000000000000000 -8037246.966172933 -8037247.066610487 79 0
71 000100000100000000000000 -8037246.948133311 -8037247.064282031 91 0
72 000100000010000000000000 -8037246.947996905 -8037247.051941949 80 0
73 000100000001000000000000 -8037246.966172909 -8037247.070049263 81 0
74 000100000000100000000000 -8037246.948462391 -8037247.0587837305 64 0
75 000100000000010000000000 -8037246.948462404 -8037247.04561779 92 0
76 000100000000001000000000 -8037246.966044331 -8037247.079191652 77 0
77 000100000000000100000000 -8037246.949111625 -8037247.063650511 94 0
78 000100000000000010000000 -8037246.9484624 -8037247.045151336 91 0
79 000100000000000001000000 -8037246.965914961 -8037247.075551767 78 0
80 000100000000000000100000 -8037246.948462399 -8037247.055391173 99 0
81 000100000000000000010000 -8037246.9484624 -8037247.045151215 91 0
82 000100000000000000001000 -8037246.9661729345 -8037247.0667271875 80 0
83 000100000000000000000100 -8037246.948462391 -8037247.061936316 67 0
84 000100000000000000000010 -8037246.948462404 -8037247.0456178 92 0
85 000100000000000000000001 -8037246.964788539 -8037247.071873967 76 0
86 000011000000000000000000 -8037246.9661784 -8037247.081196351 79 0
87 000010100000000000000000 -8037246.948563903 -8037247.0542260865 92 0
88 000010010000000000000000 -8037246.948462383 -8037247.054298667 98 0
89 000010001000000000000000 -8037246.966172928 -8037247.070049211 81 0
90 000010000100000000000000 -8037246.94799689 -8037247.051941972 80 0
91 000010000010000000000000 -8037246.945311095 -8037247.013904434 81 0
92 000010000001000000000000 -8037246.966294303 -8037247.077882314 77 0
93 000010000000100000000000 -8037246.948462389 -8037247.045617546 92 0
94 000010000000010000000000 -8037246.948462411 -8037247.061936296 67 0
95 000010000000001000000000 -8037246.966172927 -8037247.066727306 80 0
96 000010000000000100000000 -8037246.9484624 -8037247.045151363 91 0
97 000010000000000010000000 -8037246.949111608 -8037247.063650565 94 0
98 000010000000000001000000 -8037246.966044323 -8037247.07919165 77 0
99 000010000000000000100000 -8037246.9484624 -8037247.045151257 91 0
100 000010000000000000010000 -8037246.948462383 -8037247.055391148 99 0
101 000010000000000000001000 -8037246.964788532 -8037247.071873988 76 0
102 000010000000000000000100 -8037246.948462389 -8037247.045617533 92 0
103 000010000000000000000010 -8037246.948462411 -8037247.0587837575 64 0
104 000010000000000000000001 -8037246.9659149535 -8037247.075551802 78 0
105 000001100000000000000000 -8037246.966172933 -8037247.066610511 79 0
106 000001010000000000000000 -8037246.966172928 -8037247.070049237 81 0
107 000001001000000000000000 -8037246.983439819 -8037247.110955643 58 0
108 000001000100000000000000 -8037246.966172927 -8037247.066727174 80 0
109 000001000010000000000000 -8037246.966044341 -8037247.079191653 77 0
110 000001000001000000000000 -8037246.984576161 -8037247.116499371 70 0
111 000001000000100000000000 -8037246.9659149535 -8037247.075551723 78 0
112 000001000000010000000000 -8037246.9647885505 -8037247.071873938 76 0
113 000001000000001000000000 -8037246.983439819 -8037247.1135570975 72 0
114 000001000000000100000000 -8037246.966294326 -8037247.077882313 77 0
115 000001000000000010000000 -8037246.9661784 -8037247.081196336 79 0
116 000001000000000001000000 -8037246.9804091435 -8037247.064574892 60 0
117 000001000000000000100000 -8037246.966172933 -8037247.0666104425 79 0
118 000001000000000000010000 -8037246.966172928 -8037247.070049196 81 0
119 000001000000000000001000 -8037246.983439819 -8037247.107709726 68 0
120 000001000000000000000100 -8037246.966172927 -8037247.066727183 80 0
121 000001000000000000000010 -8037246.966044341 -8037247.07919166 77 0
122 000001000000000000000001 -8037246.983439819 -8037247.113557102 72 0
123 000000110000000000000000 -8037246.948563903 -8037247.054225931 92 0
124 000000101000000000000000 -8037246.966294326 -8037247.077882307 77 0
125 000000100100000000000000 -8037246.945311075 -8037247.013912619 82 0
126 000000100010000000000000 -8037246.947996905 -8037247.051941878 80 0
127 000000100001000000000000 -8037246.966178383 -8037247.081196361 79 0
128 000000100000100000000000 -8037246.948462391 -8037247.061936315 67 0
129 000000100000010000000000 -8037246.948462404 -8037247.045617792 92 0
130 000000100000001000000000 -8037246.964788539 -8037247.07187396 76 0
131 000000100000000100000000 -8037246.948462399 -8037247.055391101 99 0
132 000000100000000010000000 -8037246.9484624 -8037247.045151212 91 0
133 000000100000000001000000 -8037246.9661729345 -8037247.0667271735 80 0
134 000000100000000000100000 -8037246.949111625 -8037247.063650488 94 0
135 000000100000000000010000 -8037246.9484624 -8037247.04515122 91 0
136 000000100000000000001000 -8037246.965914961 -8037247.075551795 78 0
137 000000100000000000000100 -8037246.948462391 -8037247.058783756 64 0
138 000000100000000000000010 -8037246.948462404 -8037247.045617723 92 0
139 000000100000000000000001 -8037246.966044331 -8037247.079191654 77 0
140 000000011000000000000000 -8037246.9661784 -8037247.0811963435 79 0
141 000000010100000000000000 -8037246.94799689 -8037247.05194196 80 0
142 000000010010000000000000 -8037246.948133331 -8037247.06428197 91 0
143 000000010001000000000000 -8037246.966172909 -8037247.066610441 79 0
144 000000010000100000000000 -8037246.948462389 -8037247.045617566 92 0
145 000000010000010000000000 -8037246.948462411 -8037247.058783736 64 0
146 000000010000001000000000 -8037246.9659149535 -8037247.075551771 78 0
147 000000010000000100000000 -8037246.9484624 -8037247.045151243 91 0
148 000000010000000010000000 -8037246.948462383 -8037247.055391177 99 0
149 000000010000000001000000 -8037246.964788532 -8037247.071873947 76 0
150 000000010000000000100000 -8037246.9484624 -8037247.04515122 91 0
151 000000010000000000010000 -8037246.949111608 -8037247.063650477 94 0
152 000000010000000000001000 -8037246.966044323 -8037247.079191634 77 0
153 000000010000000000000100 -8037246.948462389 -8037247.045617556 92 0
154 000000010000000000000010 -8037246.948462411 -8037247.06193629 67 0
155 000000010000000000000001 -8037246.966172927 -8037247.066727329 80 0
156 000000001100000000000000 -8037246.9659149535 -8037247.07555172 78 0
157 000000001010000000000000 -8037246.9647885505 -8037247.071873982 76 0
158 000000001001000000000000 -8037246.984576161 -8037247.116499282 70 0
159 000000001000100000000000 -8037246.966172927 -8037247.066727325 80 0
160 000000001000010000000000 -8037246.966044341 -8037247.079191653 77 0
161 000000001000001000000000 -8037246.983439819 -8037247.113557149 72 0
162 000000001000000100000000 -8037246.966172933 -8037247.066610441 79 0
163 000000001000000010000000 -8037246.966172928 -8037247.070049187 81 0
164 000000001000000001000000 -8037246.983439819 -8037247.107709688 68 0
165 000000001000000000100000 -8037246.966294326 -8037247.077882255 77 0
166 000000001000000000010000 -8037246.9661784 -8037247.081196347 79 0
167 000000001000000000001000 -8037246.9804091435 -8037247.0645749075 60 0
168 000000001000000000000100 -8037246.9659149535 -8037247.075551721 78 0
169 000000001000000000000010 -8037246.9647885505 -8037247.0718739955 76 0
170 000000001000000000000001 -8037246.983439819 -8037247.113557156 72 0
171 000000000110000000000000 -8037246.948563904 -8037247.054226064 92 0
172 000000000101000000000000 -8037246.966044297 -8037247.079191665 77 0
173 000000000100100000000000 -8037246.948462379 -8037247.0553911375 99 0
174 000000000100010000000000 -8037246.948462401 -8037247.045151247 91 0
175 000000000100001000000000 -8037246.966172917 -8037247.0700492 81 0
176 000000000100000100000000 -8037246.948462391 -8037247.06193625 67 0
177 000000000100000010000000 -8037246.948462389 -8037247.045617547 92 0
178 000000000100000001000000 -8037246.966172917 -8037247.066610446 79 0
179 000000000100000000100000 -8037246.948462391 -8037247.058783752 64 0
180 000000000100000000010000 -8037246.948462389 -8037247.045617609 92 0
181 000000000100000000001000 -8037246.96629431 -8037247.077882249 77 0
182 000000000100000000000100 -8037246.949111605 -8037247.063650484 94 0
183 000000000100000000000010 -8037246.948462401 -8037247.04515132 91 0
184 000000000100000000000001 -8037246.96617839 -8037247.081196359 79 0
185 000000000011000000000000 -8037246.965914954 -8037247.075551773 78 0
186 000000000010100000000000 -8037246.948462401 -8037247.045151306 91 0
187 000000000010010000000000 -8037246.94846238 -8037247.055391158 99 0
188 000000000010001000000000 -8037246.966172953 -8037247.066610517 79 0
189 000000000010000100000000 -8037246.948462404 -8037247.045617814 92 0
190 000000000010000010000000 -8037246.948462411 -8037247.058783745 64 0
191 000000000010000001000000 -8037246.966178426 -8037247.08119634 79 0
192 000000000010000000100000 -8037246.948462404 -8037247.04561761 92 0
193 000000000010000000010000 -8037246.948462411 -8037247.061936273 67 0
194 000000000010000000001000 -8037246.966172953 -8037247.0700492095 81 0
195 000000000010000000000100 -8037246.948462401 -8037247.045151249 91 0
196 000000000010000000000010 -8037246.949111606 -8037247.063650506 94 0
197 000000000010000000000001 -8037246.966294346 -8037247.077882255 77 0
198 000000000001100000000000 -8037246.964788507 -8037247.071873961 76 0
199 000000000001010000000000 -8037246.966172927 -8037247.066727319 80 0
200 000000000001001000000000 -8037246.983439789 -8037247.107709705 68 0
201 000000000001000100000000 -8037246.966172909 -8037247.0700492505 81 0
202 000000000001000010000000 -8037246.966294303 -8037247.077882261 77 0
203 000000000001000001000000 -8037246.983439789 -8037247.113557151 72 0
204 000000000001000000100000 -8037246.966178383 -8037247.081196349 79 0
205 000000000001000000010000 -8037246.966172909 -8037247.066610436 79 0
206 000000000001000000001000 -8037246.983439789 -8037247.113557098 72 0
207 000000000001000000000100 -8037246.966044297 -8037247.079191651 77 0
208 000000000001000000000010 -8037246.965914954 -8037247.075551845 78 0
209 000000000001000000000001 -8037246.980409115 -8037247.064574843 60 0
210 000000000000110000000000 -8037246.948563904 -8037247.054225927 92 0
211 000000000000101000000000 -8037246.96617839 -8037247.081196339 79 0
212 000000000000100100000000 -8037246.945311075 -8037247.013912719 82 0
213 000000000000100010000000 -8037246.94799689 -8037247.051941944 80 0
214 000000000000100001000000 -8037246.96629431 -8037247.077882261 77 0
215 000000000000100000100000 -8037246.948133311 -8037247.064281974 91 0
216 000000000000100000010000 -8037246.94799689 -8037247.051941913 80 0
217 000000000000100000001000 -8037246.966172917 -8037247.066610513 79 0
218 000000000000100000000100 -8037246.948462379 -8037247.054298532 98 0
219 000000000000100000000010 -8037246.948563904 -8037247.054225922 92 0
220 000000000000100000000001 -8037246.966172917 -8037247.070049172 81 0
221 000000000000011000000000 -8037246.966294346 -8037247.077882265 77 0
222 000000000000010100000000 -8037246.947996905 -8037247.051941908 80 0
223 000000000000010010000000 -8037246.948133331 -8037247.06428192 91 0
224 000000000000010001000000 -8037246.966172953 -8037247.070049215 81 0
225 000000000000010000100000 -8037246.947996905 -8037247.051941945 80 0
226 000000000000010000010000 -8037246.945311095 -8037247.013904281 81 0
227 000000000000010000001000 -8037246.966178426 -8037247.081196323 79 0
228 000000000000010000000100 -8037246.948563904 -8037247.054225941 92 0
229 000000000000010000000010 -8037246.94846238 -8037247.05429855 98 0
230 000000000000010000000001 -8037246.966172953 -8037247.066610514 79 0
231 000000000000001100000000 -8037246.966044331 -8037247.079191653 77 0
232 000000000000001010000000 -8037246.966172927 -8037247.066727176 80 0
233 000000000000001001000000 -8037246.984576191 -8037247.116499295 70 0
234 000000000000001000100000 -8037246.964788539 -8037247.071873964 76 0
235 000000000000001000010000 -8037246.9659149535 -8037247.075551795 78 0
236 000000000000001000001000 -8037246.984576191 -8037247.116499287 70 0
237 000000000000001000000100 -8037246.966172917 -8037247.0700492645 81 0
238 000000000000001000000010 -8037246.966172953 -8037247.066610496 79 0
239 000000000000001000000001 -8037246.983439824 -8037247.110955654 58 0
240 000000000000000110000000 -8037246.948563903 -8037247.054225911 92 0
241 000000000000000101000000 -8037246.965914961 -8037247.075551722 78 0
242 000000000000000100100000 -8037246.948462399 -8037247.054298676 98 0
243 000000000000000100010000 -8037246.948563903 -8037247.05422606 92 0
244 000000000000000100001000 -8037246.9661729345 -8037247.066727176 80 0
245 000000000000000100000100 -8037246.948133311 -8037247.064282045 91 0
246 000000000000000100000010 -8037246.947996905 -8037247.05194194 80 0
247 000000000000000100000001 -8037246.964788539 -8037247.071873961 76 0
248 000000000000000011000000 -8037246.966044323 -8037247.079191652 77 0
249 000000000000000010100000 -8037246.948563903 -8037247.054226039 92 0
250 000000000000000010010000 -8037246.948462383 -8037247.054298661 98 0
251 000000000000000010001000 -8037246.964788532 -8037247.071873988 76 0
252 000000000000000010000100 -8037246.94799689 -8037247.051941963 80 0
253 000000000000000010000010 -8037246.945311095 -8037247.013904325 81 0
254 000000000000000010000001 -8037246.9659149535 -8037247.075551766 78 0
255 000000000000000001100000 -8037246.9661729345 -8037247.06672721 80 0
256 000000000000000001010000 -8037246.964788532 -8037247.071873971 76 0
257 000000000000000001001000 -8037246.983439824 -8037247.110955684 58 0
258 000000000000000001000100 -8037246.966172917 -8037247.066610498 79 0
259 000000000000000001000010 -8037246.966178426 -8037247.081196342 79 0
260 000000000000000001000001 -8037246.984576191 -8037247.11649928 70 0
261 000000000000000000110000 -8037246.948563903 -8037247.0542259095 92 0
262 000000000000000000101000 -8037246.965914961 -8037247.075551778 78 0
263 000000000000000000100100 -8037246.945311075 -8037247.013912564 82 0
264 000000000000000000100010 -8037246.947996905 -8037247.051941918 80 0
265 000000000000000000100001 -8037246.966044331 -8037247.079191684 77 0
266 000000000000000000011000 -8037246.966044323 -8037247.079191653 77 0
267 000000000000000000010100 -8037246.94799689 -8037247.051941961 80 0
268 000000000000000000010010 -8037246.948133331 -8037247.064281803 91 0
269 000000000000000000010001 -8037246.966172927 -8037247.066727306 80 0
270 000000000000000000001100 -8037246.96629431 -8037247.077882313 77 0
271 000000000000000000001010 -8037246.966172953 -8037247.070049215 81 0
272 000000000000000000001001 -8037246.984576191 -8037247.11649928 70 0
273 000000000000000000000110 -8037246.948563904 -8037247.054225903 92 0
274 000000000000000000000101 -8037246.96617839 -8037247.081196352 79 0
275 000000000000000000000011 -8037246.966294346 -8037247.077882255 77 0
