40
Lattice="7.96225752 -8.3774342 0.0 7.96225752 8.3774342 0.0 0.0 0.0 11.63952425" Properties=species:S:1:pos:R:3 pbc="T T T"
Pb       0.00000000       0.00000000       0.00000000
Pb       3.98112876      -4.18871710       0.00000000
Pb       3.98112876       4.18871710       0.00000000
Pb       7.96225752       0.00000000       0.00000000
Pb       0.00000000       0.00000000       5.81976212
Pb       3.98112876      -4.18871710       5.81976212
Pb       3.98112876       4.18871710       5.81976212
Pb       7.96225752       0.00000000       5.81976212
Br       2.41578691      -1.68676312       0.43936329
Br       1.56534185       2.50195398       0.43936329
Br      -0.57207499      -0.08863795       2.90988106
Br       5.54647061      -6.69067108      -0.43936329
Br       6.39691567      -2.50195398      -0.43936329
Br       4.55320375      -4.27735505       2.90988106
Br       5.54647061       1.68676312      -0.43936329
Br       6.39691567       5.87548022      -0.43936329
Br       4.55320375       4.10007915       2.90988106
Br      10.37804443      -1.68676312       0.43936329
Br       9.52759937       2.50195398       0.43936329
Br       7.39018253      -0.08863795       2.90988106
Br       2.41578691      -1.68676312       5.38039883
Br       1.56534185       2.50195398       5.38039883
Br       0.57207499       0.08863795       8.72964319
Br       5.54647061      -6.69067108       6.25912542
Br       6.39691567      -2.50195398       6.25912542
Br       3.40905377      -4.10007915       8.72964319
Br       5.54647061       1.68676312       6.25912542
Br       6.39691567       5.87548022       6.25912542
Br       3.40905377       4.27735505       8.72964319
Br      10.37804443      -1.68676312       5.38039883
Br       9.52759937       2.50195398       5.38039883
Br       8.53433251       0.08863795       8.72964319
Cs       3.81570880       0.55583447       2.90988106
Cs       8.12767748      -3.63288280       2.90988106
Cs       8.12767748       4.74455140       2.90988106
Cs      11.77796632       0.55583447       2.90988106
Cs       4.14654872      -0.55583447       8.72964319
Cs       7.79683756      -4.74455157       8.72964319
Cs       7.79683756       3.63288263       8.72964319
Cs      12.10880624      -0.55583447       8.72964319
