0 111111011111011110011110 -7037733.918724823 -7037734.201369765 105 1
1 111111011111011110011011 -7037733.93823459 -7037734.176295853 113 0
2 111111010111011111011110 -7037733.91825493 -7037734.202068316 93 1
3 111101011111011111011110 -7037733.942403244 -7037734.20699011 92 1
4 110111011111011111011110 -7037733.91817543 -7037734.185872901 95 0
5 110101011111011111111110 -7037733.91798084 -7037734.153031273 80 0
6 111100011111111111011110 -7037733.917451266 -7037734.184534747 83 0
7 111101011111011111111100 -7037733.942327946 -7037734.193593176 80 0
8 111101011111011111010111 -7037733.940934984 -7037734.18508064 80 0
9 111101011101111111011110 -7037733.934818877 -7037734.174630349 91 0
10 111101011111011011011111 -7037733.9620307945 -7037734.183981152 83 0
11 111101011111111111001110 -7037733.941875242 -7037734.194587259 79 0
12 111101011011011111111110 -7037733.936484112 -7037734.157067653 86 0
13 011101111111011111011110 -7037733.942467463 -7037734.19656597 103 0
14 111101011111011011011111 -7037733.9620307945 -7037734.183981152 83 0
15 111111011101011111011110 -7037733.941912851 -7037734.207737671 90 1
16 111111011101111111011010 -7037733.9360179175 -7037734.178145403 87 0
17 111101011111011111011110 -7037733.942403244 -7037734.20699011 92 1
18 011101011111011111111110 -7037733.942416664 -7037734.204081217 92 0
19 011101011111011111011111 -7037733.967649435 -7037734.253709833 87 1
20 011101111111011011011111 -7037733.961381811 -7037734.193675497 84 0
21 011101010111111111011111 -7037733.943273813 -7037734.207919779 101 0
22 011101011111011111111011 -7037733.966994237 -7037734.234157227 78 0
23 111001011111011111011111 -7037733.96768163 -7037734.23635954 78 0
24 011101011111001111111111 -7037733.967437537 -7037734.227417149 79 0
25 111101011111011111011101 -7037733.967437538 -7037734.232056249 80 0
26 011101110111011111011111 -7037733.94322598 -7037734.191857293 105 0
27 011101111111011011011111 -7037733.961381811 -7037734.193675497 84 0
28 001101111111011111011111 -7037733.967439872 -7037734.229066551 78 0
29 011101011111001111111111 -7037733.967437537 -7037734.227417149 79 0
30 011100011111011111111111 -7037733.941984492 -7037734.208547602 90 0
31 001101011111111111011111 -7037733.9669844005 -7037734.244503522 89 0
32 001101011111111111011111 -7037733.9669844005 -7037734.244503522 89 0
33 010101111111011111011111 -7037733.942284826 -7037734.194452776 88 0
34 011100011111111111011111 -7037733.943042422 -7037734.197810428 96 0
35 011001011111011111111111 -7037733.962523368 -7037734.212247938 86 0
36 010101111111011111011111 -7037733.942284826 -7037734.194452776 88 0
37 111101010111011111011111 -7037733.944063606 -7037734.1988315005 94 0
38 011101111111011111011011 -7037733.961381817 -7037734.184219191 84 0
39 011101011111011011111111 -7037733.962119919 -7037734.195396895 85 0
40 011101111101011111011111 -7037733.962119925 -7037734.184774006 92 0
41 011111011111011101011111 -7037733.967649435 -7037734.253709786 87 1
42 011111011111011011011111 -7037733.961886337 -7037734.230186912 85 0
43 010111011111011111011111 -7037733.943240289 -7037734.23259473 87 0
44 011111111111011101011011 -7037733.961790186 -7037734.202285457 84 0
45 011111011111010111011111 -7037733.939357656 -7037734.234242469 86 0
46 111111011111001101011111 -7037733.9669844005 -7037734.244503451 89 0
47 011111011110011101111111 -7037733.938376363 -7037734.199574324 96 0
48 111111011110011101011111 -7037733.940254394 -7037734.2179625835 89 0
49 010111011111011101111111 -7037733.942284826 -7037734.194452791 88 0
50 011111111111001101011111 -7037733.9669844 -7037734.244503493 89 0
51 111111011111011101010111 -7037733.940090325 -7037734.193606283 81 0
52 010111111111011101011111 -7037733.942226499 -7037734.203626357 88 0
53 011111011110011101111111 -7037733.938376363 -7037734.199574324 96 0
54 011111011111011101110111 -7037733.9404486315 -7037734.174352292 85 0
55 011111011101011101111111 -7037733.966705088 -7037734.229646756 89 0
56 011111011111001111011111 -7037733.967649441 -7037734.253709806 87 1
57 011111111111000111011111 -7037733.940254385 -7037734.217962697 89 0
58 011111111111000111011111 -7037733.940254385 -7037734.217962697 89 0
59 010111011111001111111111 -7037733.942403247 -7037734.206990099 92 0
60 011101011111101111011111 -7037733.9667050885 -7037734.226350349 78 0
61 011111111101001111011111 -7037733.9674375355 -7037734.224238997 78 0
62 011110011111011111011111 -7037733.943592062 -7037734.21471256 85 0
63 011111011111001111101111 -7037733.962119925 -7037734.183917088 101 0
64 111111011111001101011111 -7037733.9669844005 -7037734.244503451 89 0
65 111111011111001101011111 -7037733.9669844005 -7037734.244503451 89 0
66 011110011111101111011111 -7037733.940448618 -7037734.174352338 85 0
67 011011011111011111011111 -7037733.961886337 -7037734.230186896 85 0
68 011111011110101111011111 -7037733.940983247 -7037734.201368026 102 0
69 011011011111101111011111 -7037733.961381815 -7037734.184219184 84 0
70 011111111110001111011111 -7037733.938669399 -7037734.197378406 93 0
71 011101111111001111011111 -7037733.966705088 -7037734.226350325 78 0
72 011111011111101101011111 -7037733.967439873 -7037734.22906659 78 0
73 011111011011011111011111 -7037733.9618863445 -7037734.230186854 85 0
74 011101111111001111011111 -7037733.966705088 -7037734.226350325 78 0
75 011111101111001111011111 -7037733.966705088 -7037734.230423279 88 0
76 011111011111011011011111 -7037733.961886337 -7037734.230186912 85 0
77 011111011101001111111111 -7037733.9674375355 -7037734.222490656 78 0
78 011101011111101111011111 -7037733.9667050885 -7037734.226350349 78 0
79 011111011111101111010111 -7037733.942396412 -7037734.1998853665 90 0
80 111011011111001111011111 -7037733.966994236 -7037734.234157221 78 0
81 011111011111101110011111 -7037733.943225966 -7037734.191857301 105 0
82 011101011111001111111111 -7037733.967437537 -7037734.227417149 79 0
83 011111110111001111011111 -7037733.942751105 -7037734.211880255 99 0
84 011111011111101111010111 -7037733.942396412 -7037734.1998853665 90 0
85 011111111111001101011111 -7037733.9669844 -7037734.244503493 89 0
86 111111011111001011011111 -7037733.961790185 -7037734.202285465 84 0
87 011111011111101110011111 -7037733.943225966 -7037734.191857301 105 0
88 011111011110011111011111 -7037733.939357651 -7037734.234242351 86 0
89 011011111111001111011111 -7037733.962119926 -7037734.196119323 85 0
90 011111111110001111011111 -7037733.938669399 -7037734.197378406 93 0
91 011111111111001011011111 -7037733.961790187 -7037734.21110496 84 0
92 011111011111101110011111 -7037733.943225966 -7037734.191857301 105 0
93 011111011101011111011111 -7037733.967649441 -7037734.252038864 87 0
94 111011011111001111011111 -7037733.966994236 -7037734.234157221 78 0
95 011011011111101111011111 -7037733.961381815 -7037734.184219184 84 0
96 010111011111001111111111 -7037733.942403247 -7037734.206990099 92 0
97 011111111111001111001111 -7037733.961812712 -7037734.200652705 90 0
98 011111011111001101111111 -7037733.967439872 -7037734.229066593 78 0
99 011111011110001111111111 -7037733.9390863115 -7037734.19043552 96 0
100 011110111111001111011111 -7037733.940090311 -7037734.193606278 81 0
101 011111011110101111011111 -7037733.940983247 -7037734.201368026 102 0
102 011111011111011101011111 -7037733.967649435 -7037734.253709786 87 1
103 011111011111111101011110 -7037733.942403244 -7037734.206990086 92 0
104 011111011111011110011111 -7037733.944200926 -7037734.23680032 87 0
105 011111011111011110011111 -7037733.944200926 -7037734.23680032 87 0
106 011111111101011101011111 -7037733.967437537 -7037734.232897944 88 0
107 011111001111011111011111 -7037733.967649435 -7037734.252038827 87 0
108 011110011111111101011111 -7037733.943843721 -7037734.191824842 94 0
109 011011011111011111011111 -7037733.961886337 -7037734.230186896 85 0
110 011111011111111101011011 -7037733.962119919 -7037734.197900099 90 0
111 111011011111011101011111 -7037733.966994232 -7037734.23216186 84 0
112 011111011110011101111111 -7037733.938376363 -7037734.199574324 96 0
113 010111011111011111011111 -7037733.943240289 -7037734.23259473 87 0
114 011111111111011101011101 -7037733.961812712 -7037734.198161382 88 0
115 001111011111111101011111 -7037733.967437538 -7037734.22741716 79 0
116 011111111111011001011111 -7037733.962523368 -7037734.212247788 86 0
117 111111011111011101010111 -7037733.940090325 -7037734.193606283 81 0
118 011111111111011101011101 -7037733.961812712 -7037734.198161382 88 0
119 011110111111011101011111 -7037733.941984492 -7037734.208547614 90 0
120 011101011111111101011111 -7037733.967642413 -7037734.238442475 90 0
121 011111011011011111011111 -7037733.9618863445 -7037734.230186854 85 0
122 011111011011011101111111 -7037733.961381817 -7037734.184219188 84 0
123 011101011111111101011111 -7037733.967642413 -7037734.238442475 90 0
124 111111011111011101010111 -7037733.940090325 -7037734.193606283 81 0
125 011111111011011101011111 -7037733.966994237 -7037734.234157226 78 0
126 111111001111011101011111 -7037733.967437532 -7037734.224238728 78 0
127 010111011111011101111111 -7037733.942284826 -7037734.194452791 88 0
128 011111011110011111011111 -7037733.939357651 -7037734.234242351 86 0
129 011111111111011101010111 -7037733.94076648 -7037734.18246709 91 0
130 011111010111111101011111 -7037733.944063606 -7037734.198831497 94 0
131 011111011110011101111111 -7037733.938376363 -7037734.199574324 96 0
132 010111011111111101011111 -7037733.943488514 -7037734.18500232 104 0
133 011111111111011001011111 -7037733.962523368 -7037734.212247788 86 0
134 011110011111111101011111 -7037733.943843721 -7037734.191824842 94 0
135 101111011111011101011111 -7037733.9667050885 -7037734.226350348 78 0
136 011111011111111101011101 -7037733.962119926 -7037734.183917023 101 0
137 011111111111011101010111 -7037733.94076648 -7037734.18246709 91 0
138 011111011110111101011111 -7037733.941467432 -7037734.212397536 88 0
139 011111011111111101011011 -7037733.962119919 -7037734.197900099 90 0
140 011111011111011101110111 -7037733.9404486315 -7037734.174352292 85 0
141 011101111111011101011111 -7037733.966906961 -7037734.237671771 93 0
142 010111011111111101011111 -7037733.943488514 -7037734.18500232 104 0
143 011111011011111101011111 -7037733.9620307945 -7037734.193867728 83 0
144 011111111111011001011111 -7037733.962523368 -7037734.212247788 86 0
145 001111011111111101011111 -7037733.967437538 -7037734.22741716 79 0
146 101111011111011101011111 -7037733.9667050885 -7037734.226350348 78 0
147 011011011111011101111111 -7037733.961381811 -7037734.193675244 84 0
148 011111011110011111011111 -7037733.939357651 -7037734.234242351 86 0
149 011011011111111101011111 -7037733.9620307945 -7037734.183981125 83 0
150 011101111111011101011111 -7037733.966906961 -7037734.237671771 93 0
151 011111011110011111011111 -7037733.939357651 -7037734.234242351 86 0
152 011111011011011101111111 -7037733.961381817 -7037734.184219188 84 0
153 011111011111011111011110 -7037733.943240294 -7037734.232594756 87 0
154 011111011111011111011110 -7037733.943240294 -7037734.232594756 87 0
155 011101111111011101011111 -7037733.966906961 -7037734.237671771 93 0
156 011111011111011101101111 -7037733.966300727 -7037734.2185982 78 0
157 011111011101111101011111 -7037733.967437538 -7037734.232056158 80 0
158 111111011110011101011111 -7037733.940254394 -7037734.2179625835 89 0
159 111111011110011101011111 -7037733.940254394 -7037734.2179625835 89 0
160 011111011111111001011111 -7037733.96768163 -7037734.236359546 78 0
161 011111011111010101111111 -7037733.940983245 -7037734.201368008 102 0
162 011111011111111101010111 -7037733.940934984 -7037734.185080907 80 0
163 011111001111011101111111 -7037733.966705088 -7037734.22275463 78 0
164 011011011111011101111111 -7037733.961381811 -7037734.193675244 84 0
165 011111011111011101101111 -7037733.966300727 -7037734.2185982 78 0
166 011111011111110101011111 -7037733.93908631 -7037734.190435517 96 0
167 001111011111011101111111 -7037733.966705088 -7037734.226350345 78 0
168 011111111111011001011111 -7037733.962523368 -7037734.212247788 86 0
169 011111011111011101101111 -7037733.966300727 -7037734.2185982 78 0
170 011111011101011111011111 -7037733.967649441 -7037734.252038864 87 0
171 101111011111011101011111 -7037733.9667050885 -7037734.226350348 78 0
172 011111111111011101011101 -7037733.961812712 -7037734.198161382 88 0
173 111011011111011101011111 -7037733.966994232 -7037734.23216186 84 0
174 011111011111010101111111 -7037733.940983245 -7037734.201368008 102 0
175 011111011111011001111111 -7037733.962119919 -7037734.199098684 83 0
176 011111001111011101111111 -7037733.966705088 -7037734.22275463 78 0
177 011111011101111101011111 -7037733.967437538 -7037734.232056158 80 0
178 011011011111111101011111 -7037733.9620307945 -7037734.183981125 83 0
179 011111011101011101111111 -7037733.966705088 -7037734.229646756 89 0
180 011111011011011111011111 -7037733.9618863445 -7037734.230186854 85 0
181 011111011111011100111111 -7037733.942438934 -7037734.210630985 103 0
182 011111111110011101011111 -7037733.938328812 -7037734.207997702 95 0
183 011111011111011101110111 -7037733.9404486315 -7037734.174352292 85 0
184 001111111111011101011111 -7037733.967437537 -7037734.227417154 79 0
185 011101011111111101011111 -7037733.967642413 -7037734.238442475 90 0
186 111111011111011101011011 -7037733.961790181 -7037734.21110495 84 0
187 111111011111011101011011 -7037733.961790181 -7037734.21110495 84 0
188 011111011111111101010111 -7037733.940934984 -7037734.185080907 80 0
189 011111011111011101111101 -7037733.962119925 -7037734.184774047 92 0
190 111111011111011101010111 -7037733.940090325 -7037734.193606283 81 0
191 011111011011111101011111 -7037733.9620307945 -7037734.193867728 83 0
192 011111011111011001111111 -7037733.962119919 -7037734.199098684 83 0
193 010111011111011101111111 -7037733.942284826 -7037734.194452791 88 0
194 011110011111011111011111 -7037733.943592062 -7037734.21471256 85 0
195 011011011111011101111111 -7037733.961381811 -7037734.193675244 84 0
196 011111111111010101011111 -7037733.940960703 -7037734.210397517 94 0
197 011111111111010101011111 -7037733.940960703 -7037734.210397517 94 0
198 011111011110111101011111 -7037733.941467432 -7037734.212397536 88 0
199 011111111111011101011110 -7037733.942416664 -7037734.204081222 92 0
