0 110110111010111111011111 -7037733.8919875715 -7037734.131800475 24
1 110110111001111111011111 -7037733.916543886 -7037734.143356107 27
2 110110111010111111011111 -7037733.8919875715 -7037734.131800475 24
3 110110111101111111011011 -7037733.910646137 -7037734.094275724 27
4 110110111011111111011110 -7037733.891962857 -7037734.131043542 28
5 110111111001111111011110 -7037733.916408867 -7037734.16399419 30
6 110111111001111111001111 -7037733.94126943 -7037734.164459698 30
7 110111101101111111001111 -7037733.944063608 -7037734.175953029 27
8 110111101011111111001111 -7037733.940529466 -7037734.18390942 28
9 110111101011111101101111 -7037733.940449016 -7037734.1639113445 30
10 110111101011111110101111 -7037733.911209344 -7037734.14881576 27
11 110111101111111111001101 -7037733.943273815 -7037734.183558207 25
12 011111101111111111001101 -7037733.966705088 -7037734.185860245 26
13 011111101111011111011101 -7037733.966705088 -7037734.186892754 28
14 111111101111011111011001 -7037733.96228433 -7037734.1460211575 26
15 011111101111111110011101 -7037733.9396603145 -7037734.166294816 27
16 011111111101011111011101 -7037733.967642417 -7037734.201717418 29
17 011111111101011111010111 -7037733.943661238 -7037734.151160268 25
18 011111111101111111010101 -7037733.942906582 -7037734.158746729 41
19 011111111111011011011101 -7037733.961790187 -7037734.152403822 25
20 011111111111011111010101 -7037733.9432626795 -7037734.156938669 23
21 011111110101111111011101 -7037733.938244595 -7037734.169024244 30
22 011111111101011101111101 -7037733.962373951 -7037734.16676322 22
23 011101111101011111011111 -7037733.962119925 -7037734.147189317 28
24 111111111101011111001101 -7037733.966984398 -7037734.204166785 26
25 111111111101011110101101 -7037733.940254384 -7037734.194110023 27
26 111101111101011111101101 -7037733.962119923 -7037734.140361456 25
27 111111111110011111001101 -7037733.938517127 -7037734.189130428 25
28 111111111111011011001101 -7037733.9599840185 -7037734.174069967 17
29 111111111111011111001100 -7037733.94075086 -7037734.198337532 28
30 111111011101111111001101 -7037733.96690696 -7037734.200820915 27
31 111111111101011110101101 -7037733.940254384 -7037734.194110023 27
32 111111111101011101101101 -7037733.9617901845 -7037734.154787234 22
33 011111111101111111001101 -7037733.9674375355 -7037734.188220635 26
34 111111111101101111001101 -7037733.961790184 -7037734.144440557 25
35 111111111011011111001101 -7037733.966872341 -7037734.196178338 25
36 111111111111011111000101 -7037733.940383898 -7037734.189048246 24
37 111111111111011101001101 -7037733.959984018 -7037734.174801113 17
38 101111111101011111011101 -7037733.966994234 -7037734.177498233 28
39 111111111100011111001111 -7037733.940442672 -7037734.1668162495 27
40 111111111101111111001100 -7037733.942029464 -7037734.194477853 29
41 111111111111011101001101 -7037733.959984018 -7037734.174801113 17
42 111111011101011111001111 -7037733.9667050885 -7037734.186892869 28
43 111111111101001111101101 -7037733.962523371 -7037734.143329448 24
44 111111111100011111001111 -7037733.940442672 -7037734.1668162495 27
45 111111011101011111101101 -7037733.966705086 -7037734.185860262 26
46 111101111101011111101101 -7037733.962119923 -7037734.140361456 25
47 111111111101011110001111 -7037733.94077424 -7037734.179956631 27
48 111111111111011110001101 -7037733.938882627 -7037734.200376199 28
49 111011111101011111101101 -7037733.966705086 -7037734.194404542 27
50 111111111111011111001001 -7037733.959984018 -7037734.174069954 17
51 111110111101011111001111 -7037733.942319823 -7037734.165473618 20
52 111111111001011111101101 -7037733.9674375355 -7037734.185327754 26
53 111111111101011111101100 -7037733.943273799 -7037734.183558198 25
54 111111011101011111001111 -7037733.9667050885 -7037734.186892869 28
55 111111111101001111001111 -7037733.961654653 -7037734.144134812 25
56 101111111101111111001101 -7037733.966994234 -7037734.174921535 25
57 111111101101011111001111 -7037733.967439872 -7037734.190662464 26
58 111111111111011101001101 -7037733.959984018 -7037734.174801113 17
59 111111111100011111101101 -7037733.940090311 -7037734.169276532 25
60 111111111111010111001101 -7037733.93851711 -7037734.189130478 25
61 111110111101011111101101 -7037733.9411295485 -7037734.185268081 20
62 110111111101011111011101 -7037733.943081137 -7037734.183738504 28
63 111111111101001111001111 -7037733.961654653 -7037734.144134812 25
64 110111111101011111001111 -7037733.942652926 -7037734.174305896 27
65 111111111100111111001101 -7037733.941984478 -7037734.18281474 24
66 110111111101011111001111 -7037733.942652926 -7037734.174305896 27
67 111111011101111111001101 -7037733.96690696 -7037734.200820915 27
68 111111111101111111001001 -7037733.96181271 -7037734.159623953 28
69 111111111101011111101100 -7037733.943273799 -7037734.183558198 25
70 111111111101010111011101 -7037733.941179677 -7037734.173553683 27
71 111111111101001111101101 -7037733.962523371 -7037734.143329448 24
72 011111111101011111101101 -7037733.967642417 -7037734.202102406 27
73 111111111111011101001101 -7037733.959984018 -7037734.174801113 17
74 111111111101011110001111 -7037733.94077424 -7037734.179956631 27
75 111111111101011101011101 -7037733.96181271 -7037734.170535384 23
76 111111111101111110001101 -7037733.940960688 -7037734.189049903 30
77 111111111001011111011101 -7037733.9674375355 -7037734.193569751 27
78 111101111101011111011101 -7037733.962119923 -7037734.155369827 20
79 111111111101001111011101 -7037733.96676586 -7037734.195030935 29
80 111111111101011011011101 -7037733.961790185 -7037734.160237333 31
81 111111111101011111011100 -7037733.942029464 -7037734.196602144 26
82 111111011101011111101101 -7037733.966705086 -7037734.185860262 26
83 101111111111011111001101 -7037733.966872339 -7037734.195346039 25
84 111111111101111110001101 -7037733.940960688 -7037734.189049903 30
85 111011111101011111101101 -7037733.966705086 -7037734.194404542 27
86 111111111110011111001101 -7037733.938517127 -7037734.189130428 25
87 110111111101011111011101 -7037733.943081137 -7037734.183738504 28
88 111101111111011111001101 -7037733.966872341 -7037734.195346139 25
89 111110111101111111001101 -7037733.942226489 -7037734.178525543 24
90 111111111101111101001101 -7037733.962523372 -7037734.15464687 23
91 111111110111011111001101 -7037733.938882627 -7037734.200376151 28
92 111111111101011101001111 -7037733.966580106 -7037734.191337524 24
93 111111011101011111001111 -7037733.9667050885 -7037734.186892869 28
94 111111111101010111101101 -7037733.943042407 -7037734.172394136 24
95 111111011101011111101101 -7037733.966705086 -7037734.185860262 26
96 111111111001011111101101 -7037733.9674375355 -7037734.185327754 26
97 111111111111011111001100 -7037733.94075086 -7037734.198337532 28
98 111111111101011011011101 -7037733.961790185 -7037734.160237333 31
99 111111111101011111011100 -7037733.942029464 -7037734.196602144 26
100 111111110111011111001101 -7037733.938882627 -7037734.200376151 28
101 111111111111010111001101 -7037733.93851711 -7037734.189130478 25
102 111111111111011111000101 -7037733.940383898 -7037734.189048246 24
103 111101111101111111001101 -7037733.962119923 -7037734.139937142 24
104 111111111101011101001111 -7037733.966580106 -7037734.191337524 24
105 111111111101001111001111 -7037733.961654653 -7037734.144134812 25
106 111111111101011011001111 -7037733.962284331 -7037734.146021296 26
107 110111111101011111001111 -7037733.942652926 -7037734.174305896 27
108 111111111101011110001111 -7037733.94077424 -7037734.179956631 27
109 111111111101010111001111 -7037733.940442656 -7037734.164676633 27
110 111111111101111011001101 -7037733.966765862 -7037734.196754847 25
111 110111111101011111101101 -7037733.942751105 -7037734.186594679 27
112 110111111101111111001101 -7037733.943579748 -7037734.176952644 27
113 111101111101011111101101 -7037733.962119923 -7037734.140361456 25
114 111011111101011111101101 -7037733.966705086 -7037734.194404542 27
115 111111111001011111101101 -7037733.9674375355 -7037734.185327754 26
116 111111011101111111001101 -7037733.96690696 -7037734.200820915 27
117 111111110111011111001101 -7037733.938882627 -7037734.200376151 28
118 111111101101011111011101 -7037733.967439869 -7037734.190662481 26
119 111111111101011111001011 -7037733.961554168 -7037734.143101754 29
120 111111111101011111000111 -7037733.942319823 -7037734.163248715 20
121 011111111111011111001101 -7037733.9669844 -7037734.203228263 26
122 111111111101011110011101 -7037733.942789813 -7037734.205749489 31
123 111011111101111110011101 -7037733.941461093 -7037734.187039157 31
124 111111111101011110011011 -7037733.938512386 -7037734.133059655 35
125 110111111101011111011101 -7037733.943081137 -7037734.183738504 28
126 111111111101101110011101 -7037733.942417951 -7037734.180042128 29
127 111101111101011110011111 -7037733.93814411 -7037734.143071451 29
128 111111011101011110011111 -7037733.943383165 -7037734.184612818 28
129 111111110111011110011101 -7037733.915922008 -7037734.176650409 31
130 111111111101111110011001 -7037733.938146217 -7037734.150540675 29
131 111011111101111110011101 -7037733.941461093 -7037734.187039157 31
132 011111111101011111011101 -7037733.967642417 -7037734.201717418 29
133 111110111101011110011111 -7037733.913281858 -7037734.1282901345 31
134 111111111101111110011100 -7037733.916383607 -7037734.195694443 27
135 111111011111011110011101 -7037733.94337527 -7037734.192184867 30
136 111011111101011110111101 -7037733.94134092 -7037734.204490207 30
137 111111111101011111001101 -7037733.966984398 -7037734.204166785 26
138 110111111101011110011111 -7037733.919240469 -7037734.163673351 30
139 111111101111011110011101 -7037733.94077424 -7037734.179250494 27
140 111111111111011110011100 -7037733.91670979 -7037734.189139619 27
141 111111111001011110011111 -7037733.943975249 -7037734.171586272 30
142 011111111101011111011101 -7037733.967642417 -7037734.201717418 29
143 111110111111011110011101 -7037733.911088902 -7037734.142202866 31
144 111011111101011110011111 -7037733.942632722 -7037734.177366112 31
145 111101111101111110011101 -7037733.937317624 -7037734.156363961 30
146 101111111101011110011111 -7037733.943516981 -7037734.166344503 28
147 111111111101011111010101 -7037733.943262679 -7037734.1656061495 20
148 011111111101011110011111 -7037733.943882421 -7037734.192255566 31
149 111011111101011110111101 -7037733.94134092 -7037734.204490207 30
150 111101111111011110011101 -7037733.942122043 -7037734.197722606 31
151 111111111101011010111101 -7037733.936180248 -7037734.165327335 31
152 111111111101010110111101 -7037733.919145633 -7037734.182644378 27
153 111101111101111110011101 -7037733.937317624 -7037734.156363961 30
154 111111111101011111001101 -7037733.966984398 -7037734.204166785 26
155 111111110111011110011101 -7037733.915922008 -7037734.176650409 31
156 111111011101111110011101 -7037733.94252639 -7037734.2010854 30
157 111011111101011111011101 -7037733.966705087 -7037734.192782519 27
158 111111111111011100011101 -7037733.934257947 -7037734.167292584 28
159 110111111101011111011101 -7037733.943081137 -7037734.183738504 28
160 111011111111011110011101 -7037733.94231856 -7037734.184848287 31
161 111110111111011110011101 -7037733.911088902 -7037734.142202866 31
162 101111111101011110011111 -7037733.943516981 -7037734.166344503 28
163 111111101101011110111101 -7037733.941467422 -7037734.189700504 27
164 111011111101011110111101 -7037733.94134092 -7037734.204490207 30
165 111011111101011111011101 -7037733.966705087 -7037734.192782519 27
166 101111111101011110111101 -7037733.943735903 -7037734.178637018 30
167 111111111111011110010101 -7037733.918162822 -7037734.164044686 31
168 111111111101111110011100 -7037733.916383607 -7037734.195694443 27
169 111111101111011110011101 -7037733.94077424 -7037734.179250494 27
170 111111111101011011011101 -7037733.961790185 -7037734.160237333 31
171 111111011111011110011101 -7037733.94337527 -7037734.192184867 30
172 111111111111011100011101 -7037733.934257947 -7037734.167292584 28
173 111111111101010110011111 -7037733.917354721 -7037734.16336646 26
174 111111111110011110011101 -7037733.914522558 -7037734.180618289 31
175 111101111101011111011101 -7037733.962119923 -7037734.155369827 20
176 111110111101011110011111 -7037733.913281858 -7037734.1282901345 31
177 111111111101011111011100 -7037733.942029464 -7037734.196602144 26
178 111111111101111110001101 -7037733.940960688 -7037734.189049903 30
179 111111111111011110011001 -7037733.937869993 -7037734.152777219 31
180 111110111111011110011101 -7037733.911088902 -7037734.142202866 31
181 111111111001011110011111 -7037733.943975249 -7037734.171586272 30
182 111111111011011110011101 -7037733.943274498 -7037734.178950537 31
183 011111111101011111011101 -7037733.967642417 -7037734.201717418 29
184 111111111100011111011101 -7037733.939448939 -7037734.189617555 27
185 110111111101011110111101 -7037733.918500562 -7037734.18720167 29
186 111111011111011110011101 -7037733.94337527 -7037734.192184867 30
187 111111111101011110111100 -7037733.917922194 -7037734.195633782 30
188 111111111101011110111001 -7037733.943515101 -7037734.194956878 30
189 111111111111011010011101 -7037733.935585824 -7037734.155439739 35
190 111101111101011110111101 -7037733.937527136 -7037734.163879463 30
191 111111011111011110011101 -7037733.94337527 -7037734.192184867 30
192 011111111101011110111101 -7037733.942538682 -7037734.215931397 26
193 010111111101111110111101 -7037733.918500562 -7037734.187201691 29
194 001111111101011110111111 -7037733.943409681 -7037734.193186967 31
195 011111110101111110111101 -7037733.9145287005 -7037734.171993374 29
196 010111111111011110111101 -7037733.916713723 -7037734.190392912 30
197 011101111101111110111101 -7037733.935976567 -7037734.169989309 30
198 011111111100011110111111 -7037733.913363919 -7037734.172598523 32
199 011111111101110110111101 -7037733.919145633 -7037734.1826443635 27
