0 000100000000100001100000 -7919657.092604684 -7919657.2559992485 25
1 000101000000100001000000 -7919657.108307108 -7919657.245678885 15
2 000100010000100001000000 -7919657.091609252 -7919657.265914988 23
3 000100000000100001010000 -7919657.091203214 -7919657.263380498 24
4 000100010010000001000000 -7919657.0907077445 -7919657.284463011 27
5 000000010010010001000000 -7919657.090599787 -7919657.252729917 23
6 000100010000010001000000 -7919657.091339383 -7919657.256209741 19
7 001000010010000001000000 -7919657.109846103 -7919657.294101737 29
8 000000110010000001000000 -7919657.091027317 -7919657.271056371 27
9 000000010010001001000000 -7919657.1102906335 -7919657.287975021 27
10 000000010010000001010000 -7919657.089128357 -7919657.265421481 27
11 001100000010000001000000 -7919657.111827639 -7919657.297659823 28
12 001100000000000001010000 -7919657.110383419 -7919657.28939875 26
13 101100000000000001000000 -7919657.10835357 -7919657.273716328 26
14 001100000000000001000100 -7919657.110028443 -7919657.27604343 23
15 000101000010000001000000 -7919657.107760805 -7919657.263188539 27
16 001100000010010000000000 -7919657.092885645 -7919657.257961312 23
17 000100000010000001001000 -7919657.111781414 -7919657.2844149405 28
18 001100000010000000100000 -7919657.092869867 -7919657.248580857 22
19 000100000010000001100000 -7919657.092885639 -7919657.259302544 25
20 001000000010000011000000 -7919657.1117837755 -7919657.281883582 22
21 000100000010000101000000 -7919657.092836729 -7919657.27762432 27
22 001000000010010001000000 -7919657.111714018 -7919657.271167828 19
23 001000010010000001000000 -7919657.109846103 -7919657.294101737 29
24 000100000010000101000000 -7919657.092836729 -7919657.27762432 27
25 001100000000000001000001 -7919657.129096321 -7919657.306978751 24
26 001100010000000000000001 -7919657.110718714 -7919657.287650055 24
27 001000000100000001000001 -7919657.128636969 -7919657.298565657 24
28 100100000000000001000001 -7919657.107191962 -7919657.239695493 24
29 001000000000100001000001 -7919657.130883552 -7919657.308008254 26
30 001000000000100001010000 -7919657.1103243185 -7919657.300979345 27
31 011000000000100000000001 -7919657.111613846 -7919657.269259643 19
32 001000000000000001000011 -7919657.13098313 -7919657.312986744 27
33 001100000000000001000010 -7919657.112025587 -7919657.290672875 27
34 000000000000000001010011 -7919657.11053988 -7919657.296020097 28
35 010000000000000001000011 -7919657.112644954 -7919657.278404413 26
36 000000000000000001000111 -7919657.113234461 -7919657.305535102 28
37 001000000000001000000011 -7919657.126186837 -7919657.248312037 24
38 000100000000000001000011 -7919657.111071032 -7919657.296002109 26
39 001000000001000001000001 -7919657.143754413 -7919657.275135124 26
40 001000000000000100000011 -7919657.110323334 -7919657.286805237 23
41 001000100000000000000011 -7919657.111849408 -7919657.275769439 26
42 001100000000000001000010 -7919657.112025587 -7919657.290672875 27
43 001000000000000001100010 -7919657.111658152 -7919657.2773830015 27
44 001000000000000001010001 -7919657.128694865 -7919657.299750231 26
45 000000010000000001000011 -7919657.110957408 -7919657.286543983 27
46 001000000000000001000101 -7919657.128636969 -7919657.298565616 24
47 001000000000000000000111 -7919657.110718786 -7919657.287650074 24
48 001000000000000001000110 -7919657.110331816 -7919657.280321347 27
49 011000000000000000000011 -7919657.111779795 -7919657.264347265 24
50 011000000000000000000011 -7919657.111779795 -7919657.264347265 24
51 001000001000000001000001 -7919657.147706852 -7919657.321067589 22
52 011000001000000001000000 -7919657.1306480905 -7919657.301517244 19
53 001000010000000001000001 -7919657.128694865 -7919657.299750194 26
54 001000001000100000000001 -7919657.130162539 -7919657.295906903 24
55 001000001001000001000000 -7919657.14770688 -7919657.323409531 23
56 001100001001000000000000 -7919657.130914945 -7919657.30323156 16
57 001000001001100000000000 -7919657.1291969735 -7919657.303090459 24
58 001100001001000000000000 -7919657.130914945 -7919657.30323156 16
59 001000000001000001000010 -7919657.13008794 -7919657.3042286225 19
60 001000000001000001000010 -7919657.13008794 -7919657.3042286225 19
61 001000001000100001000000 -7919657.130883537 -7919657.306691741 23
62 001000001100000001000000 -7919657.128476825 -7919657.29373614 24
63 011000001001000000000000 -7919657.131307004 -7919657.3064519055 16
64 000000011001000001000000 -7919657.128636955 -7919657.298565721 24
65 001000000001000001100000 -7919657.1295923125 -7919657.299331093 23
66 001000101000000001000000 -7919657.130309889 -7919657.297420266 23
67 011000001000000001000000 -7919657.1306480905 -7919657.301517244 19
68 001000001000000001001000 -7919657.143754378 -7919657.275411998 17
69 000000101001000001000000 -7919657.130983125 -7919657.312986731 27
70 101000000001000001000000 -7919657.1285785455 -7919657.310135862 27
71 000000001001100001000000 -7919657.128694867 -7919657.299750202 26
72 001000001001000000000010 -7919657.129128747 -7919657.300788275 24
73 001000011001000000000000 -7919657.131647074 -7919657.316013545 24
74 011000000001000001000000 -7919657.129437736 -7919657.292176423 15
75 101000001001000000000000 -7919657.1291969735 -7919657.303090459 24
76 000000001001000001010000 -7919657.128636955 -7919657.298565729 24
77 001000001001000000000010 -7919657.129128747 -7919657.300788275 24
78 001000001000100001000000 -7919657.130883537 -7919657.306691741 23
79 011000001000000001000000 -7919657.1306480905 -7919657.301517244 19
80 000000001001000011000000 -7919657.130883537 -7919657.3080081865 26
81 001000000001000001100000 -7919657.1295923125 -7919657.299331093 23
82 000000001001000101000000 -7919657.130096506 -7919657.290802784 23
83 001000001000001001000000 -7919657.144367285 -7919657.27865929 23
84 001000000001000001000010 -7919657.13008794 -7919657.3042286225 19
85 001000010001000001000000 -7919657.128039441 -7919657.298333673 26
86 001000001000000001000100 -7919657.128476825 -7919657.293736162 24
87 000000001001000001000100 -7919657.130648086 -7919657.299390462 19
88 000000001001000011000000 -7919657.130883537 -7919657.3080081865 26
89 001000100001000001000000 -7919657.1295923125 -7919657.299331059 23
90 101000001000000001000000 -7919657.130883537 -7919657.306691775 23
91 000000001001000101000000 -7919657.130096506 -7919657.290802784 23
92 000100001001000001000000 -7919657.130096506 -7919657.290802759 23
93 011000000001000001000000 -7919657.129437736 -7919657.292176423 15
94 001000001010000001000000 -7919657.12863696 -7919657.300631345 24
95 001000001000000001100000 -7919657.130309889 -7919657.297420162 23
96 000001001001000001000000 -7919657.14436728 -7919657.2773444075 16
97 000000001001010001000000 -7919657.130162544 -7919657.295906909 24
98 001000000001010001000000 -7919657.129437736 -7919657.292176423 15
99 001000000001000011000000 -7919657.130221029 -7919657.305450369 19
100 001000001000000001001000 -7919657.143754378 -7919657.275411998 17
101 001000001000000001000001 -7919657.147706852 -7919657.321067589 22
102 001000001001000000000001 -7919657.144367314 -7919657.277344375 16
103 001000001000100001000000 -7919657.130883537 -7919657.306691741 23
104 101000001001000000000000 -7919657.1291969735 -7919657.303090459 24
105 001000001001000000000001 -7919657.144367314 -7919657.277344375 16
106 001000001001000000001000 -7919657.144367314 -7919657.280653586 15
107 000000001001000001001000 -7919657.143754378 -7919657.275135113 26
108 001000101001000000000000 -7919657.131647074 -7919657.317584161 24
109 011000001001000000000000 -7919657.131307004 -7919657.3064519055 16
110 000000001011000001000000 -7919657.129096327 -7919657.306978717 24
111 011000001001000000000000 -7919657.131307004 -7919657.3064519055 16
112 101000001001000000000000 -7919657.1291969735 -7919657.303090459 24
113 001000001000000001000100 -7919657.128476825 -7919657.293736162 24
114 001010000001000001000000 -7919657.130221029 -7919657.305450345 19
115 000000001011000001000000 -7919657.129096327 -7919657.306978717 24
116 001000000001000001001000 -7919657.14645424 -7919657.319639376 12
117 000000001001000001001000 -7919657.143754378 -7919657.275135113 26
118 011000001001000000000000 -7919657.131307004 -7919657.3064519055 16
119 001000000001100001000000 -7919657.1285785455 -7919657.310135898 27
120 000000001001000101000000 -7919657.130096506 -7919657.290802784 23
121 001000001001001000000000 -7919657.144367314 -7919657.276267884 17
122 001000000001000101000000 -7919657.130087908 -7919657.30490424 16
123 001000000011000001000000 -7919657.13008794 -7919657.304228653 19
124 000001001001000001000000 -7919657.14436728 -7919657.2773444075 16
125 001000000001010001000000 -7919657.129437736 -7919657.292176423 15
126 001000000001000011000000 -7919657.130221029 -7919657.305450369 19
127 001000001000000101000000 -7919657.13074837 -7919657.302175499 23
128 001100001001000000000000 -7919657.130914945 -7919657.30323156 16
129 001000001100000001000000 -7919657.128476825 -7919657.29373614 24
130 001000000001001001000000 -7919657.143754413 -7919657.275412122 17
131 001001001001000000000000 -7919657.148957916 -7919657.331139854 9
132 001001001000100000000000 -7919657.131306988 -7919657.306451906 16
133 001001000011000000000000 -7919657.131307004 -7919657.3064519055 16
134 001001000001000000000001 -7919657.144367314 -7919657.276267858 17
135 001010001001000000000000 -7919657.130972192 -7919657.301154895 16
136 000011001001000000000000 -7919657.131647071 -7919657.317584161 24
137 011000001001000000000000 -7919657.131307004 -7919657.3064519055 16
138 001000001001000000010000 -7919657.131647074 -7919657.316013516 24
139 001001000001000000000010 -7919657.131307004 -7919657.306451951 16
140 000001101001000000000000 -7919657.131647071 -7919657.316013523 24
141 000001001001000000010000 -7919657.130914942 -7919657.3032315625 16
142 011001000001000000000000 -7919657.129128747 -7919657.300788234 24
143 001000101001000000000000 -7919657.131647074 -7919657.317584161 24
144 001001001000000000000010 -7919657.1291970005 -7919657.303090477 24
145 100001001001000000000000 -7919657.12912873 -7919657.300788329 24
146 001000001001000000000001 -7919657.144367314 -7919657.277344375 16
147 101001001000000000000000 -7919657.131306988 -7919657.306451906 16
148 001000001001000001000000 -7919657.14770688 -7919657.323409531 23
149 001001001000010000000000 -7919657.129646267 -7919657.30944922 16
150 001001101000000000000000 -7919657.130972189 -7919657.301154859 16
151 001001001000000100000000 -7919657.131647071 -7919657.316013524 24
152 000001001001000000010000 -7919657.130914942 -7919657.3032315625 16
153 001001000001000000000100 -7919657.1291969735 -7919657.303090505 24
154 001000011001000000000000 -7919657.131647074 -7919657.316013545 24
155 001000001101000000000000 -7919657.12964624 -7919657.309449207 16
156 001000001001000001000000 -7919657.14770688 -7919657.323409531 23
157 001011001000000000000000 -7919657.130914942 -7919657.3032315625 16
158 001000101001000000000000 -7919657.131647074 -7919657.317584161 24
159 001001001000000000001000 -7919657.14436728 -7919657.2773444075 16
160 010001001001000000000000 -7919657.1291970005 -7919657.303090444 24
161 001000001001000100000000 -7919657.130914945 -7919657.303231559 16
162 011001001000000000000000 -7919657.129646267 -7919657.309449206 16
163 001001001000001000000000 -7919657.14436728 -7919657.280653586 15
164 001001010001000000000000 -7919657.130972192 -7919657.301154895 16
165 000001001001000000100000 -7919657.131647071 -7919657.31601352 24
166 101001000001000000000000 -7919657.12964624 -7919657.309449207 16
167 101001001000000000000000 -7919657.131306988 -7919657.306451906 16
168 000001001001000100000000 -7919657.130972189 -7919657.301154895 16
169 001000101001000000000000 -7919657.131647074 -7919657.317584161 24
170 001000001001010000000000 -7919657.131307004 -7919657.306451909 16
171 001001000001000000010000 -7919657.130972192 -7919657.301154895 16
172 001001000001000000010000 -7919657.130972192 -7919657.301154895 16
173 001001000101000000000000 -7919657.1291969735 -7919657.3030904895 24
174 001001001000000000000001 -7919657.147706848 -7919657.323409528 23
175 000001001001000001000000 -7919657.14436728 -7919657.2773444075 16
176 001101000001000000000000 -7919657.131647074 -7919657.317584219 24
177 000011001001000000000000 -7919657.131647071 -7919657.317584161 24
178 000001001001010000000000 -7919657.1291970005 -7919657.303090482 24
179 001001000001001000000000 -7919657.144367314 -7919657.277344375 16
180 000001011001000000000000 -7919657.130914942 -7919657.303231562 16
181 001001000001010000000000 -7919657.129128747 -7919657.300788212 24
182 001001001000000000100000 -7919657.130972189 -7919657.301154895 16
183 101000001001000000000000 -7919657.1291969735 -7919657.303090459 24
184 001011001000000000000000 -7919657.130914942 -7919657.3032315625 16
185 001100001001000000000000 -7919657.130914945 -7919657.30323156 16
186 101001001000000000000000 -7919657.131306988 -7919657.306451906 16
187 001000001001000000001000 -7919657.144367314 -7919657.280653586 15
188 010001001001000000000000 -7919657.1291970005 -7919657.303090444 24
189 001000001001000010000000 -7919657.130972192 -7919657.301154895 16
190 001001001000000000000001 -7919657.147706848 -7919657.323409528 23
191 001000001001000001000000 -7919657.14770688 -7919657.323409531 23
192 001001001000010000000000 -7919657.129646267 -7919657.30944922 16
193 001001101000000000000000 -7919657.130972189 -7919657.301154859 16
194 001001001000000010000000 -7919657.130914942 -7919657.303231477 16
195 001001000101000000000000 -7919657.1291969735 -7919657.3030904895 24
196 001001001000000100000000 -7919657.131647071 -7919657.316013524 24
197 001001000001000000001000 -7919657.14770688 -7919657.323409523 23
198 011000001001000000000000 -7919657.131307004 -7919657.3064519055 16
199 101001001000000000000000 -7919657.131306988 -7919657.306451906 16
