0 111111110110010011100101 -7214118.395000385 -7214118.66219087 26
1 111111110110110011100100 -7214118.371203412 -7214118.640330004 28
2 111111110011010011100101 -7214118.42078773 -7214118.68173277 27
3 111111110111000011100101 -7214118.412874502 -7214118.676596153 24
4 111111010011010011100111 -7214118.414503078 -7214118.630499324 30
5 111111110001010111100101 -7214118.424492246 -7214118.703262452 30
6 111111100011010111100101 -7214118.425900654 -7214118.7356852405 30
7 111111100011100111100101 -7214118.420148717 -7214118.709936981 24
8 111111100011010011101101 -7214118.448823022 -7214118.742068089 30
9 111111000011010011111101 -7214118.440300358 -7214118.665460895 32
10 111111000011011011101101 -7214118.467350187 -7214118.711732616 29
11 111111100011010011111001 -7214118.449353005 -7214118.717157086 27
12 111111100011010111101001 -7214118.4547263915 -7214118.780772816 31
13 111111100011000111101011 -7214118.449721089 -7214118.764468628 22
14 111111110011000111101001 -7214118.449108581 -7214118.7458689455 20
15 111111100011010011111001 -7214118.449353005 -7214118.717157086 27
16 111111100011011111001001 -7214118.472942204 -7214118.7814187305 31
17 111011100011111111001001 -7214118.473605918 -7214118.775005208 26
18 011111100011011111001011 -7214118.475318078 -7214118.768138212 35
19 111111100010011111011001 -7214118.4465683 -7214118.747908107 22
20 111011100011011111001101 -7214118.479180982 -7214118.809121861 30
21 111011100011011111100101 -7214118.450265434 -7214118.746138345 30
22 101011101011011111001101 -7214118.497749313 -7214118.773255336 25
23 111001101011011111001101 -7214118.502628242 -7214118.803966637 28
24 111011100011011111011001 -7214118.473003226 -7214118.742486653 31
25 111011101011011111001001 -7214118.498398134 -7214118.779459837 27
26 111011110011010111001101 -7214118.453238887 -7214118.7719100285 30
27 101011101011011111001101 -7214118.497749313 -7214118.773255336 25
28 101011100011011111001111 -7214118.475633429 -7214118.783597783 31
29 111101100011011111001101 -7214118.477945857 -7214118.79650332 33
30 111011000111011111001101 -7214118.47969953 -7214118.813251575 26
31 111011001111010111001101 -7214118.4764199015 -7214118.797983126 27
32 111011000111011111011001 -7214118.4727669805 -7214118.743466947 30
33 111001000111111111001101 -7214118.479385261 -7214118.7999465 29
34 111011000111011111000111 -7214118.4527997095 -7214118.7630675705 31
35 111011001011011111001101 -7214118.497794184 -7214118.78043187 30
36 111011000111001111011101 -7214118.478008567 -7214118.794396157 27
37 111101000111011111001101 -7214118.4796995 -7214118.812202417 30
38 111001000111011111101101 -7214118.478153049 -7214118.792327499 27
39 110011000111011111001111 -7214118.459544182 -7214118.812966377 31
40 101011000111011111101101 -7214118.472446446 -7214118.765385318 28
41 111011001101011111001101 -7214118.503941042 -7214118.822044266 23
42 111011000101011111101101 -7214118.476331639 -7214118.802230885 24
43 101111001101011111001101 -7214118.4981131945 -7214118.780437104 26
44 111011001111011111001100 -7214118.478738135 -7214118.803853968 26
45 111111001101001111001101 -7214118.4990046965 -7214118.787816635 25
46 111111001001011111001101 -7214118.499004697 -7214118.790693634 28
47 111011001101011110011101 -7214118.478999835 -7214118.807461553 26
48 111011001101011111101100 -7214118.478553129 -7214118.800661707 24
49 111001001101111111001101 -7214118.498560559 -7214118.777191663 26
50 111011101101011011001101 -7214118.499004697 -7214118.791330539 27
51 111011011101001111001101 -7214118.497162181 -7214118.764169212 30
52 111011001100011111101101 -7214118.478408866 -7214118.785146512 25
53 111011001101111011001101 -7214118.503739955 -7214118.816492103 24
54 111011001100011111101101 -7214118.478408866 -7214118.785146512 25
55 111011011101011111001001 -7214118.497162182 -7214118.769221849 31
56 101111001101011111001101 -7214118.4981131945 -7214118.780437104 26
57 111011001101011111000111 -7214118.480709657 -7214118.791015071 19
58 110011001101111111001101 -7214118.4819209725 -7214118.809760744 27
59 111011000101011111011101 -7214118.476317145 -7214118.798053277 26
60 110011001101111111001101 -7214118.4819209725 -7214118.809760744 27
61 111011011101011111000101 -7214118.480181278 -7214118.785006879 37
62 111011001101011111100101 -7214118.480581515 -7214118.788265622 25
63 111011001111011101001101 -7214118.497901021 -7214118.767063677 26
64 111011100101011111001101 -7214118.477103907 -7214118.80910686 28
65 111101001101011111001101 -7214118.498451877 -7214118.781156429 28
66 111010001101011111001111 -7214118.480840366 -7214118.78617402 28
67 111011100101011111001101 -7214118.477103907 -7214118.80910686 28
68 111011001111001111001101 -7214118.497901019 -7214118.778068038 24
69 111011001101001111001111 -7214118.497534963 -7214118.773792757 31
70 111010001101011111011101 -7214118.480938011 -7214118.794726626 27
71 111011000101011111001111 -7214118.479224422 -7214118.809618426 29
72 111011001101011111001110 -7214118.4782947395 -7214118.799748697 26
73 111111001101011111000101 -7214118.481905415 -7214118.812441976 30
74 111011001111001111001101 -7214118.497901019 -7214118.778068038 24
75 111111001101011110001101 -7214118.47762489 -7214118.823090809 27
76 111110001101011110001111 -7214118.447718437 -7214118.735108056 34
77 111111101101010110001101 -7214118.452281275 -7214118.7959778095 27
78 111111001101010110001111 -7214118.448824233 -7214118.78739276 27
79 110111001101111110001101 -7214118.4540144615 -7214118.792525483 22
80 111111101001011110001101 -7214118.477103869 -7214118.809106748 28
81 111111001101011100011101 -7214118.473779628 -7214118.783073872 27
82 111111001101010110001111 -7214118.448824233 -7214118.78739276 27
83 111111100101011110001101 -7214118.449759755 -7214118.809442913 24
84 101111011101011110001101 -7214118.47839594 -7214118.80206501 29
85 111111001101011111001001 -7214118.499004697 -7214118.794503736 25
86 111110001101011111001101 -7214118.481922022 -7214118.80454916 28
87 111111001111011110001001 -7214118.4713455625 -7214118.770862953 30
88 111111001101111010001101 -7214118.47669357 -7214118.804354766 26
89 111101001101011110011101 -7214118.473776653 -7214118.782033662 29
90 111111001001011110001111 -7214118.4706391655 -7214118.761092858 30
91 111111001100011111001101 -7214118.47995031 -7214118.8133961875 26
92 111111000101011110101101 -7214118.449117514 -7214118.80099614 23
93 101111001101011110011101 -7214118.473012043 -7214118.762647384 30
94 111111011101011100001101 -7214118.473448457 -7214118.789152597 27
95 111111001111010110001101 -7214118.449178182 -7214118.792418236 28
96 111111001001111110001101 -7214118.471247593 -7214118.777585196 27
97 111111001101111110000101 -7214118.453725131 -7214118.800179388 27
98 111111001101011010011101 -7214118.473380423 -7214118.774169093 30
99 111111001110011110001101 -7214118.451670358 -7214118.791092642 27
100 111011001101011110101101 -7214118.476458171 -7214118.806299072 27
101 111111001101011110011100 -7214118.456782429 -7214118.816559577 27
102 111111011001011110001101 -7214118.473739929 -7214118.772942349 30
103 111111001101001110001111 -7214118.470639262 -7214118.764208836 28
104 011111001101011110101101 -7214118.477837766 -7214118.82785551 25
105 011111001101001110101111 -7214118.471195908 -7214118.766287981 30
106 011111001101011100101111 -7214118.475901636 -7214118.804116028 30
107 011111001100011110111101 -7214118.451078259 -7214118.804226992 28
108 011110001111011110101101 -7214118.448174943 -7214118.753577436 38
109 011111001101011110111001 -7214118.479699569 -7214118.813251482 26
110 011111000101011110101111 -7214118.451366123 -7214118.80938326 31
111 011111001101001110111101 -7214118.479699605 -7214118.812202331 30
112 001111011101011110101101 -7214118.479224497 -7214118.811813211 30
113 011111011101011110001101 -7214118.480410585 -7214118.831758531 29
114 011101011101011111001101 -7214118.499004697 -7214118.790832931 26
115 011011011101011110101101 -7214118.473667394 -7214118.783623097 32
116 011111011001011110011101 -7214118.477125675 -7214118.784171838 33
117 011111011101011110000111 -7214118.45615119 -7214118.78296423 34
118 011111011101011110011001 -7214118.477125675 -7214118.784171832 33
119 011111111101011100001101 -7214118.473709976 -7214118.796672814 29
120 011101011101011110101101 -7214118.473794092 -7214118.786008812 26
121 011110011101011110001111 -7214118.450811719 -7214118.7484327955 30
122 011011011101011111001101 -7214118.4981131945 -7214118.78641711 32
123 001111011101011110001111 -7214118.478823909 -7214118.805328247 30
124 011111011101011110000111 -7214118.45615119 -7214118.78296423 34
125 111111011101010110001101 -7214118.451568861 -7214118.79165679 28
126 011111001101011110101101 -7214118.477837766 -7214118.82785551 25
127 111111011101011100001101 -7214118.473448457 -7214118.789152597 27
128 110111011101011110001101 -7214118.4563127 -7214118.800448576 27
129 011111011101011110100101 -7214118.4564124765 -7214118.789943467 35
130 001111111101011110001101 -7214118.479699605 -7214118.812202321 30
131 011110011101111110001101 -7214118.450771357 -7214118.757675368 31
132 111111011001011110001101 -7214118.473739929 -7214118.772942349 30
133 011111011001011110011101 -7214118.477125675 -7214118.784171838 33
134 011111010101011110011101 -7214118.454826542 -7214118.814484818 34
135 011111011101011111001100 -7214118.482370501 -7214118.8246329315 26
136 011111011111011110001100 -7214118.457431329 -7214118.81089237 29
137 011101111101011110001101 -7214118.473794092 -7214118.787320152 29
138 011111011111010110001101 -7214118.452530226 -7214118.801274049 27
139 011111101101011110001101 -7214118.477837766 -7214118.827855561 25
140 011110011101011110101101 -7214118.4500577105 -7214118.771337346 29
141 011111011101011110000111 -7214118.45615119 -7214118.78296423 34
142 011111111101011010001101 -7214118.473770682 -7214118.79101028 29
143 011111011101011110000111 -7214118.45615119 -7214118.78296423 34
144 111111011101010110001101 -7214118.451568861 -7214118.79165679 28
145 011111011101111010001101 -7214118.478999835 -7214118.807461551 26
146 011101011101011110001111 -7214118.473763442 -7214118.772895695 27
147 010111011101011111001101 -7214118.48213587 -7214118.821189176 29
148 011111011101101110001101 -7214118.473012043 -7214118.762647277 30
149 011111011101011110010101 -7214118.459580261 -7214118.80457111 35
150 111111001101011110001101 -7214118.47762489 -7214118.823090809 27
151 111111011101011110001001 -7214118.473739848 -7214118.779782854 28
152 011111011011011110001101 -7214118.47331614 -7214118.765555216 36
153 011111011101011110011001 -7214118.477125675 -7214118.784171832 33
154 011111111001011110001101 -7214118.479699569 -7214118.813251557 26
155 011011011101011110001111 -7214118.4733656915 -7214118.764067792 33
156 001111011101111110001101 -7214118.47883836 -7214118.809854997 30
157 001111011101111110001101 -7214118.47883836 -7214118.809854997 30
158 111111011101001110001101 -7214118.473739854 -7214118.773208086 30
159 011111011101011110100101 -7214118.4564124765 -7214118.789943467 35
160 011111011001011110101101 -7214118.474032739 -7214118.771673509 30
161 011110011101011110101101 -7214118.4500577105 -7214118.771337346 29
162 011111011101011111000101 -7214118.481973112 -7214118.802052331 34
163 010111011101111110001101 -7214118.4563220125 -7214118.799062254 30
164 011111111101010110001101 -7214118.454417268 -7214118.809185636 26
165 011111011111011100001101 -7214118.474436201 -7214118.786127017 27
166 011111011101011010011101 -7214118.476736476 -7214118.789870382 34
167 011111011001011110001111 -7214118.473402489 -7214118.75846349 30
168 111111011101010110001101 -7214118.451568861 -7214118.79165679 28
169 011101011101011110001111 -7214118.473763442 -7214118.772895695 27
170 011110011101011110011101 -7214118.45310291 -7214118.781011073 28
171 010111011101011110101101 -7214118.456374289 -7214118.809313785 29
172 011111011101011010101101 -7214118.473851405 -7214118.77931884 30
173 111101011101011110001101 -7214118.473779628 -7214118.780777533 30
174 010111011101011111001101 -7214118.48213587 -7214118.821189176 29
175 011111011101110110001101 -7214118.451687766 -7214118.79013423 28
176 011111001111011110001101 -7214118.477609988 -7214118.821214272 28
177 011111011101011111000101 -7214118.481973112 -7214118.802052331 34
178 111111011100011110001101 -7214118.453188402 -7214118.807345844 27
179 011111111101011110000101 -7214118.456626871 -7214118.796915716 35
180 011111001111011110001101 -7214118.477609988 -7214118.821214272 28
181 011011011101011110011101 -7214118.476736476 -7214118.789870435 34
182 111110011101011110001101 -7214118.450333294 -7214118.759724938 30
183 011111011101011100011101 -7214118.476838304 -7214118.804430198 30
184 011111001101011111001101 -7214118.505263062 -7214118.841847196 23
185 011111001111011110001101 -7214118.477609988 -7214118.821214272 28
186 011111010101011111001101 -7214118.477610086 -7214118.821214349 28
187 011111001101011110101101 -7214118.477837766 -7214118.82785551 25
188 011111011001011111001101 -7214118.498451877 -7214118.78413311 30
189 011111001001111111001101 -7214118.499004697 -7214118.794503747 25
190 111011001101011111001101 -7214118.503941042 -7214118.822044266 23
191 011101001101011111011101 -7214118.499004697 -7214118.79566098 28
192 011011001101111111001101 -7214118.499004697 -7214118.787384857 26
193 010111001101011111011101 -7214118.48213587 -7214118.821189273 29
194 011111001100111111001101 -7214118.47995031 -7214118.813396165 26
195 011111011101001111001101 -7214118.4990046965 -7214118.78634142 27
196 011111001101010111101101 -7214118.479950381 -7214118.813396217 26
197 011111001100111111001101 -7214118.47995031 -7214118.813396165 26
198 011111001101111111001001 -7214118.499004697 -7214118.790693615 28
199 011111001101111101001101 -7214118.498451877 -7214118.781156332 28
