0 010111101111111111111011 -6978939.10907797 -6978939.306856529 27
1 011111101111011111111011 -6978939.137173401 -6978939.311681123 29
2 111111101111011110111011 -6978939.111331288 -6978939.29339153 27
3 011111111111011111101011 -6978939.136348125 -6978939.318897186 25
4 111111110111011111101011 -6978939.110130448 -6978939.31931792 31
5 101111110111111111101011 -6978939.110074089 -6978939.325566164 27
6 101111110111110111101111 -6978939.086080586 -6978939.315710248 30
7 101111111111111111101010 -6978939.1129830275 -6978939.3116329275 27
8 101111110111101111101111 -6978939.106664615 -6978939.289986199 26
9 101111110111011111111011 -6978939.112413535 -6978939.300001429 23
10 101110110111111111111011 -6978939.0855894005 -6978939.281686458 30
11 111111110111110111101011 -6978939.085729145 -6978939.301369842 24
12 100111111111111111101011 -6978939.109351345 -6978939.3116942905 24
13 111011110111111111101011 -6978939.111894198 -6978939.301354665 20
14 101111110011111111101111 -6978939.111109415 -6978939.328890372 26
15 101111111011111101101111 -6978939.137769162 -6978939.308952818 27
16 101111111011111111101101 -6978939.138192684 -6978939.314315404 23
17 111111110011111110101111 -6978939.08640632 -6978939.285426653 32
18 111111110011111111101101 -6978939.111027622 -6978939.309323117 27
19 101111111011110111101111 -6978939.11272835 -6978939.314272966 25
20 100111110011111111111111 -6978939.083287413 -6978939.304747691 27
21 101111110001111111111111 -6978939.108962204 -6978939.314844391 21
22 101111110011111111111110 -6978939.08651666 -6978939.309163879 27
23 101111110111101111101111 -6978939.106664615 -6978939.289986199 26
24 111111110010111111101111 -6978939.087282217 -6978939.303909982 23
25 101111111011111011101111 -6978939.137979048 -6978939.321445831 27
26 101111110011110111111111 -6978939.086342481 -6978939.305306876 26
27 101111110111011111101111 -6978939.111621038 -6978939.323201465 27
28 111110110011111111101111 -6978939.088866522 -6978939.284464904 21
29 101111110111111111101110 -6978939.088591099 -6978939.300399059 28
30 101111110011111111011111 -6978939.110942984 -6978939.326620937 24
31 111111110011111111001111 -6978939.111781554 -6978939.328671691 27
32 101111111011111111001111 -6978939.137979048 -6978939.330229543 18
33 101111110011111111011111 -6978939.110942984 -6978939.326620937 24
34 101111111111111101001111 -6978939.13797912 -6978939.3174566105 22
35 111111111011101111001111 -6978939.132403303 -6978939.2864512615 20
36 101110111111111111001111 -6978939.111692063 -6978939.291798944 26
37 111111111011101111001111 -6978939.132403303 -6978939.2864512615 20
38 101111111011111101011111 -6978939.137979048 -6978939.321445864 27
39 101111111001111111011111 -6978939.13797906 -6978939.324593498 19
40 101111111011111111010111 -6978939.111781547 -6978939.328671543 27
41 101111111011110111101111 -6978939.11272835 -6978939.314272966 25
42 101111110011111111011111 -6978939.110942984 -6978939.326620937 24
43 101111111011111011011111 -6978939.137769162 -6978939.309372842 27
44 111111111011111111000111 -6978939.1109429905 -6978939.326621006 24
45 111111111001111111001111 -6978939.137979048 -6978939.321445862 27
46 101111101011111111011111 -6978939.132403303 -6978939.286451257 20
47 111111111011111111001101 -6978939.137373969 -6978939.3304307815 19
48 111111111011111111101100 -6978939.1137745865 -6978939.320039639 30
49 111111111111111111001100 -6978939.110671822 -6978939.328919974 24
50 111111101111111111001101 -6978939.137478959 -6978939.328926489 26
51 101111111111111111001101 -6978939.137373981 -6978939.321608869 20
52 111110101111111111101101 -6978939.113512755 -6978939.300031753 26
53 111111101011111111011101 -6978939.13616536 -6978939.3170783855 27
54 111101101111111111101101 -6978939.138009304 -6978939.303341545 23
55 111111101111101111011101 -6978939.136165372 -6978939.314621568 24
56 111111101111111111011001 -6978939.132403303 -6978939.277605229 20
57 111110101111111111101101 -6978939.113512755 -6978939.300031753 26
58 111111101110111111011101 -6978939.111894198 -6978939.30135463 20
59 011111101111111111101101 -6978939.137513442 -6978939.320464592 26
60 111111101111111101011101 -6978939.132403375 -6978939.266117476 20
61 111111001111111111101101 -6978939.138386855 -6978939.322379229 24
62 111111101110111111011101 -6978939.111894198 -6978939.30135463 20
63 111111101110111111101101 -6978939.11376921 -6978939.29134522 23
64 011111101111111111011101 -6978939.13616536 -6978939.308612967 24
65 111111101111111111011001 -6978939.132403303 -6978939.277605229 20
66 111111001111111111001111 -6978939.138285615 -6978939.340193374 25
67 111111011111111110001111 -6978939.111849453 -6978939.307294449 30
68 111011101111111111001111 -6978939.138167073 -6978939.3231281005 25
69 111111001111111110101111 -6978939.109465338 -6978939.30217999 30
70 111111001111011111011111 -6978939.138386784 -6978939.321670229 26
71 111111001101111111101111 -6978939.137478959 -6978939.328926563 26
72 111011001111111111101111 -6978939.138167073 -6978939.329461977 25
73 111111101101111111001111 -6978939.138386855 -6978939.322379218 24
74 111110001111111111011111 -6978939.114219052 -6978939.296033442 22
75 110111001111111111101111 -6978939.113099247 -6978939.323869856 27
76 111111010111111111001111 -6978939.112073385 -6978939.337469738 27
77 111111001011111111011111 -6978939.132561492 -6978939.29316423 20
78 111111101111111111001011 -6978939.132561465 -6978939.292894686 29
79 101111001111111111101111 -6978939.132561562 -6978939.2950131465 22
80 111111101101111111001111 -6978939.138386855 -6978939.322379218 24
81 111111011111101111001111 -6978939.13256149 -6978939.290847067 24
82 111111101111111111000111 -6978939.110165138 -6978939.32907479 19
83 111111000111111111011111 -6978939.112073385 -6978939.337469762 27
84 111111011111111111000111 -6978939.11044819 -6978939.3265106045 22
85 110111011111111111001111 -6978939.113867907 -6978939.311615686 26
86 111111101111111101001111 -6978939.138167073 -6978939.320337238 20
87 110111001111111111011111 -6978939.113867907 -6978939.311615641 26
88 111111001111111011011111 -6978939.138042479 -6978939.311551913 29
89 111111100111111111001111 -6978939.112239238 -6978939.339247142 30
90 111111011111111111001101 -6978939.137478886 -6978939.335285216 25
91 111111101110111111001111 -6978939.11402041 -6978939.311551988 27
92 111111001110111111101111 -6978939.11402041 -6978939.31155194 27
93 111111001111111101101111 -6978939.138042479 -6978939.30995342 19
94 111111001111111111011011 -6978939.133372292 -6978939.288891642 19
95 111111001111111110101111 -6978939.109465338 -6978939.30217999 30
96 111111001111111101101111 -6978939.138042479 -6978939.30995342 19
97 111111001111111110101111 -6978939.109465338 -6978939.30217999 30
98 111111001110111111101111 -6978939.11402041 -6978939.31155194 27
99 111111011111111111000111 -6978939.11044819 -6978939.3265106045 22
100 111111011110111111001111 -6978939.113417629 -6978939.32560428 29
101 110111011111111111001111 -6978939.113867907 -6978939.311615686 26
102 111111001101111111101111 -6978939.137478959 -6978939.328926563 26
103 110111011111111111001111 -6978939.113867907 -6978939.311615686 26
104 111111011101111111001111 -6978939.1372603625 -6978939.325900905 29
105 111111001111111101101111 -6978939.138042479 -6978939.30995342 19
106 111111001011111111101111 -6978939.132561465 -6978939.292894825 29
107 111111001111111111011110 -6978939.111796723 -6978939.325348223 29
108 101111001111111111101111 -6978939.132561562 -6978939.2950131465 22
109 111011001111111111011111 -6978939.138167073 -6978939.320098423 21
110 111111000111111111101111 -6978939.112239238 -6978939.339247131 30
111 111011001111111111101111 -6978939.138167073 -6978939.329461977 25
112 111111101111111101001111 -6978939.138167073 -6978939.320337238 20
113 111111010111111111001111 -6978939.112073385 -6978939.337469738 27
114 111111011011111111001111 -6978939.133372292 -6978939.288891623 19
115 111111011110111111001111 -6978939.113417629 -6978939.32560428 29
116 111101001111111111011111 -6978939.138167073 -6978939.329462028 25
117 111101001111111111101111 -6978939.138167073 -6978939.320337221 20
118 101111101111111111001111 -6978939.133372362 -6978939.287056099 22
119 111111011111011111001111 -6978939.137478888 -6978939.3278436065 27
120 111111101111111111000111 -6978939.110165138 -6978939.32907479 19
121 111111011111110111001111 -6978939.108721596 -6978939.303328865 23
122 011111011111111111001111 -6978939.138386784 -6978939.321670212 26
123 111101001111111111101111 -6978939.138167073 -6978939.320337221 20
124 111111101111111111000111 -6978939.110165138 -6978939.32907479 19
125 111110001111111111011111 -6978939.114219052 -6978939.296033442 22
126 111111001111111111100111 -6978939.110165138 -6978939.32907479 19
127 111111001111111111011011 -6978939.133372292 -6978939.288891642 19
128 111111101111111111000111 -6978939.110165138 -6978939.32907479 19
129 111111001111101111101111 -6978939.133372362 -6978939.2870561 22
130 111101101111111111001111 -6978939.138042479 -6978939.309953422 19
131 111011001111111111101111 -6978939.138167073 -6978939.329461977 25
132 011111001111111111011111 -6978939.137478888 -6978939.327843561 27
133 110111011111111111001111 -6978939.113867907 -6978939.311615686 26
134 111111011111101111001111 -6978939.13256149 -6978939.290847067 24
135 111111001111111111011101 -6978939.1372603625 -6978939.325900918 29
136 110111001111111111011111 -6978939.113867907 -6978939.311615641 26
137 111111101011111111001111 -6978939.137260336 -6978939.333845748 24
138 011111011111111111001111 -6978939.138386784 -6978939.321670212 26
139 111111011011111111001111 -6978939.133372292 -6978939.288891623 19
140 111110001111111111101111 -6978939.114219052 -6978939.295225119 26
141 111111101111111111001011 -6978939.132561465 -6978939.292894686 29
142 111111101111111111001101 -6978939.137478959 -6978939.328926489 26
143 111111001111111110011111 -6978939.111849453 -6978939.307294556 30
144 011111001111111111101111 -6978939.137478861 -6978939.335849687 29
145 111111001111110111011111 -6978939.108721596 -6978939.303328877 23
146 111111001011111111011111 -6978939.132561492 -6978939.29316423 20
147 111111101111111101001111 -6978939.138167073 -6978939.320337238 20
148 111111001111111110101111 -6978939.109465338 -6978939.30217999 30
149 111111001111111110011111 -6978939.111849453 -6978939.307294556 30
150 111111010111111111001111 -6978939.112073385 -6978939.337469738 27
151 111111001111101111011111 -6978939.1372603625 -6978939.333424737 23
152 111111010111111111001111 -6978939.112073385 -6978939.337469738 27
153 111111001110111111101111 -6978939.11402041 -6978939.31155194 27
154 111111101111111111001101 -6978939.137478959 -6978939.328926489 26
155 111111001101111111101111 -6978939.137478959 -6978939.328926563 26
156 111111101101111111001111 -6978939.138386855 -6978939.322379218 24
157 111111101111111111001110 -6978939.113241119 -6978939.319830742 27
158 111110001111111111011111 -6978939.114219052 -6978939.296033442 22
159 110111101111111111001111 -6978939.113099247 -6978939.32386986 27
160 111111101011111111001111 -6978939.137260336 -6978939.333845748 24
161 111111001111111110011111 -6978939.111849453 -6978939.307294556 30
162 111111011101111111001111 -6978939.1372603625 -6978939.325900905 29
163 011111001111111111101111 -6978939.137478861 -6978939.335849687 29
164 111111001111111111010111 -6978939.11044819 -6978939.326510605 22
165 111111001111110111101111 -6978939.109945403 -6978939.314369781 24
166 111111011110111111001111 -6978939.113417629 -6978939.32560428 29
167 111011101111111111001111 -6978939.138167073 -6978939.3231281005 25
168 111011101111111111001111 -6978939.138167073 -6978939.3231281005 25
169 111011011111111111001111 -6978939.138042479 -6978939.31155189 29
170 111111001111111111011110 -6978939.111796723 -6978939.325348223 29
171 111111101111111011001111 -6978939.138167073 -6978939.329462043 25
172 111111101111111111001101 -6978939.137478959 -6978939.328926489 26
173 111110001111111111101111 -6978939.114219052 -6978939.295225119 26
174 111111011111111110001111 -6978939.111849453 -6978939.307294449 30
175 111110001111111111101111 -6978939.114219052 -6978939.295225119 26
176 111111011111111111001110 -6978939.111796723 -6978939.3253482375 29
177 111111001111111111101011 -6978939.137260336 -6978939.333845845 24
178 011111001111111111011111 -6978939.137478888 -6978939.327843561 27
179 111111001111101111011111 -6978939.1372603625 -6978939.333424737 23
180 111111101111111111000111 -6978939.110165138 -6978939.32907479 19
181 111111001111111111101101 -6978939.138386855 -6978939.322379229 24
182 111111011111011111001111 -6978939.137478888 -6978939.3278436065 27
183 111111001111111111011101 -6978939.1372603625 -6978939.325900918 29
184 111111010111111111001111 -6978939.112073385 -6978939.337469738 27
185 111111001111111101101111 -6978939.138042479 -6978939.30995342 19
186 111111101111111111001110 -6978939.113241119 -6978939.319830742 27
187 111011101111111111001111 -6978939.138167073 -6978939.3231281005 25
188 111111000111111111101111 -6978939.112239238 -6978939.339247131 30
189 111111001111111111100111 -6978939.110165138 -6978939.32907479 19
190 111111011101111111001111 -6978939.1372603625 -6978939.325900905 29
191 011111001111111111101111 -6978939.137478861 -6978939.335849687 29
192 111011001111111111101111 -6978939.138167073 -6978939.329461977 25
193 111111101111111111001110 -6978939.113241119 -6978939.319830742 27
194 011111001111111111011111 -6978939.137478888 -6978939.327843561 27
195 101111011111111111001111 -6978939.1372603625 -6978939.333424739 23
196 101111001111111111101111 -6978939.132561562 -6978939.2950131465 22
197 011111011111111111001111 -6978939.138386784 -6978939.321670212 26
198 111111001111111111100111 -6978939.110165138 -6978939.32907479 19
199 111111101011111111001111 -6978939.137260336 -6978939.333845748 24
