0 101100011001001001100101 -7508092.800290275 -7508093.01684812 27
1 100100011001001011100101 -7508092.784683985 -7508093.023424364 26
2 100100011001001011100011 -7508092.782628072 -7508093.034946712 30
3 101100001001001011100011 -7508092.802459646 -7508093.022107385 30
4 100100111001001011100010 -7508092.765803032 -7508093.075196774 29
5 100110011001001011100010 -7508092.76720602 -7508093.067291839 28
6 100100111001011001100010 -7508092.770103345 -7508093.124204254 31
7 110100111001011001100000 -7508092.768838227 -7508093.114591517 31
8 100100111011001001100010 -7508092.769552349 -7508093.138702027 28
9 100100011011011001100010 -7508092.770013185 -7508093.113696861 31
10 100100110011011001100010 -7508092.750098764 -7508093.121525816 35
11 100100111101001001100010 -7508092.766015027 -7508093.073619295 31
12 100100111001001001110010 -7508092.769729431 -7508093.127321574 28
13 000100111011001001110010 -7508092.775022579 -7508093.166965287 26
14 000100110111001001110010 -7508092.751371402 -7508093.101407015 28
15 000100111011001001101010 -7508092.793930475 -7508093.134901926 25
16 000100111010001001110011 -7508092.772749756 -7508093.185724069 26
17 000100110010001001110111 -7508092.749182468 -7508093.118247982 24
18 000100011010001101110011 -7508092.772507207 -7508093.178167095 25
19 000100111010001001100111 -7508092.76883594 -7508093.134270785 25
20 000100111010101001110001 -7508092.774463952 -7508093.181176387 24
21 001100011010001001110011 -7508092.792983018 -7508093.162825341 24
22 000100111010001001111010 -7508092.76972162 -7508093.128037119 25
23 100100111010001000110011 -7508092.749018148 -7508093.12799176 25
24 000110101010001001110011 -7508092.768650717 -7508093.131186018 27
25 001100110010001001110011 -7508092.77231975 -7508093.138823126 28
26 000100110010001011110011 -7508092.749059684 -7508093.118461685 30
27 000100011010011001110011 -7508092.769182189 -7508093.123620376 26
28 010100111010001001010011 -7508092.769170214 -7508093.124366232 24
29 010100111000001001110011 -7508092.768650717 -7508093.1237366395 26
30 000100110010001011110011 -7508092.749059684 -7508093.118461685 30
31 000000111010001101110011 -7508092.772749756 -7508093.185723818 26
32 000001101010001101110011 -7508092.791238418 -7508093.155699121 23
33 010000101010001101110011 -7508092.773263519 -7508093.163945813 27
34 100000101010001101110011 -7508092.774699338 -7508093.184820378 25
35 000000111010001111010011 -7508092.769378776 -7508093.134553955 30
36 000100011010001101110011 -7508092.772507207 -7508093.178167095 25
37 000000110011001101110011 -7508092.772112727 -7508093.13703746 30
38 000000111010011101100011 -7508092.772823756 -7508093.156168343 24
39 000000111110001101100011 -7508092.768390564 -7508093.132400795 24
40 000000111010001101110101 -7508092.769378807 -7508093.129117916 28
41 000000111000001101110111 -7508092.769631368 -7508093.141657821 26
42 001000111010001101100011 -7508092.791283509 -7508093.148636944 26
43 000000111000001101110111 -7508092.769631368 -7508093.141657821 26
44 001000111000001101110011 -7508092.792548451 -7508093.1583385095 25
45 000001111010001101110010 -7508092.769203806 -7508093.123237113 26
46 000000111010011101010011 -7508092.769182189 -7508093.1240357375 26
47 000000111010101101100011 -7508092.769408548 -7508093.140292213 24
48 000000111010001011110011 -7508092.770279982 -7508093.146313058 28
49 000000011010001101111011 -7508092.793098146 -7508093.161079145 24
50 000100111010001101010011 -7508092.772507207 -7508093.17816722 25
51 000000110010001101110111 -7508092.750017106 -7508093.126744458 27
52 000000111011001001110011 -7508092.793658695 -7508093.179715653 25
53 010000111010001101110010 -7508092.746080168 -7508093.102008854 24
54 010000011010001101110011 -7508092.768972157 -7508093.1226095045 25
55 000010111010000101110011 -7508092.749229667 -7508093.131392565 30
56 000100110010001101110011 -7508092.752187671 -7508093.166161068 26
57 000000111010001111110001 -7508092.774099186 -7508093.162028638 28
58 000000111000001111110011 -7508092.769180083 -7508093.129902473 28
59 000000111010001101101011 -7508092.791955972 -7508093.148011168 24
60 000001111010001101110001 -7508092.790902996 -7508093.135880221 25
61 000001111010001101110010 -7508092.769203806 -7508093.123237113 26
62 000100111010001101100011 -7508092.771337827 -7508093.167291088 24
63 000000011010001111110011 -7508092.7698313985 -7508093.133735109 27
64 000000111011001101100011 -7508092.791713621 -7508093.157278719 27
65 000100111010001101010011 -7508092.772507207 -7508093.17816722 25
66 000100111000001101110011 -7508092.771992767 -7508093.16459849 25
67 000000011110001101110011 -7508092.774412009 -7508093.173088173 25
68 100000111010001101010011 -7508092.77543176 -7508093.193400713 27
69 100000011010011101010011 -7508092.77168676 -7508093.13194577 28
70 000000111010011101010011 -7508092.769182189 -7508093.1240357375 26
71 000000111010001101010111 -7508092.775191966 -7508093.179578548 25
72 100000111110001101010001 -7508092.771608333 -7508093.1387216225 28
73 000001111010001101010011 -7508092.791882223 -7508093.155891653 25
74 100100111010001001010011 -7508092.770565279 -7508093.154447294 25
75 100001011010001101010011 -7508092.7944957 -7508093.1661294745 29
76 100000111010001101110001 -7508092.7749023605 -7508093.182126049 25
77 000000111010001101110011 -7508092.772749756 -7508093.185723818 26
78 000000111010001111010011 -7508092.769378776 -7508093.134553955 30
79 110000111010000101010011 -7508092.749222695 -7508093.121078364 24
80 100100111010001101000011 -7508092.769408127 -7508093.146232439 26
81 100000101010101101010011 -7508092.77241751 -7508093.154701214 27
82 100000011011001101010011 -7508092.792242021 -7508093.148310057 27
83 100100111010001001010011 -7508092.770565279 -7508093.154447294 25
84 100000111010101100010011 -7508092.751304545 -7508093.127198711 31
85 100000111000001111010011 -7508092.771003132 -7508093.136914121 31
86 101000111000001101010011 -7508092.794808524 -7508093.171214731 27
87 100000111010001001011011 -7508092.796544948 -7508093.1800170215 25
88 110000101010001101010011 -7508092.776354028 -7508093.167893032 28
89 010000111010001101010011 -7508092.769182189 -7508093.123620461 26
90 100000110011001101010011 -7508092.772455346 -7508093.1435327055 30
91 100000111010001001011011 -7508092.796544948 -7508093.1800170215 25
92 100000011011001101010011 -7508092.792242021 -7508093.148310057 27
93 100001111010001101010010 -7508092.771811877 -7508093.139529566 24
94 000100111010001101010011 -7508092.772507207 -7508093.17816722 25
95 100000111010001101011010 -7508092.77243 -7508093.143964824 23
96 100000101010001101110011 -7508092.774699338 -7508093.184820378 25
97 101000111010001100010011 -7508092.774591587 -7508093.1483595325 31
98 100000111000001111010011 -7508092.771003132 -7508093.136914121 31
99 100100111010001101000011 -7508092.769408127 -7508093.146232439 26
100 110000111010001101010001 -7508092.771663288 -7508093.1395369265 27
101 000000111010001101011011 -7508092.793098146 -7508093.162070394 25
102 100000111011001100010011 -7508092.771660565 -7508093.131655767 29
103 100000111010101001010011 -7508092.778880356 -7508093.20999328 27
104 110000111010100001010011 -7508092.752546779 -7508093.134929795 23
105 100000111010111000010011 -7508092.753954872 -7508093.125064948 31
106 100100111000101001010011 -7508092.772101528 -7508093.14568737 27
107 110000101010101001010011 -7508092.779800988 -7508093.185482778 27
108 100000111000111001010011 -7508092.77463177 -7508093.151028555 27
109 100000011010101011010011 -7508092.774877911 -7508093.154570949 30
110 100000111010011001010011 -7508092.772507935 -7508093.146323146 28
111 100010111010101001010010 -7508092.750106572 -7508093.135819718 29
112 100000111011101001000011 -7508092.793646107 -7508093.177734604 27
113 100000011010101001110011 -7508092.778880356 -7508093.209993378 27
114 100000011110100001110011 -7508092.757748118 -7508093.179964009 23
115 100000110010101001110011 -7508092.75952038 -7508093.203407931 26
116 100000011010100011110011 -7508092.752628312 -7508093.146207009 27
117 100000011010001001110111 -7508092.77236557 -7508093.143553672 26
118 100001011010101001010011 -7508092.797621702 -7508093.173823044 27
119 100000011010100001110111 -7508092.752821928 -7508093.14460966 25
120 110000010010101001110011 -7508092.755745523 -7508093.138506541 28
121 100001010010101001110011 -7508092.778000928 -7508093.166394229 30
122 000100011010101001110011 -7508092.77543176 -7508093.193400697 27
123 100001010010101001110011 -7508092.778000928 -7508093.166394229 30
124 100000001010101001111011 -7508092.798620983 -7508093.181864231 25
125 100000011000101001111011 -7508092.7981821 -7508093.183439386 25
126 100000010010101001110111 -7508092.755741604 -7508093.143174046 28
127 100000111010101001010011 -7508092.778880356 -7508093.20999328 27
128 100000111010111001010010 -7508092.750424478 -7508093.139920397 24
129 000000111110101001010011 -7508092.77236557 -7508093.143553732 26
130 110000111000101001010011 -7508092.774775158 -7508093.150646042 30
131 000000111010101101010011 -7508092.769810421 -7508093.145409329 28
132 100000111011101001000011 -7508092.793646107 -7508093.177734604 27
133 000000111010101001010111 -7508092.777181831 -7508093.18018617 24
134 100000110010111001010011 -7508092.755745523 -7508093.138506471 28
135 000100111010101001010011 -7508092.77464767 -7508093.182208331 25
136 100000111000101001011011 -7508092.798080094 -7508093.177523096 24
137 100001110010101001010011 -7508092.778000928 -7508093.166394218 30
138 100000111011100001010011 -7508092.77135673 -7508093.162244812 28
139 100000111000101011010011 -7508092.774004696 -7508093.148517204 32
140 100000111000101001110011 -7508092.778694728 -7508093.210820508 26
141 100000111100101001100011 -7508092.774224696 -7508093.137956637 28
142 100010111000101000110011 -7508092.758690409 -7508093.169977525 42
143 110000111000101000110011 -7508092.753956314 -7508093.142534252 25
144 100000110000101001110111 -7508092.752843202 -7508093.135715051 27
145 100000011100101001110011 -7508092.779093959 -7508093.178978271 27
146 100000111000101011010011 -7508092.774004696 -7508093.148517204 32
147 100010101000101001110011 -7508092.780209931 -7508093.197382088 26
148 100000111100101001010011 -7508092.774176469 -7508093.138876179 26
149 100000111000101001110110 -7508092.750132896 -7508093.134519803 28
150 100010111000101001110001 -7508092.779854244 -7508093.194520252 26
151 100000101010101001110011 -7508092.778932382 -7508093.212442693 24
152 101000101010101001100011 -7508092.797868117 -7508093.189338497 30
153 100000101001101001110011 -7508092.793926543 -7508093.184165783 27
154 100000001010101011110011 -7508092.775149188 -7508093.163181652 28
155 100100101000101001110011 -7508092.772344181 -7508093.145564024 27
156 000000101011101001110011 -7508092.79312989 -7508093.185540407 26
157 100000001010101001110111 -7508092.775342338 -7508093.1572408285 25
158 101000101010101001100011 -7508092.797868117 -7508093.189338497 30
159 100000101010100001110111 -7508092.7551995125 -7508093.150052271 24
160 100010101010101001010011 -7508092.774775158 -7508093.153821833 25
161 110000100010101001110011 -7508092.760732364 -7508093.181989598 24
162 100001101010101000110011 -7508092.778958611 -7508093.183018542 25
163 101000101010001001110011 -7508092.794937561 -7508093.173196196 25
164 100010001010101001110011 -7508092.774775158 -7508093.163467973 31
165 100100101010101000110011 -7508092.748380285 -7508093.120638456 27
166 100000101110101001110010 -7508092.749909237 -7508093.123808124 25
167 100000101011101001110010 -7508092.774064251 -7508093.198295599 25
168 000000101010111001110011 -7508092.7723353 -7508093.152704902 23
169 110000101010101001110010 -7508092.75534169 -7508093.1763272155 25
170 100000110010101001110011 -7508092.75952038 -7508093.203407931 26
171 110000101010100001110011 -7508092.760010134 -7508093.182090575 23
172 100000101010101101110001 -7508092.772150066 -7508093.141525738 28
173 100000101010100011110011 -7508092.754994912 -7508093.157147584 28
174 000000101010101001111011 -7508092.795884234 -7508093.174986389 23
175 100000101010101001110110 -7508092.7501031365 -7508093.129298333 26
176 100000101110001001110011 -7508092.772321675 -7508093.148023637 27
177 100000001010111001110011 -7508092.775396643 -7508093.153457396 24
178 110000101010100001110011 -7508092.760010134 -7508093.182090575 23
179 100000101010111000110011 -7508092.751683172 -7508093.135006598 25
180 100000101010101011110001 -7508092.779394464 -7508093.187523281 28
181 100000101010101011010011 -7508092.774224695 -7508093.15493872 28
182 100000101010001001111011 -7508092.795826536 -7508093.169203994 25
183 101000100010101001110011 -7508092.778367321 -7508093.174964752 28
184 100001001010101001110011 -7508092.797425273 -7508093.1759966295 25
185 100000100010111001110011 -7508092.755796344 -7508093.142397119 25
186 100010101010101000110011 -7508092.751342061 -7508093.130524261 29
187 100000110010101001110011 -7508092.75952038 -7508093.203407931 26
188 100000111010101001110010 -7508092.754306654 -7508093.195254213 23
189 100000101010111001110010 -7508092.750398578 -7508093.141082863 28
190 100000101010001011110011 -7508092.772150034 -7508093.149635231 27
191 100000101010101101010011 -7508092.77241751 -7508093.154701214 27
192 100001101010101001110001 -7508092.796620087 -7508093.156932362 26
193 000000101011101001110011 -7508092.79312989 -7508093.185540407 26
194 100001101000101001110011 -7508092.797424523 -7508093.166833219 24
195 100001101010101001110001 -7508092.796620087 -7508093.156932362 26
196 000000101110101001110011 -7508092.77241751 -7508093.150916363 27
197 100000101000101101110011 -7508092.773003838 -7508093.155908402 25
198 100000101000101001110111 -7508092.7755645905 -7508093.155065444 25
199 100000001011101001110011 -7508092.793646107 -7508093.177734747 27
