40
Lattice="7.9515527325 -8.360922734166667 0.0 7.9515527325 8.360922734166667 0.0 0.0 0.0 11.617919659166665" Properties=species:S:1:pos:R:3 pbc="T T T"
Pb       0.00000000       0.00000000       0.00000000
Pb       3.97577637      -4.18046137       0.00000000
Pb       3.97577637       4.18046137       0.00000000
Pb       7.95155273       0.00000000       0.00000000
Pb       0.00000000       0.00000000       5.80895983
Pb       3.97577637      -4.18046137       5.80895983
Pb       3.97577637       4.18046137       5.80895983
Pb       7.95155273       0.00000000       5.80895983
Cl       2.41027649      -1.68518144       0.43856643
Br       1.56549987       2.49527993       0.43856643
Br      -0.57121538      -0.08998890       2.90447991
Br       5.54127624      -6.67574129      -0.43856643
Br       6.38605286      -2.49527993      -0.43856643
Br       4.54699175      -4.27045027       2.90447991
Br       5.54127624       1.68518144      -0.43856643
Br       6.38605286       5.86564281      -0.43856643
Br       4.54699175       4.09047246       2.90447991
Br      10.36182923      -1.68518144       0.43856643
Br       9.51705261       2.49527993       0.43856643
Br       7.38033735      -0.08998890       2.90447991
Br       2.41027649      -1.68518144       5.37039340
Br       1.56549987       2.49527993       5.37039340
Br       0.57121538       0.08998890       8.71343974
Br       5.54127624      -6.67574129       6.24752626
Br       6.38605286      -2.49527993       6.24752626
Br       3.40456098      -4.09047246       8.71343974
Br       5.54127624       1.68518144       6.24752626
Br       6.38605286       5.86564281       6.24752626
Br       3.40456098       4.27045027       8.71343974
Br      10.36182923      -1.68518144       5.37039340
Br       9.51705261       2.49527993       5.37039340
Br       8.52276811       0.08998890       8.71343974
Cs       3.81212024       0.55126405       2.90447991
Cs       8.11520885      -3.62919748       2.90447991
Cs       8.11520885       4.73172526       2.90447991
Cs      11.76367298       0.55126405       2.90447991
Cs       4.13943249      -0.55126405       8.71343974
Cs       7.78789661      -4.73172542       8.71343974
Cs       7.78789661       3.62919732       8.71343974
Cs      12.09098522      -0.55126405       8.71343974
40
Lattice="7.9515527325 -8.360922734166667 0.0 7.9515527325 8.360922734166667 0.0 0.0 0.0 11.617919659166665" Properties=species:S:1:pos:R:3 pbc="T T T"
Pb       0.00000000       0.00000000       0.00000000
Pb       3.97577637      -4.18046137       0.00000000
Pb       3.97577637       4.18046137       0.00000000
Pb       7.95155273       0.00000000       0.00000000
Pb       0.00000000       0.00000000       5.80895983
Pb       3.97577637      -4.18046137       5.80895983
Pb       3.97577637       4.18046137       5.80895983
Pb       7.95155273       0.00000000       5.80895983
Br       2.41027649      -1.68518144       0.43856643
Cl       1.56549987       2.49527993       0.43856643
Br      -0.57121538      -0.08998890       2.90447991
Br       5.54127624      -6.67574129      -0.43856643
Br       6.38605286      -2.49527993      -0.43856643
Br       4.54699175      -4.27045027       2.90447991
Br       5.54127624       1.68518144      -0.43856643
Br       6.38605286       5.86564281      -0.43856643
Br       4.54699175       4.09047246       2.90447991
Br      10.36182923      -1.68518144       0.43856643
Br       9.51705261       2.49527993       0.43856643
Br       7.38033735      -0.08998890       2.90447991
Br       2.41027649      -1.68518144       5.37039340
Br       1.56549987       2.49527993       5.37039340
Br       0.57121538       0.08998890       8.71343974
Br       5.54127624      -6.67574129       6.24752626
Br       6.38605286      -2.49527993       6.24752626
Br       3.40456098      -4.09047246       8.71343974
Br       5.54127624       1.68518144       6.24752626
Br       6.38605286       5.86564281       6.24752626
Br       3.40456098       4.27045027       8.71343974
Br      10.36182923      -1.68518144       5.37039340
Br       9.51705261       2.49527993       5.37039340
Br       8.52276811       0.08998890       8.71343974
Cs       3.81212024       0.55126405       2.90447991
Cs       8.11520885      -3.62919748       2.90447991
Cs       8.11520885       4.73172526       2.90447991
Cs      11.76367298       0.55126405       2.90447991
Cs       4.13943249      -0.55126405       8.71343974
Cs       7.78789661      -4.73172542       8.71343974
Cs       7.78789661       3.62919732       8.71343974
Cs      12.09098522      -0.55126405       8.71343974
40
Lattice="7.9515527325 -8.360922734166667 0.0 7.9515527325 8.360922734166667 0.0 0.0 0.0 11.617919659166665" Properties=species:S:1:pos:R:3 pbc="T T T"
Pb       0.00000000       0.00000000       0.00000000
Pb       3.97577637      -4.18046137       0.00000000
Pb       3.97577637       4.18046137       0.00000000
Pb       7.95155273       0.00000000       0.00000000
Pb       0.00000000       0.00000000       5.80895983
Pb       3.97577637      -4.18046137       5.80895983
Pb       3.97577637       4.18046137       5.80895983
Pb       7.95155273       0.00000000       5.80895983
Br       2.41027649      -1.68518144       0.43856643
Br       1.56549987       2.49527993       0.43856643
Cl      -0.57121538      -0.08998890       2.90447991
Br       5.54127624      -6.67574129      -0.43856643
Br       6.38605286      -2.49527993      -0.43856643
Br       4.54699175      -4.27045027       2.90447991
Br       5.54127624       1.68518144      -0.43856643
Br       6.38605286       5.86564281      -0.43856643
Br       4.54699175       4.09047246       2.90447991
Br      10.36182923      -1.68518144       0.43856643
Br       9.51705261       2.49527993       0.43856643
Br       7.38033735      -0.08998890       2.90447991
Br       2.41027649      -1.68518144       5.37039340
Br       1.56549987       2.49527993       5.37039340
Br       0.57121538       0.08998890       8.71343974
Br       5.54127624      -6.67574129       6.24752626
Br       6.38605286      -2.49527993       6.24752626
Br       3.40456098      -4.09047246       8.71343974
Br       5.54127624       1.68518144       6.24752626
Br       6.38605286       5.86564281       6.24752626
Br       3.40456098       4.27045027       8.71343974
Br      10.36182923      -1.68518144       5.37039340
Br       9.51705261       2.49527993       5.37039340
Br       8.52276811       0.08998890       8.71343974
Cs       3.81212024       0.55126405       2.90447991
Cs       8.11520885      -3.62919748       2.90447991
Cs       8.11520885       4.73172526       2.90447991
Cs      11.76367298       0.55126405       2.90447991
Cs       4.13943249      -0.55126405       8.71343974
Cs       7.78789661      -4.73172542       8.71343974
Cs       7.78789661       3.62919732       8.71343974
Cs      12.09098522      -0.55126405       8.71343974
40
Lattice="7.9515527325 -8.360922734166667 0.0 7.9515527325 8.360922734166667 0.0 0.0 0.0 11.617919659166665" Properties=species:S:1:pos:R:3 pbc="T T T"
Pb       0.00000000       0.00000000       0.00000000
Pb       3.97577637      -4.18046137       0.00000000
Pb       3.97577637       4.18046137       0.00000000
Pb       7.95155273       0.00000000       0.00000000
Pb       0.00000000       0.00000000       5.80895983
Pb       3.97577637      -4.18046137       5.80895983
Pb       3.97577637       4.18046137       5.80895983
Pb       7.95155273       0.00000000       5.80895983
Br       2.41027649      -1.68518144       0.43856643
Br       1.56549987       2.49527993       0.43856643
Br      -0.57121538      -0.08998890       2.90447991
Cl       5.54127624      -6.67574129      -0.43856643
Br       6.38605286      -2.49527993      -0.43856643
Br       4.54699175      -4.27045027       2.90447991
Br       5.54127624       1.68518144      -0.43856643
Br       6.38605286       5.86564281      -0.43856643
Br       4.54699175       4.09047246       2.90447991
Br      10.36182923      -1.68518144       0.43856643
Br       9.51705261       2.49527993       0.43856643
Br       7.38033735      -0.08998890       2.90447991
Br       2.41027649      -1.68518144       5.37039340
Br       1.56549987       2.49527993       5.37039340
Br       0.57121538       0.08998890       8.71343974
Br       5.54127624      -6.67574129       6.24752626
Br       6.38605286      -2.49527993       6.24752626
Br       3.40456098      -4.09047246       8.71343974
Br       5.54127624       1.68518144       6.24752626
Br       6.38605286       5.86564281       6.24752626
Br       3.40456098       4.27045027       8.71343974
Br      10.36182923      -1.68518144       5.37039340
Br       9.51705261       2.49527993       5.37039340
Br       8.52276811       0.08998890       8.71343974
Cs       3.81212024       0.55126405       2.90447991
Cs       8.11520885      -3.62919748       2.90447991
Cs       8.11520885       4.73172526       2.90447991
Cs      11.76367298       0.55126405       2.90447991
Cs       4.13943249      -0.55126405       8.71343974
Cs       7.78789661      -4.73172542       8.71343974
Cs       7.78789661       3.62919732       8.71343974
Cs      12.09098522      -0.55126405       8.71343974
40
Lattice="7.9515527325 -8.360922734166667 0.0 7.9515527325 8.360922734166667 0.0 0.0 0.0 11.617919659166665" Properties=species:S:1:pos:R:3 pbc="T T T"
Pb       0.00000000       0.00000000       0.00000000
Pb       3.97577637      -4.18046137       0.00000000
Pb       3.97577637       4.18046137       0.00000000
Pb       7.95155273       0.00000000       0.00000000
Pb       0.00000000       0.00000000       5.80895983
Pb       3.97577637      -4.18046137       5.80895983
Pb       3.97577637       4.18046137       5.80895983
Pb       7.95155273       0.00000000       5.80895983
Br       2.41027649      -1.68518144       0.43856643
Br       1.56549987       2.49527993       0.43856643
Br      -0.57121538      -0.08998890       2.90447991
Br       5.54127624      -6.67574129      -0.43856643
Cl       6.38605286      -2.49527993      -0.43856643
Br       4.54699175      -4.27045027       2.90447991
Br       5.54127624       1.68518144      -0.43856643
Br       6.38605286       5.86564281      -0.43856643
Br       4.54699175       4.09047246       2.90447991
Br      10.36182923      -1.68518144       0.43856643
Br       9.51705261       2.49527993       0.43856643
Br       7.38033735      -0.08998890       2.90447991
Br       2.41027649      -1.68518144       5.37039340
Br       1.56549987       2.49527993       5.37039340
Br       0.57121538       0.08998890       8.71343974
Br       5.54127624      -6.67574129       6.24752626
Br       6.38605286      -2.49527993       6.24752626
Br       3.40456098      -4.09047246       8.71343974
Br       5.54127624       1.68518144       6.24752626
Br       6.38605286       5.86564281       6.24752626
Br       3.40456098       4.27045027       8.71343974
Br      10.36182923      -1.68518144       5.37039340
Br       9.51705261       2.49527993       5.37039340
Br       8.52276811       0.08998890       8.71343974
Cs       3.81212024       0.55126405       2.90447991
Cs       8.11520885      -3.62919748       2.90447991
Cs       8.11520885       4.73172526       2.90447991
Cs      11.76367298       0.55126405       2.90447991
Cs       4.13943249      -0.55126405       8.71343974
Cs       7.78789661      -4.73172542       8.71343974
Cs       7.78789661       3.62919732       8.71343974
Cs      12.09098522      -0.55126405       8.71343974
40
Lattice="7.9515527325 -8.360922734166667 0.0 7.9515527325 8.360922734166667 0.0 0.0 0.0 11.617919659166665" Properties=species:S:1:pos:R:3 pbc="T T T"
Pb       0.00000000       0.00000000       0.00000000
Pb       3.97577637      -4.18046137       0.00000000
Pb       3.97577637       4.18046137       0.00000000
Pb       7.95155273       0.00000000       0.00000000
Pb       0.00000000       0.00000000       5.80895983
Pb       3.97577637      -4.18046137       5.80895983
Pb       3.97577637       4.18046137       5.80895983
Pb       7.95155273       0.00000000       5.80895983
Br       2.41027649      -1.68518144       0.43856643
Br       1.56549987       2.49527993       0.43856643
Br      -0.57121538      -0.08998890       2.90447991
Br       5.54127624      -6.67574129      -0.43856643
Br       6.38605286      -2.49527993      -0.43856643
Cl       4.54699175      -4.27045027       2.90447991
Br       5.54127624       1.68518144      -0.43856643
Br       6.38605286       5.86564281      -0.43856643
Br       4.54699175       4.09047246       2.90447991
Br      10.36182923      -1.68518144       0.43856643
Br       9.51705261       2.49527993       0.43856643
Br       7.38033735      -0.08998890       2.90447991
Br       2.41027649      -1.68518144       5.37039340
Br       1.56549987       2.49527993       5.37039340
Br       0.57121538       0.08998890       8.71343974
Br       5.54127624      -6.67574129       6.24752626
Br       6.38605286      -2.49527993       6.24752626
Br       3.40456098      -4.09047246       8.71343974
Br       5.54127624       1.68518144       6.24752626
Br       6.38605286       5.86564281       6.24752626
Br       3.40456098       4.27045027       8.71343974
Br      10.36182923      -1.68518144       5.37039340
Br       9.51705261       2.49527993       5.37039340
Br       8.52276811       0.08998890       8.71343974
Cs       3.81212024       0.55126405       2.90447991
Cs       8.11520885      -3.62919748       2.90447991
Cs       8.11520885       4.73172526       2.90447991
Cs      11.76367298       0.55126405       2.90447991
Cs       4.13943249      -0.55126405       8.71343974
Cs       7.78789661      -4.73172542       8.71343974
Cs       7.78789661       3.62919732       8.71343974
Cs      12.09098522      -0.55126405       8.71343974
40
Lattice="7.9515527325 -8.360922734166667 0.0 7.9515527325 8.360922734166667 0.0 0.0 0.0 11.617919659166665" Properties=species:S:1:pos:R:3 pbc="T T T"
Pb       0.00000000       0.00000000       0.00000000
Pb       3.97577637      -4.18046137       0.00000000
Pb       3.97577637       4.18046137       0.00000000
Pb       7.95155273       0.00000000       0.00000000
Pb       0.00000000       0.00000000       5.80895983
Pb       3.97577637      -4.18046137       5.80895983
Pb       3.97577637       4.18046137       5.80895983
Pb       7.95155273       0.00000000       5.80895983
Br       2.41027649      -1.68518144       0.43856643
Br       1.56549987       2.49527993       0.43856643
Br      -0.57121538      -0.08998890       2.90447991
Br       5.54127624      -6.67574129      -0.43856643
Br       6.38605286      -2.49527993      -0.43856643
Br       4.54699175      -4.27045027       2.90447991
Cl       5.54127624       1.68518144      -0.43856643
Br       6.38605286       5.86564281      -0.43856643
Br       4.54699175       4.09047246       2.90447991
Br      10.36182923      -1.68518144       0.43856643
Br       9.51705261       2.49527993       0.43856643
Br       7.38033735      -0.08998890       2.90447991
Br       2.41027649      -1.68518144       5.37039340
Br       1.56549987       2.49527993       5.37039340
Br       0.57121538       0.08998890       8.71343974
Br       5.54127624      -6.67574129       6.24752626
Br       6.38605286      -2.49527993       6.24752626
Br       3.40456098      -4.09047246       8.71343974
Br       5.54127624       1.68518144       6.24752626
Br       6.38605286       5.86564281       6.24752626
Br       3.40456098       4.27045027       8.71343974
Br      10.36182923      -1.68518144       5.37039340
Br       9.51705261       2.49527993       5.37039340
Br       8.52276811       0.08998890       8.71343974
Cs       3.81212024       0.55126405       2.90447991
Cs       8.11520885      -3.62919748       2.90447991
Cs       8.11520885       4.73172526       2.90447991
Cs      11.76367298       0.55126405       2.90447991
Cs       4.13943249      -0.55126405       8.71343974
Cs       7.78789661      -4.73172542       8.71343974
Cs       7.78789661       3.62919732       8.71343974
Cs      12.09098522      -0.55126405       8.71343974
40
Lattice="7.9515527325 -8.360922734166667 0.0 7.9515527325 8.360922734166667 0.0 0.0 0.0 11.617919659166665" Properties=species:S:1:pos:R:3 pbc="T T T"
Pb       0.00000000       0.00000000       0.00000000
Pb       3.97577637      -4.18046137       0.00000000
Pb       3.97577637       4.18046137       0.00000000
Pb       7.95155273       0.00000000       0.00000000
Pb       0.00000000       0.00000000       5.80895983
Pb       3.97577637      -4.18046137       5.80895983
Pb       3.97577637       4.18046137       5.80895983
Pb       7.95155273       0.00000000       5.80895983
Br       2.41027649      -1.68518144       0.43856643
Br       1.56549987       2.49527993       0.43856643
Br      -0.57121538      -0.08998890       2.90447991
Br       5.54127624      -6.67574129      -0.43856643
Br       6.38605286      -2.49527993      -0.43856643
Br       4.54699175      -4.27045027       2.90447991
Br       5.54127624       1.68518144      -0.43856643
Cl       6.38605286       5.86564281      -0.43856643
Br       4.54699175       4.09047246       2.90447991
Br      10.36182923      -1.68518144       0.43856643
Br       9.51705261       2.49527993       0.43856643
Br       7.38033735      -0.08998890       2.90447991
Br       2.41027649      -1.68518144       5.37039340
Br       1.56549987       2.49527993       5.37039340
Br       0.57121538       0.08998890       8.71343974
Br       5.54127624      -6.67574129       6.24752626
Br       6.38605286      -2.49527993       6.24752626
Br       3.40456098      -4.09047246       8.71343974
Br       5.54127624       1.68518144       6.24752626
Br       6.38605286       5.86564281       6.24752626
Br       3.40456098       4.27045027       8.71343974
Br      10.36182923      -1.68518144       5.37039340
Br       9.51705261       2.49527993       5.37039340
Br       8.52276811       0.08998890       8.71343974
Cs       3.81212024       0.55126405       2.90447991
Cs       8.11520885      -3.62919748       2.90447991
Cs       8.11520885       4.73172526       2.90447991
Cs      11.76367298       0.55126405       2.90447991
Cs       4.13943249      -0.55126405       8.71343974
Cs       7.78789661      -4.73172542       8.71343974
Cs       7.78789661       3.62919732       8.71343974
Cs      12.09098522      -0.55126405       8.71343974
40
Lattice="7.9515527325 -8.360922734166667 0.0 7.9515527325 8.360922734166667 0.0 0.0 0.0 11.617919659166665" Properties=species:S:1:pos:R:3 pbc="T T T"
Pb       0.00000000       0.00000000       0.00000000
Pb       3.97577637      -4.18046137       0.00000000
Pb       3.97577637       4.18046137       0.00000000
Pb       7.95155273       0.00000000       0.00000000
Pb       0.00000000       0.00000000       5.80895983
Pb       3.97577637      -4.18046137       5.80895983
Pb       3.97577637       4.18046137       5.80895983
Pb       7.95155273       0.00000000       5.80895983
Br       2.41027649      -1.68518144       0.43856643
Br       1.56549987       2.49527993       0.43856643
Br      -0.57121538      -0.08998890       2.90447991
Br       5.54127624      -6.67574129      -0.43856643
Br       6.38605286      -2.49527993      -0.43856643
Br       4.54699175      -4.27045027       2.90447991
Br       5.54127624       1.68518144      -0.43856643
Br       6.38605286       5.86564281      -0.43856643
Cl       4.54699175       4.09047246       2.90447991
Br      10.36182923      -1.68518144       0.43856643
Br       9.51705261       2.49527993       0.43856643
Br       7.38033735      -0.08998890       2.90447991
Br       2.41027649      -1.68518144       5.37039340
Br       1.56549987       2.49527993       5.37039340
Br       0.57121538       0.08998890       8.71343974
Br       5.54127624      -6.67574129       6.24752626
Br       6.38605286      -2.49527993       6.24752626
Br       3.40456098      -4.09047246       8.71343974
Br       5.54127624       1.68518144       6.24752626
Br       6.38605286       5.86564281       6.24752626
Br       3.40456098       4.27045027       8.71343974
Br      10.36182923      -1.68518144       5.37039340
Br       9.51705261       2.49527993       5.37039340
Br       8.52276811       0.08998890       8.71343974
Cs       3.81212024       0.55126405       2.90447991
Cs       8.11520885      -3.62919748       2.90447991
Cs       8.11520885       4.73172526       2.90447991
Cs      11.76367298       0.55126405       2.90447991
Cs       4.13943249      -0.55126405       8.71343974
Cs       7.78789661      -4.73172542       8.71343974
Cs       7.78789661       3.62919732       8.71343974
Cs      12.09098522      -0.55126405       8.71343974
40
Lattice="7.9515527325 -8.360922734166667 0.0 7.9515527325 8.360922734166667 0.0 0.0 0.0 11.617919659166665" Properties=species:S:1:pos:R:3 pbc="T T T"
Pb       0.00000000       0.00000000       0.00000000
Pb       3.97577637      -4.18046137       0.00000000
Pb       3.97577637       4.18046137       0.00000000
Pb       7.95155273       0.00000000       0.00000000
Pb       0.00000000       0.00000000       5.80895983
Pb       3.97577637      -4.18046137       5.80895983
Pb       3.97577637       4.18046137       5.80895983
Pb       7.95155273       0.00000000       5.80895983
Br       2.41027649      -1.68518144       0.43856643
Br       1.56549987       2.49527993       0.43856643
Br      -0.57121538      -0.08998890       2.90447991
Br       5.54127624      -6.67574129      -0.43856643
Br       6.38605286      -2.49527993      -0.43856643
Br       4.54699175      -4.27045027       2.90447991
Br       5.54127624       1.68518144      -0.43856643
Br       6.38605286       5.86564281      -0.43856643
Br       4.54699175       4.09047246       2.90447991
Cl      10.36182923      -1.68518144       0.43856643
Br       9.51705261       2.49527993       0.43856643
Br       7.38033735      -0.08998890       2.90447991
Br       2.41027649      -1.68518144       5.37039340
Br       1.56549987       2.49527993       5.37039340
Br       0.57121538       0.08998890       8.71343974
Br       5.54127624      -6.67574129       6.24752626
Br       6.38605286      -2.49527993       6.24752626
Br       3.40456098      -4.09047246       8.71343974
Br       5.54127624       1.68518144       6.24752626
Br       6.38605286       5.86564281       6.24752626
Br       3.40456098       4.27045027       8.71343974
Br      10.36182923      -1.68518144       5.37039340
Br       9.51705261       2.49527993       5.37039340
Br       8.52276811       0.08998890       8.71343974
Cs       3.81212024       0.55126405       2.90447991
Cs       8.11520885      -3.62919748       2.90447991
Cs       8.11520885       4.73172526       2.90447991
Cs      11.76367298       0.55126405       2.90447991
Cs       4.13943249      -0.55126405       8.71343974
Cs       7.78789661      -4.73172542       8.71343974
Cs       7.78789661       3.62919732       8.71343974
Cs      12.09098522      -0.55126405       8.71343974
40
Lattice="7.9515527325 -8.360922734166667 0.0 7.9515527325 8.360922734166667 0.0 0.0 0.0 11.617919659166665" Properties=species:S:1:pos:R:3 pbc="T T T"
Pb       0.00000000       0.00000000       0.00000000
Pb       3.97577637      -4.18046137       0.00000000
Pb       3.97577637       4.18046137       0.00000000
Pb       7.95155273       0.00000000       0.00000000
Pb       0.00000000       0.00000000       5.80895983
Pb       3.97577637      -4.18046137       5.80895983
Pb       3.97577637       4.18046137       5.80895983
Pb       7.95155273       0.00000000       5.80895983
Br       2.41027649      -1.68518144       0.43856643
Br       1.56549987       2.49527993       0.43856643
Br      -0.57121538      -0.08998890       2.90447991
Br       5.54127624      -6.67574129      -0.43856643
Br       6.38605286      -2.49527993      -0.43856643
Br       4.54699175      -4.27045027       2.90447991
Br       5.54127624       1.68518144      -0.43856643
Br       6.38605286       5.86564281      -0.43856643
Br       4.54699175       4.09047246       2.90447991
Br      10.36182923      -1.68518144       0.43856643
Cl       9.51705261       2.49527993       0.43856643
Br       7.38033735      -0.08998890       2.90447991
Br       2.41027649      -1.68518144       5.37039340
Br       1.56549987       2.49527993       5.37039340
Br       0.57121538       0.08998890       8.71343974
Br       5.54127624      -6.67574129       6.24752626
Br       6.38605286      -2.49527993       6.24752626
Br       3.40456098      -4.09047246       8.71343974
Br       5.54127624       1.68518144       6.24752626
Br       6.38605286       5.86564281       6.24752626
Br       3.40456098       4.27045027       8.71343974
Br      10.36182923      -1.68518144       5.37039340
Br       9.51705261       2.49527993       5.37039340
Br       8.52276811       0.08998890       8.71343974
Cs       3.81212024       0.55126405       2.90447991
Cs       8.11520885      -3.62919748       2.90447991
Cs       8.11520885       4.73172526       2.90447991
Cs      11.76367298       0.55126405       2.90447991
Cs       4.13943249      -0.55126405       8.71343974
Cs       7.78789661      -4.73172542       8.71343974
Cs       7.78789661       3.62919732       8.71343974
Cs      12.09098522      -0.55126405       8.71343974
40
Lattice="7.9515527325 -8.360922734166667 0.0 7.9515527325 8.360922734166667 0.0 0.0 0.0 11.617919659166665" Properties=species:S:1:pos:R:3 pbc="T T T"
Pb       0.00000000       0.00000000       0.00000000
Pb       3.97577637      -4.18046137       0.00000000
Pb       3.97577637       4.18046137       0.00000000
Pb       7.95155273       0.00000000       0.00000000
Pb       0.00000000       0.00000000       5.80895983
Pb       3.97577637      -4.18046137       5.80895983
Pb       3.97577637       4.18046137       5.80895983
Pb       7.95155273       0.00000000       5.80895983
Br       2.41027649      -1.68518144       0.43856643
Br       1.56549987       2.49527993       0.43856643
Br      -0.57121538      -0.08998890       2.90447991
Br       5.54127624      -6.67574129      -0.43856643
Br       6.38605286      -2.49527993      -0.43856643
Br       4.54699175      -4.27045027       2.90447991
Br       5.54127624       1.68518144      -0.43856643
Br       6.38605286       5.86564281      -0.43856643
Br       4.54699175       4.09047246       2.90447991
Br      10.36182923      -1.68518144       0.43856643
Br       9.51705261       2.49527993       0.43856643
Cl       7.38033735      -0.08998890       2.90447991
Br       2.41027649      -1.68518144       5.37039340
Br       1.56549987       2.49527993       5.37039340
Br       0.57121538       0.08998890       8.71343974
Br       5.54127624      -6.67574129       6.24752626
Br       6.38605286      -2.49527993       6.24752626
Br       3.40456098      -4.09047246       8.71343974
Br       5.54127624       1.68518144       6.24752626
Br       6.38605286       5.86564281       6.24752626
Br       3.40456098       4.27045027       8.71343974
Br      10.36182923      -1.68518144       5.37039340
Br       9.51705261       2.49527993       5.37039340
Br       8.52276811       0.08998890       8.71343974
Cs       3.81212024       0.55126405       2.90447991
Cs       8.11520885      -3.62919748       2.90447991
Cs       8.11520885       4.73172526       2.90447991
Cs      11.76367298       0.55126405       2.90447991
Cs       4.13943249      -0.55126405       8.71343974
Cs       7.78789661      -4.73172542       8.71343974
Cs       7.78789661       3.62919732       8.71343974
Cs      12.09098522      -0.55126405       8.71343974
40
Lattice="7.9515527325 -8.360922734166667 0.0 7.9515527325 8.360922734166667 0.0 0.0 0.0 11.617919659166665" Properties=species:S:1:pos:R:3 pbc="T T T"
Pb       0.00000000       0.00000000       0.00000000
Pb       3.97577637      -4.18046137       0.00000000
Pb       3.97577637       4.18046137       0.00000000
Pb       7.95155273       0.00000000       0.00000000
Pb       0.00000000       0.00000000       5.80895983
Pb       3.97577637      -4.18046137       5.80895983
Pb       3.97577637       4.18046137       5.80895983
Pb       7.95155273       0.00000000       5.80895983
Br       2.41027649      -1.68518144       0.43856643
Br       1.56549987       2.49527993       0.43856643
Br      -0.57121538      -0.08998890       2.90447991
Br       5.54127624      -6.67574129      -0.43856643
Br       6.38605286      -2.49527993      -0.43856643
Br       4.54699175      -4.27045027       2.90447991
Br       5.54127624       1.68518144      -0.43856643
Br       6.38605286       5.86564281      -0.43856643
Br       4.54699175       4.09047246       2.90447991
Br      10.36182923      -1.68518144       0.43856643
Br       9.51705261       2.49527993       0.43856643
Br       7.38033735      -0.08998890       2.90447991
Cl       2.41027649      -1.68518144       5.37039340
Br       1.56549987       2.49527993       5.37039340
Br       0.57121538       0.08998890       8.71343974
Br       5.54127624      -6.67574129       6.24752626
Br       6.38605286      -2.49527993       6.24752626
Br       3.40456098      -4.09047246       8.71343974
Br       5.54127624       1.68518144       6.24752626
Br       6.38605286       5.86564281       6.24752626
Br       3.40456098       4.27045027       8.71343974
Br      10.36182923      -1.68518144       5.37039340
Br       9.51705261       2.49527993       5.37039340
Br       8.52276811       0.08998890       8.71343974
Cs       3.81212024       0.55126405       2.90447991
Cs       8.11520885      -3.62919748       2.90447991
Cs       8.11520885       4.73172526       2.90447991
Cs      11.76367298       0.55126405       2.90447991
Cs       4.13943249      -0.55126405       8.71343974
Cs       7.78789661      -4.73172542       8.71343974
Cs       7.78789661       3.62919732       8.71343974
Cs      12.09098522      -0.55126405       8.71343974
40
Lattice="7.9515527325 -8.360922734166667 0.0 7.9515527325 8.360922734166667 0.0 0.0 0.0 11.617919659166665" Properties=species:S:1:pos:R:3 pbc="T T T"
Pb       0.00000000       0.00000000       0.00000000
Pb       3.97577637      -4.18046137       0.00000000
Pb       3.97577637       4.18046137       0.00000000
Pb       7.95155273       0.00000000       0.00000000
Pb       0.00000000       0.00000000       5.80895983
Pb       3.97577637      -4.18046137       5.80895983
Pb       3.97577637       4.18046137       5.80895983
Pb       7.95155273       0.00000000       5.80895983
Br       2.41027649      -1.68518144       0.43856643
Br       1.56549987       2.49527993       0.43856643
Br      -0.57121538      -0.08998890       2.90447991
Br       5.54127624      -6.67574129      -0.43856643
Br       6.38605286      -2.49527993      -0.43856643
Br       4.54699175      -4.27045027       2.90447991
Br       5.54127624       1.68518144      -0.43856643
Br       6.38605286       5.86564281      -0.43856643
Br       4.54699175       4.09047246       2.90447991
Br      10.36182923      -1.68518144       0.43856643
Br       9.51705261       2.49527993       0.43856643
Br       7.38033735      -0.08998890       2.90447991
Br       2.41027649      -1.68518144       5.37039340
Cl       1.56549987       2.49527993       5.37039340
Br       0.57121538       0.08998890       8.71343974
Br       5.54127624      -6.67574129       6.24752626
Br       6.38605286      -2.49527993       6.24752626
Br       3.40456098      -4.09047246       8.71343974
Br       5.54127624       1.68518144       6.24752626
Br       6.38605286       5.86564281       6.24752626
Br       3.40456098       4.27045027       8.71343974
Br      10.36182923      -1.68518144       5.37039340
Br       9.51705261       2.49527993       5.37039340
Br       8.52276811       0.08998890       8.71343974
Cs       3.81212024       0.55126405       2.90447991
Cs       8.11520885      -3.62919748       2.90447991
Cs       8.11520885       4.73172526       2.90447991
Cs      11.76367298       0.55126405       2.90447991
Cs       4.13943249      -0.55126405       8.71343974
Cs       7.78789661      -4.73172542       8.71343974
Cs       7.78789661       3.62919732       8.71343974
Cs      12.09098522      -0.55126405       8.71343974
40
Lattice="7.9515527325 -8.360922734166667 0.0 7.9515527325 8.360922734166667 0.0 0.0 0.0 11.617919659166665" Properties=species:S:1:pos:R:3 pbc="T T T"
Pb       0.00000000       0.00000000       0.00000000
Pb       3.97577637      -4.18046137       0.00000000
Pb       3.97577637       4.18046137       0.00000000
Pb       7.95155273       0.00000000       0.00000000
Pb       0.00000000       0.00000000       5.80895983
Pb       3.97577637      -4.18046137       5.80895983
Pb       3.97577637       4.18046137       5.80895983
Pb       7.95155273       0.00000000       5.80895983
Br       2.41027649      -1.68518144       0.43856643
Br       1.56549987       2.49527993       0.43856643
Br      -0.57121538      -0.08998890       2.90447991
Br       5.54127624      -6.67574129      -0.43856643
Br       6.38605286      -2.49527993      -0.43856643
Br       4.54699175      -4.27045027       2.90447991
Br       5.54127624       1.68518144      -0.43856643
Br       6.38605286       5.86564281      -0.43856643
Br       4.54699175       4.09047246       2.90447991
Br      10.36182923      -1.68518144       0.43856643
Br       9.51705261       2.49527993       0.43856643
Br       7.38033735      -0.08998890       2.90447991
Br       2.41027649      -1.68518144       5.37039340
Br       1.56549987       2.49527993       5.37039340
Cl       0.57121538       0.08998890       8.71343974
Br       5.54127624      -6.67574129       6.24752626
Br       6.38605286      -2.49527993       6.24752626
Br       3.40456098      -4.09047246       8.71343974
Br       5.54127624       1.68518144       6.24752626
Br       6.38605286       5.86564281       6.24752626
Br       3.40456098       4.27045027       8.71343974
Br      10.36182923      -1.68518144       5.37039340
Br       9.51705261       2.49527993       5.37039340
Br       8.52276811       0.08998890       8.71343974
Cs       3.81212024       0.55126405       2.90447991
Cs       8.11520885      -3.62919748       2.90447991
Cs       8.11520885       4.73172526       2.90447991
Cs      11.76367298       0.55126405       2.90447991
Cs       4.13943249      -0.55126405       8.71343974
Cs       7.78789661      -4.73172542       8.71343974
Cs       7.78789661       3.62919732       8.71343974
Cs      12.09098522      -0.55126405       8.71343974
40
Lattice="7.9515527325 -8.360922734166667 0.0 7.9515527325 8.360922734166667 0.0 0.0 0.0 11.617919659166665" Properties=species:S:1:pos:R:3 pbc="T T T"
Pb       0.00000000       0.00000000       0.00000000
Pb       3.97577637      -4.18046137       0.00000000
Pb       3.97577637       4.18046137       0.00000000
Pb       7.95155273       0.00000000       0.00000000
Pb       0.00000000       0.00000000       5.80895983
Pb       3.97577637      -4.18046137       5.80895983
Pb       3.97577637       4.18046137       5.80895983
Pb       7.95155273       0.00000000       5.80895983
Br       2.41027649      -1.68518144       0.43856643
Br       1.56549987       2.49527993       0.43856643
Br      -0.57121538      -0.08998890       2.90447991
Br       5.54127624      -6.67574129      -0.43856643
Br       6.38605286      -2.49527993      -0.43856643
Br       4.54699175      -4.27045027       2.90447991
Br       5.54127624       1.68518144      -0.43856643
Br       6.38605286       5.86564281      -0.43856643
Br       4.54699175       4.09047246       2.90447991
Br      10.36182923      -1.68518144       0.43856643
Br       9.51705261       2.49527993       0.43856643
Br       7.38033735      -0.08998890       2.90447991
Br       2.41027649      -1.68518144       5.37039340
Br       1.56549987       2.49527993       5.37039340
Br       0.57121538       0.08998890       8.71343974
Cl       5.54127624      -6.67574129       6.24752626
Br       6.38605286      -2.49527993       6.24752626
Br       3.40456098      -4.09047246       8.71343974
Br       5.54127624       1.68518144       6.24752626
Br       6.38605286       5.86564281       6.24752626
Br       3.40456098       4.27045027       8.71343974
Br      10.36182923      -1.68518144       5.37039340
Br       9.51705261       2.49527993       5.37039340
Br       8.52276811       0.08998890       8.71343974
Cs       3.81212024       0.55126405       2.90447991
Cs       8.11520885      -3.62919748       2.90447991
Cs       8.11520885       4.73172526       2.90447991
Cs      11.76367298       0.55126405       2.90447991
Cs       4.13943249      -0.55126405       8.71343974
Cs       7.78789661      -4.73172542       8.71343974
Cs       7.78789661       3.62919732       8.71343974
Cs      12.09098522      -0.55126405       8.71343974
40
Lattice="7.9515527325 -8.360922734166667 0.0 7.9515527325 8.360922734166667 0.0 0.0 0.0 11.617919659166665" Properties=species:S:1:pos:R:3 pbc="T T T"
Pb       0.00000000       0.00000000       0.00000000
Pb       3.97577637      -4.18046137       0.00000000
Pb       3.97577637       4.18046137       0.00000000
Pb       7.95155273       0.00000000       0.00000000
Pb       0.00000000       0.00000000       5.80895983
Pb       3.97577637      -4.18046137       5.80895983
Pb       3.97577637       4.18046137       5.80895983
Pb       7.95155273       0.00000000       5.80895983
Br       2.41027649      -1.68518144       0.43856643
Br       1.56549987       2.49527993       0.43856643
Br      -0.57121538      -0.08998890       2.90447991
Br       5.54127624      -6.67574129      -0.43856643
Br       6.38605286      -2.49527993      -0.43856643
Br       4.54699175      -4.27045027       2.90447991
Br       5.54127624       1.68518144      -0.43856643
Br       6.38605286       5.86564281      -0.43856643
Br       4.54699175       4.09047246       2.90447991
Br      10.36182923      -1.68518144       0.43856643
Br       9.51705261       2.49527993       0.43856643
Br       7.38033735      -0.08998890       2.90447991
Br       2.41027649      -1.68518144       5.37039340
Br       1.56549987       2.49527993       5.37039340
Br       0.57121538       0.08998890       8.71343974
Br       5.54127624      -6.67574129       6.24752626
Cl       6.38605286      -2.49527993       6.24752626
Br       3.40456098      -4.09047246       8.71343974
Br       5.54127624       1.68518144       6.24752626
Br       6.38605286       5.86564281       6.24752626
Br       3.40456098       4.27045027       8.71343974
Br      10.36182923      -1.68518144       5.37039340
Br       9.51705261       2.49527993       5.37039340
Br       8.52276811       0.08998890       8.71343974
Cs       3.81212024       0.55126405       2.90447991
Cs       8.11520885      -3.62919748       2.90447991
Cs       8.11520885       4.73172526       2.90447991
Cs      11.76367298       0.55126405       2.90447991
Cs       4.13943249      -0.55126405       8.71343974
Cs       7.78789661      -4.73172542       8.71343974
Cs       7.78789661       3.62919732       8.71343974
Cs      12.09098522      -0.55126405       8.71343974
40
Lattice="7.9515527325 -8.360922734166667 0.0 7.9515527325 8.360922734166667 0.0 0.0 0.0 11.617919659166665" Properties=species:S:1:pos:R:3 pbc="T T T"
Pb       0.00000000       0.00000000       0.00000000
Pb       3.97577637      -4.18046137       0.00000000
Pb       3.97577637       4.18046137       0.00000000
Pb       7.95155273       0.00000000       0.00000000
Pb       0.00000000       0.00000000       5.80895983
Pb       3.97577637      -4.18046137       5.80895983
Pb       3.97577637       4.18046137       5.80895983
Pb       7.95155273       0.00000000       5.80895983
Br       2.41027649      -1.68518144       0.43856643
Br       1.56549987       2.49527993       0.43856643
Br      -0.57121538      -0.08998890       2.90447991
Br       5.54127624      -6.67574129      -0.43856643
Br       6.38605286      -2.49527993      -0.43856643
Br       4.54699175      -4.27045027       2.90447991
Br       5.54127624       1.68518144      -0.43856643
Br       6.38605286       5.86564281      -0.43856643
Br       4.54699175       4.09047246       2.90447991
Br      10.36182923      -1.68518144       0.43856643
Br       9.51705261       2.49527993       0.43856643
Br       7.38033735      -0.08998890       2.90447991
Br       2.41027649      -1.68518144       5.37039340
Br       1.56549987       2.49527993       5.37039340
Br       0.57121538       0.08998890       8.71343974
Br       5.54127624      -6.67574129       6.24752626
Br       6.38605286      -2.49527993       6.24752626
Cl       3.40456098      -4.09047246       8.71343974
Br       5.54127624       1.68518144       6.24752626
Br       6.38605286       5.86564281       6.24752626
Br       3.40456098       4.27045027       8.71343974
Br      10.36182923      -1.68518144       5.37039340
Br       9.51705261       2.49527993       5.37039340
Br       8.52276811       0.08998890       8.71343974
Cs       3.81212024       0.55126405       2.90447991
Cs       8.11520885      -3.62919748       2.90447991
Cs       8.11520885       4.73172526       2.90447991
Cs      11.76367298       0.55126405       2.90447991
Cs       4.13943249      -0.55126405       8.71343974
Cs       7.78789661      -4.73172542       8.71343974
Cs       7.78789661       3.62919732       8.71343974
Cs      12.09098522      -0.55126405       8.71343974
40
Lattice="7.9515527325 -8.360922734166667 0.0 7.9515527325 8.360922734166667 0.0 0.0 0.0 11.617919659166665" Properties=species:S:1:pos:R:3 pbc="T T T"
Pb       0.00000000       0.00000000       0.00000000
Pb       3.97577637      -4.18046137       0.00000000
Pb       3.97577637       4.18046137       0.00000000
Pb       7.95155273       0.00000000       0.00000000
Pb       0.00000000       0.00000000       5.80895983
Pb       3.97577637      -4.18046137       5.80895983
Pb       3.97577637       4.18046137       5.80895983
Pb       7.95155273       0.00000000       5.80895983
Br       2.41027649      -1.68518144       0.43856643
Br       1.56549987       2.49527993       0.43856643
Br      -0.57121538      -0.08998890       2.90447991
Br       5.54127624      -6.67574129      -0.43856643
Br       6.38605286      -2.49527993      -0.43856643
Br       4.54699175      -4.27045027       2.90447991
Br       5.54127624       1.68518144      -0.43856643
Br       6.38605286       5.86564281      -0.43856643
Br       4.54699175       4.09047246       2.90447991
Br      10.36182923      -1.68518144       0.43856643
Br       9.51705261       2.49527993       0.43856643
Br       7.38033735      -0.08998890       2.90447991
Br       2.41027649      -1.68518144       5.37039340
Br       1.56549987       2.49527993       5.37039340
Br       0.57121538       0.08998890       8.71343974
Br       5.54127624      -6.67574129       6.24752626
Br       6.38605286      -2.49527993       6.24752626
Br       3.40456098      -4.09047246       8.71343974
Cl       5.54127624       1.68518144       6.24752626
Br       6.38605286       5.86564281       6.24752626
Br       3.40456098       4.27045027       8.71343974
Br      10.36182923      -1.68518144       5.37039340
Br       9.51705261       2.49527993       5.37039340
Br       8.52276811       0.08998890       8.71343974
Cs       3.81212024       0.55126405       2.90447991
Cs       8.11520885      -3.62919748       2.90447991
Cs       8.11520885       4.73172526       2.90447991
Cs      11.76367298       0.55126405       2.90447991
Cs       4.13943249      -0.55126405       8.71343974
Cs       7.78789661      -4.73172542       8.71343974
Cs       7.78789661       3.62919732       8.71343974
Cs      12.09098522      -0.55126405       8.71343974
40
Lattice="7.9515527325 -8.360922734166667 0.0 7.9515527325 8.360922734166667 0.0 0.0 0.0 11.617919659166665" Properties=species:S:1:pos:R:3 pbc="T T T"
Pb       0.00000000       0.00000000       0.00000000
Pb       3.97577637      -4.18046137       0.00000000
Pb       3.97577637       4.18046137       0.00000000
Pb       7.95155273       0.00000000       0.00000000
Pb       0.00000000       0.00000000       5.80895983
Pb       3.97577637      -4.18046137       5.80895983
Pb       3.97577637       4.18046137       5.80895983
Pb       7.95155273       0.00000000       5.80895983
Br       2.41027649      -1.68518144       0.43856643
Br       1.56549987       2.49527993       0.43856643
Br      -0.57121538      -0.08998890       2.90447991
Br       5.54127624      -6.67574129      -0.43856643
Br       6.38605286      -2.49527993      -0.43856643
Br       4.54699175      -4.27045027       2.90447991
Br       5.54127624       1.68518144      -0.43856643
Br       6.38605286       5.86564281      -0.43856643
Br       4.54699175       4.09047246       2.90447991
Br      10.36182923      -1.68518144       0.43856643
Br       9.51705261       2.49527993       0.43856643
Br       7.38033735      -0.08998890       2.90447991
Br       2.41027649      -1.68518144       5.37039340
Br       1.56549987       2.49527993       5.37039340
Br       0.57121538       0.08998890       8.71343974
Br       5.54127624      -6.67574129       6.24752626
Br       6.38605286      -2.49527993       6.24752626
Br       3.40456098      -4.09047246       8.71343974
Br       5.54127624       1.68518144       6.24752626
Cl       6.38605286       5.86564281       6.24752626
Br       3.40456098       4.27045027       8.71343974
Br      10.36182923      -1.68518144       5.37039340
Br       9.51705261       2.49527993       5.37039340
Br       8.52276811       0.08998890       8.71343974
Cs       3.81212024       0.55126405       2.90447991
Cs       8.11520885      -3.62919748       2.90447991
Cs       8.11520885       4.73172526       2.90447991
Cs      11.76367298       0.55126405       2.90447991
Cs       4.13943249      -0.55126405       8.71343974
Cs       7.78789661      -4.73172542       8.71343974
Cs       7.78789661       3.62919732       8.71343974
Cs      12.09098522      -0.55126405       8.71343974
40
Lattice="7.9515527325 -8.360922734166667 0.0 7.9515527325 8.360922734166667 0.0 0.0 0.0 11.617919659166665" Properties=species:S:1:pos:R:3 pbc="T T T"
Pb       0.00000000       0.00000000       0.00000000
Pb       3.97577637      -4.18046137       0.00000000
Pb       3.97577637       4.18046137       0.00000000
Pb       7.95155273       0.00000000       0.00000000
Pb       0.00000000       0.00000000       5.80895983
Pb       3.97577637      -4.18046137       5.80895983
Pb       3.97577637       4.18046137       5.80895983
Pb       7.95155273       0.00000000       5.80895983
Br       2.41027649      -1.68518144       0.43856643
Br       1.56549987       2.49527993       0.43856643
Br      -0.57121538      -0.08998890       2.90447991
Br       5.54127624      -6.67574129      -0.43856643
Br       6.38605286      -2.49527993      -0.43856643
Br       4.54699175      -4.27045027       2.90447991
Br       5.54127624       1.68518144      -0.43856643
Br       6.38605286       5.86564281      -0.43856643
Br       4.54699175       4.09047246       2.90447991
Br      10.36182923      -1.68518144       0.43856643
Br       9.51705261       2.49527993       0.43856643
Br       7.38033735      -0.08998890       2.90447991
Br       2.41027649      -1.68518144       5.37039340
Br       1.56549987       2.49527993       5.37039340
Br       0.57121538       0.08998890       8.71343974
Br       5.54127624      -6.67574129       6.24752626
Br       6.38605286      -2.49527993       6.24752626
Br       3.40456098      -4.09047246       8.71343974
Br       5.54127624       1.68518144       6.24752626
Br       6.38605286       5.86564281       6.24752626
Cl       3.40456098       4.27045027       8.71343974
Br      10.36182923      -1.68518144       5.37039340
Br       9.51705261       2.49527993       5.37039340
Br       8.52276811       0.08998890       8.71343974
Cs       3.81212024       0.55126405       2.90447991
Cs       8.11520885      -3.62919748       2.90447991
Cs       8.11520885       4.73172526       2.90447991
Cs      11.76367298       0.55126405       2.90447991
Cs       4.13943249      -0.55126405       8.71343974
Cs       7.78789661      -4.73172542       8.71343974
Cs       7.78789661       3.62919732       8.71343974
Cs      12.09098522      -0.55126405       8.71343974
40
Lattice="7.9515527325 -8.360922734166667 0.0 7.9515527325 8.360922734166667 0.0 0.0 0.0 11.617919659166665" Properties=species:S:1:pos:R:3 pbc="T T T"
Pb       0.00000000       0.00000000       0.00000000
Pb       3.97577637      -4.18046137       0.00000000
Pb       3.97577637       4.18046137       0.00000000
Pb       7.95155273       0.00000000       0.00000000
Pb       0.00000000       0.00000000       5.80895983
Pb       3.97577637      -4.18046137       5.80895983
Pb       3.97577637       4.18046137       5.80895983
Pb       7.95155273       0.00000000       5.80895983
Br       2.41027649      -1.68518144       0.43856643
Br       1.56549987       2.49527993       0.43856643
Br      -0.57121538      -0.08998890       2.90447991
Br       5.54127624      -6.67574129      -0.43856643
Br       6.38605286      -2.49527993      -0.43856643
Br       4.54699175      -4.27045027       2.90447991
Br       5.54127624       1.68518144      -0.43856643
Br       6.38605286       5.86564281      -0.43856643
Br       4.54699175       4.09047246       2.90447991
Br      10.36182923      -1.68518144       0.43856643
Br       9.51705261       2.49527993       0.43856643
Br       7.38033735      -0.08998890       2.90447991
Br       2.41027649      -1.68518144       5.37039340
Br       1.56549987       2.49527993       5.37039340
Br       0.57121538       0.08998890       8.71343974
Br       5.54127624      -6.67574129       6.24752626
Br       6.38605286      -2.49527993       6.24752626
Br       3.40456098      -4.09047246       8.71343974
Br       5.54127624       1.68518144       6.24752626
Br       6.38605286       5.86564281       6.24752626
Br       3.40456098       4.27045027       8.71343974
Cl      10.36182923      -1.68518144       5.37039340
Br       9.51705261       2.49527993       5.37039340
Br       8.52276811       0.08998890       8.71343974
Cs       3.81212024       0.55126405       2.90447991
Cs       8.11520885      -3.62919748       2.90447991
Cs       8.11520885       4.73172526       2.90447991
Cs      11.76367298       0.55126405       2.90447991
Cs       4.13943249      -0.55126405       8.71343974
Cs       7.78789661      -4.73172542       8.71343974
Cs       7.78789661       3.62919732       8.71343974
Cs      12.09098522      -0.55126405       8.71343974
40
Lattice="7.9515527325 -8.360922734166667 0.0 7.9515527325 8.360922734166667 0.0 0.0 0.0 11.617919659166665" Properties=species:S:1:pos:R:3 pbc="T T T"
Pb       0.00000000       0.00000000       0.00000000
Pb       3.97577637      -4.18046137       0.00000000
Pb       3.97577637       4.18046137       0.00000000
Pb       7.95155273       0.00000000       0.00000000
Pb       0.00000000       0.00000000       5.80895983
Pb       3.97577637      -4.18046137       5.80895983
Pb       3.97577637       4.18046137       5.80895983
Pb       7.95155273       0.00000000       5.80895983
Br       2.41027649      -1.68518144       0.43856643
Br       1.56549987       2.49527993       0.43856643
Br      -0.57121538      -0.08998890       2.90447991
Br       5.54127624      -6.67574129      -0.43856643
Br       6.38605286      -2.49527993      -0.43856643
Br       4.54699175      -4.27045027       2.90447991
Br       5.54127624       1.68518144      -0.43856643
Br       6.38605286       5.86564281      -0.43856643
Br       4.54699175       4.09047246       2.90447991
Br      10.36182923      -1.68518144       0.43856643
Br       9.51705261       2.49527993       0.43856643
Br       7.38033735      -0.08998890       2.90447991
Br       2.41027649      -1.68518144       5.37039340
Br       1.56549987       2.49527993       5.37039340
Br       0.57121538       0.08998890       8.71343974
Br       5.54127624      -6.67574129       6.24752626
Br       6.38605286      -2.49527993       6.24752626
Br       3.40456098      -4.09047246       8.71343974
Br       5.54127624       1.68518144       6.24752626
Br       6.38605286       5.86564281       6.24752626
Br       3.40456098       4.27045027       8.71343974
Br      10.36182923      -1.68518144       5.37039340
Cl       9.51705261       2.49527993       5.37039340
Br       8.52276811       0.08998890       8.71343974
Cs       3.81212024       0.55126405       2.90447991
Cs       8.11520885      -3.62919748       2.90447991
Cs       8.11520885       4.73172526       2.90447991
Cs      11.76367298       0.55126405       2.90447991
Cs       4.13943249      -0.55126405       8.71343974
Cs       7.78789661      -4.73172542       8.71343974
Cs       7.78789661       3.62919732       8.71343974
Cs      12.09098522      -0.55126405       8.71343974
40
Lattice="7.9515527325 -8.360922734166667 0.0 7.9515527325 8.360922734166667 0.0 0.0 0.0 11.617919659166665" Properties=species:S:1:pos:R:3 pbc="T T T"
Pb       0.00000000       0.00000000       0.00000000
Pb       3.97577637      -4.18046137       0.00000000
Pb       3.97577637       4.18046137       0.00000000
Pb       7.95155273       0.00000000       0.00000000
Pb       0.00000000       0.00000000       5.80895983
Pb       3.97577637      -4.18046137       5.80895983
Pb       3.97577637       4.18046137       5.80895983
Pb       7.95155273       0.00000000       5.80895983
Br       2.41027649      -1.68518144       0.43856643
Br       1.56549987       2.49527993       0.43856643
Br      -0.57121538      -0.08998890       2.90447991
Br       5.54127624      -6.67574129      -0.43856643
Br       6.38605286      -2.49527993      -0.43856643
Br       4.54699175      -4.27045027       2.90447991
Br       5.54127624       1.68518144      -0.43856643
Br       6.38605286       5.86564281      -0.43856643
Br       4.54699175       4.09047246       2.90447991
Br      10.36182923      -1.68518144       0.43856643
Br       9.51705261       2.49527993       0.43856643
Br       7.38033735      -0.08998890       2.90447991
Br       2.41027649      -1.68518144       5.37039340
Br       1.56549987       2.49527993       5.37039340
Br       0.57121538       0.08998890       8.71343974
Br       5.54127624      -6.67574129       6.24752626
Br       6.38605286      -2.49527993       6.24752626
Br       3.40456098      -4.09047246       8.71343974
Br       5.54127624       1.68518144       6.24752626
Br       6.38605286       5.86564281       6.24752626
Br       3.40456098       4.27045027       8.71343974
Br      10.36182923      -1.68518144       5.37039340
Br       9.51705261       2.49527993       5.37039340
Cl       8.52276811       0.08998890       8.71343974
Cs       3.81212024       0.55126405       2.90447991
Cs       8.11520885      -3.62919748       2.90447991
Cs       8.11520885       4.73172526       2.90447991
Cs      11.76367298       0.55126405       2.90447991
Cs       4.13943249      -0.55126405       8.71343974
Cs       7.78789661      -4.73172542       8.71343974
Cs       7.78789661       3.62919732       8.71343974
Cs      12.09098522      -0.55126405       8.71343974
