0 111111111111111111111100 -6861349.479096526 -6861349.603475645 27
1 111111111111111111111010 -6861349.479430808 -6861349.6054773675 26
2 111111111111111111111001 -6861349.504065498 -6861349.613540699 16
3 111111111111111111110110 -6861349.456152316 -6861349.585941429 22
4 111111111111111111110101 -6861349.480842652 -6861349.589765886 26
5 111111111111111111110011 -6861349.479096584 -6861349.603475513 27
6 111111111111111111101110 -6861349.480842709 -6861349.594421557 27
7 111111111111111111101101 -6861349.505367255 -6861349.608148846 19
8 111111111111111111101011 -6861349.502745957 -6861349.612576961 19
9 111111111111111111100111 -6861349.4781536665 -6861349.602653354 27
10 111111111111111111011110 -6861349.4781536665 -6861349.60265335 27
11 111111111111111111011101 -6861349.502745959 -6861349.6125769615 19
12 111111111111111111011011 -6861349.501264611 -6861349.562545495 13
13 111111111111111111010111 -6861349.478661286 -6861349.597040645 19
14 111111111111111111001111 -6861349.504065497 -6861349.6135407 16
15 111111111111111110111110 -6861349.456152316 -6861349.585941428 22
16 111111111111111110111101 -6861349.47943075 -6861349.605477322 26
17 111111111111111110111011 -6861349.480842709 -6861349.5894675795 25
18 111111111111111110110111 -6861349.4560762085 -6861349.573010462 12
19 111111111111111110101111 -6861349.478936734 -6861349.589630607 26
20 111111111111111110011111 -6861349.480842709 -6861349.594421389 27
21 111111111111111101111110 -6861349.478661286 -6861349.597040635 19
22 111111111111111101111101 -6861349.501264612 -6861349.562545613 13
23 111111111111111101111011 -6861349.502745957 -6861349.612576964 19
24 111111111111111101110111 -6861349.478936734 -6861349.589630612 26
25 111111111111111101101111 -6861349.50505569 -6861349.6032249285 13
26 111111111111111101011111 -6861349.504065497 -6861349.613540753 16
27 111111111111111100111111 -6861349.4781536665 -6861349.602653343 27
28 111111111111111011111110 -6861349.478936734 -6861349.58963046 26
29 111111111111111011111101 -6861349.502745959 -6861349.612576955 19
30 111111111111111011111011 -6861349.505367253 -6861349.608148828 19
31 111111111111111011110111 -6861349.480842709 -6861349.594421536 27
32 111111111111111011101111 -6861349.504065497 -6861349.613540752 16
33 111111111111111011011111 -6861349.50505569 -6861349.60322489 13
34 111111111111111010111111 -6861349.478661286 -6861349.597040635 19
35 111111111111111001111111 -6861349.504065497 -6861349.61354072 16
36 111111111111110111111110 -6861349.4560762085 -6861349.573010463 12
37 111111111111110111111101 -6861349.480842652 -6861349.5894677285 25
38 111111111111110111111011 -6861349.480842709 -6861349.589765873 26
39 111111111111110111110111 -6861349.456152316 -6861349.585941425 22
40 111111111111110111101111 -6861349.478661286 -6861349.597040642 19
41 111111111111110111011111 -6861349.478936734 -6861349.589630408 26
42 111111111111110110111111 -6861349.456152316 -6861349.585941412 22
43 111111111111110101111111 -6861349.480842709 -6861349.594421539 27
44 111111111111110011111111 -6861349.4781536665 -6861349.602653358 27
45 111111111111101111111110 -6861349.480842652 -6861349.589467532 25
46 111111111111101111111101 -6861349.505055691 -6861349.603224907 13
47 111111111111101111111011 -6861349.504065498 -6861349.613540753 16
48 111111111111101111110111 -6861349.47943075 -6861349.605477313 26
49 111111111111101111101111 -6861349.501264612 -6861349.562545613 13
50 111111111111101111011111 -6861349.502745959 -6861349.612576955 19
51 111111111111101110111111 -6861349.480842652 -6861349.589765865 26
52 111111111111101101111111 -6861349.505367255 -6861349.608148856 19
53 111111111111101011111111 -6861349.502745959 -6861349.6125769615 19
54 111111111111100111111111 -6861349.479096526 -6861349.603475655 27
55 111111111111011111111110 -6861349.480842709 -6861349.589765853 26
56 111111111111011111111101 -6861349.504065498 -6861349.613540753 16
57 111111111111011111111011 -6861349.50505569 -6861349.603224905 13
58 111111111111011111110111 -6861349.480842709 -6861349.589467561 25
59 111111111111011111101111 -6861349.502745957 -6861349.612576964 19
60 111111111111011111011111 -6861349.505367253 -6861349.6081488915 19
61 111111111111011110111111 -6861349.479096584 -6861349.60347551 27
62 111111111111011101111111 -6861349.502745957 -6861349.6125769615 19
63 111111111111011011111111 -6861349.501264611 -6861349.562545495 13
64 111111111111010111111111 -6861349.479430808 -6861349.6054773275 26
65 111111111111001111111111 -6861349.504065498 -6861349.613540769 16
66 111111111110111111111110 -6861349.451926213 -6861349.537719167 16
67 111111111110111111111101 -6861349.478661288 -6861349.597040642 19
68 111111111110111111111011 -6861349.478153668 -6861349.602653271 27
69 111111111110111111110111 -6861349.456076211 -6861349.583775468 25
70 111111111110111111101111 -6861349.4808427105 -6861349.589467657 25
71 111111111110111111011111 -6861349.47943081 -6861349.605477188 26
72 111111111110111110111111 -6861349.456076211 -6861349.583775474 25
73 111111111110111101111111 -6861349.479096586 -6861349.603475652 27
74 111111111110111011111111 -6861349.4808427105 -6861349.589765911 26
75 111111111110110111111111 -6861349.456076211 -6861349.580698729 22
76 111111111110101111111111 -6861349.48084271 -6861349.594421541 27
77 111111111110011111111111 -6861349.478936735 -6861349.589630483 26
78 111111111101111111111110 -6861349.479096526 -6861349.603475636 27
79 111111111101111111111101 -6861349.505309565 -6861349.612879584 19
80 111111111101111111111011 -6861349.504850803 -6861349.605382254 21
81 111111111101111111110111 -6861349.480842652 -6861349.589765849 26
82 111111111101111111101111 -6861349.505055691 -6861349.597705461 21
83 111111111101111111011111 -6861349.505055691 -6861349.606270216 25
84 111111111101111110111111 -6861349.47943075 -6861349.605477319 26
85 111111111101111101111111 -6861349.505055691 -6861349.609077136 16
86 111111111101111011111111 -6861349.505055691 -6861349.606270266 25
87 111111111101110111111111 -6861349.480842652 -6861349.589467566 25
88 111111111101101111111111 -6861349.505055691 -6861349.595397204 12
89 111111111101011111111111 -6861349.504850803 -6861349.605382177 21
90 111111111100111111111111 -6861349.478661288 -6861349.59704064 19
91 111111111011111111111110 -6861349.479430808 -6861349.605477329 26
92 111111111011111111111101 -6861349.504850803 -6861349.6053821985 21
93 111111111011111111111011 -6861349.505309563 -6861349.612879743 19
94 111111111011111111110111 -6861349.479096584 -6861349.603475517 27
95 111111111011111111101111 -6861349.50505569 -6861349.606270137 25
96 111111111011111111011111 -6861349.50505569 -6861349.6090771295 16
97 111111111011111110111111 -6861349.480842709 -6861349.589467692 25
98 111111111011111101111111 -6861349.50505569 -6861349.606270357 25
99 111111111011111011111111 -6861349.50505569 -6861349.59770549 21
100 111111111011110111111111 -6861349.480842709 -6861349.589765894 26
101 111111111011101111111111 -6861349.504850803 -6861349.605382178 21
102 111111111011011111111111 -6861349.50505569 -6861349.595397205 12
103 111111111010111111111111 -6861349.478153668 -6861349.602653351 27
104 111111111001111111111111 -6861349.504065498 -6861349.613540769 16
105 111111110111111111111110 -6861349.4560762085 -6861349.583775474 25
106 111111110111111111111101 -6861349.478936676 -6861349.589630482 26
107 111111110111111111111011 -6861349.478661286 -6861349.597040644 19
108 111111110111111111110111 -6861349.45192621 -6861349.538384436 19
109 111111110111111111101111 -6861349.479430808 -6861349.6054772185 26
110 111111110111111111011111 -6861349.479096584 -6861349.603475524 27
111 111111110111111110111111 -6861349.4560762085 -6861349.580698825 22
112 111111110111111101111111 -6861349.480842709 -6861349.58976589 26
113 111111110111111011111111 -6861349.480842709 -6861349.589467575 25
114 111111110111110111111111 -6861349.4560762085 -6861349.583775472 25
115 111111110111101111111111 -6861349.478153609 -6861349.602653358 27
116 111111110111011111111111 -6861349.480842709 -6861349.594421476 27
117 111111110110111111111111 -6861349.456152319 -6861349.5859413985 22
118 111111110101111111111111 -6861349.478936676 -6861349.589630466 26
119 111111110011111111111111 -6861349.478661286 -6861349.597040644 19
120 111111101111111111111110 -6861349.480842709 -6861349.594421563 27
121 111111101111111111111101 -6861349.505055691 -6861349.597705464 21
122 111111101111111111111011 -6861349.50505569 -6861349.60627019 25
123 111111101111111111110111 -6861349.4781536665 -6861349.60265331 27
124 111111101111111111101111 -6861349.505309563 -6861349.612879565 19
125 111111101111111111011111 -6861349.504850801 -6861349.605382187 21
126 111111101111111110111111 -6861349.478936734 -6861349.5896306075 26
127 111111101111111101111111 -6861349.50505569 -6861349.595397202 12
128 111111101111111011111111 -6861349.504850801 -6861349.605382254 21
129 111111101111110111111111 -6861349.478661286 -6861349.597040641 19
130 111111101111101111111111 -6861349.505055691 -6861349.609077147 16
131 111111101111011111111111 -6861349.50505569 -6861349.606270361 25
132 111111101110111111111111 -6861349.4808427105 -6861349.589467652 25
133 111111101101111111111111 -6861349.505367255 -6861349.608148846 19
134 111111101011111111111111 -6861349.502745957 -6861349.612576962 19
135 111111100111111111111111 -6861349.479430808 -6861349.605477307 26
136 111111011111111111111110 -6861349.4781536665 -6861349.602653351 27
137 111111011111111111111101 -6861349.505055691 -6861349.606270218 25
138 111111011111111111111011 -6861349.50505569 -6861349.609077126 16
139 111111011111111111110111 -6861349.478661286 -6861349.597040636 19
140 111111011111111111101111 -6861349.504850801 -6861349.605382197 21
141 111111011111111111011111 -6861349.505309563 -6861349.612879561 19
142 111111011111111110111111 -6861349.480842709 -6861349.594421551 27
143 111111011111111101111111 -6861349.504850801 -6861349.605382271 21
144 111111011111111011111111 -6861349.50505569 -6861349.595397271 12
145 111111011111110111111111 -6861349.478936734 -6861349.5896304725 26
146 111111011111101111111111 -6861349.505055691 -6861349.606270371 25
147 111111011111011111111111 -6861349.50505569 -6861349.597705472 21
148 111111011110111111111111 -6861349.47943081 -6861349.605477374 26
149 111111011101111111111111 -6861349.502745959 -6861349.612576965 19
150 111111011011111111111111 -6861349.501264611 -6861349.562545495 13
151 111111010111111111111111 -6861349.479096584 -6861349.603475506 27
152 111111001111111111111111 -6861349.504065497 -6861349.6135407 16
153 111110111111111111111110 -6861349.4560762085 -6861349.583775468 25
154 111110111111111111111101 -6861349.478153609 -6861349.602653279 27
155 111110111111111111111011 -6861349.480842709 -6861349.594421528 27
156 111110111111111111110111 -6861349.4560762085 -6861349.580698813 22
157 111110111111111111101111 -6861349.480842709 -6861349.589765887 26
158 111110111111111111011111 -6861349.480842709 -6861349.589467734 25
159 111110111111111110111111 -6861349.45192621 -6861349.538384424 19
160 111110111111111101111111 -6861349.479430808 -6861349.605477313 26
161 111110111111111011111111 -6861349.479096584 -6861349.603475508 27
162 111110111111110111111111 -6861349.4560762085 -6861349.583775474 25
163 111110111111101111111111 -6861349.478936676 -6861349.589630486 26
164 111110111111011111111111 -6861349.478661286 -6861349.597040641 19
165 111110111110111111111111 -6861349.456152319 -6861349.585941389 22
166 111110111101111111111111 -6861349.478153609 -6861349.602653351 27
167 111110111011111111111111 -6861349.480842709 -6861349.594421536 27
168 111110110111111111111111 -6861349.4560762085 -6861349.573010461 12
169 111110101111111111111111 -6861349.480842709 -6861349.589765824 26
170 111110011111111111111111 -6861349.480842709 -6861349.589467574 25
171 111101111111111111111110 -6861349.478661286 -6861349.597040635 19
172 111101111111111111111101 -6861349.505055691 -6861349.609077125 16
173 111101111111111111111011 -6861349.50505569 -6861349.606270263 25
174 111101111111111111110111 -6861349.478936734 -6861349.589630605 26
175 111101111111111111101111 -6861349.50505569 -6861349.595397202 12
176 111101111111111111011111 -6861349.504850801 -6861349.605382137 21
177 111101111111111110111111 -6861349.4781536665 -6861349.602653321 27
178 111101111111111101111111 -6861349.505309563 -6861349.612879567 19
179 111101111111111011111111 -6861349.504850801 -6861349.605382178 21
180 111101111111110111111111 -6861349.480842709 -6861349.594421512 27
181 111101111111101111111111 -6861349.505055691 -6861349.597705467 21
182 111101111111011111111111 -6861349.50505569 -6861349.606270237 25
183 111101111110111111111111 -6861349.479096586 -6861349.603475641 27
184 111101111101111111111111 -6861349.501264612 -6861349.562545613 13
185 111101111011111111111111 -6861349.502745957 -6861349.612576965 19
186 111101110111111111111111 -6861349.480842709 -6861349.589765886 26
187 111101101111111111111111 -6861349.50505569 -6861349.6032249285 13
188 111101011111111111111111 -6861349.504065497 -6861349.613540752 16
189 111100111111111111111111 -6861349.479430808 -6861349.605477301 26
190 111011111111111111111110 -6861349.478936734 -6861349.5896305535 26
191 111011111111111111111101 -6861349.505055691 -6861349.606270172 25
192 111011111111111111111011 -6861349.50505569 -6861349.597705482 21
193 111011111111111111110111 -6861349.480842709 -6861349.594421556 27
194 111011111111111111101111 -6861349.504850801 -6861349.6053821985 21
195 111011111111111111011111 -6861349.50505569 -6861349.595397271 12
196 111011111111111110111111 -6861349.478661286 -6861349.597040642 19
197 111011111111111101111111 -6861349.504850801 -6861349.605382195 21
198 111011111111111011111111 -6861349.505309563 -6861349.612879557 19
199 111011111111110111111111 -6861349.4781536665 -6861349.602653354 27
200 111011111111101111111111 -6861349.505055691 -6861349.606270225 25
201 111011111111011111111111 -6861349.50505569 -6861349.609077125 16
202 111011111110111111111111 -6861349.4808427105 -6861349.589765922 26
203 111011111101111111111111 -6861349.502745959 -6861349.612576955 19
204 111011111011111111111111 -6861349.505367253 -6861349.608148845 19
205 111011110111111111111111 -6861349.480842709 -6861349.589467563 25
206 111011101111111111111111 -6861349.504065497 -6861349.613540735 16
207 111011011111111111111111 -6861349.50505569 -6861349.603224849 13
208 111010111111111111111111 -6861349.479096584 -6861349.6034756405 27
209 111001111111111111111111 -6861349.504065497 -6861349.61354069 16
210 110111111111111111111110 -6861349.456076211 -6861349.580698734 22
211 110111111111111111111101 -6861349.48084271 -6861349.59442148 27
212 110111111111111111111011 -6861349.478936735 -6861349.5896304725 26
213 110111111111111111110111 -6861349.456076211 -6861349.583750352 25
214 110111111111111111101111 -6861349.479096586 -6861349.60347551 27
215 110111111111111111011111 -6861349.4808427105 -6861349.589765858 26
216 110111111111111110111111 -6861349.456076211 -6861349.583775477 25
217 110111111111111101111111 -6861349.4808427105 -6861349.58946757 25
218 110111111111111011111111 -6861349.47943081 -6861349.60547728 26
219 110111111111110111111111 -6861349.451926213 -6861349.537719229 16
220 110111111111101111111111 -6861349.478661288 -6861349.59704064 19
221 110111111111011111111111 -6861349.478153668 -6861349.602653334 27
222 110111111110111111111111 -6861349.456076211 -6861349.573010461 12
223 110111111101111111111111 -6861349.48084271 -6861349.5944215655 27
224 110111111011111111111111 -6861349.478936735 -6861349.589630481 26
225 110111110111111111111111 -6861349.456152319 -6861349.585941405 22
226 110111101111111111111111 -6861349.479096586 -6861349.603475642 27
227 110111011111111111111111 -6861349.4808427105 -6861349.589765818 26
228 110110111111111111111111 -6861349.456152319 -6861349.586137703 27
229 110101111111111111111111 -6861349.4808427105 -6861349.589467692 25
230 110011111111111111111111 -6861349.47943081 -6861349.60547729 26
231 101111111111111111111110 -6861349.480842652 -6861349.589467684 25
232 101111111111111111111101 -6861349.505055691 -6861349.595397204 12
233 101111111111111111111011 -6861349.504850803 -6861349.605382247 21
234 101111111111111111110111 -6861349.47943075 -6861349.605477313 26
235 101111111111111111101111 -6861349.505055691 -6861349.609077109 16
236 101111111111111111011111 -6861349.505055691 -6861349.606270184 25
237 101111111111111110111111 -6861349.480842652 -6861349.589765853 26
238 101111111111111101111111 -6861349.505055691 -6861349.59770549 21
239 101111111111111011111111 -6861349.505055691 -6861349.606270241 25
240 101111111111110111111111 -6861349.479096526 -6861349.603475517 27
241 101111111111101111111111 -6861349.505309565 -6861349.612879571 19
242 101111111111011111111111 -6861349.504850803 -6861349.605382197 21
243 101111111110111111111111 -6861349.48084271 -6861349.594421564 27
244 101111111101111111111111 -6861349.505055691 -6861349.603224907 13
245 101111111011111111111111 -6861349.504065498 -6861349.613540753 16
246 101111110111111111111111 -6861349.478153609 -6861349.602653328 27
247 101111101111111111111111 -6861349.501264612 -6861349.562545613 13
248 101111011111111111111111 -6861349.502745959 -6861349.612576955 19
249 101110111111111111111111 -6861349.478936676 -6861349.589630475 26
250 101101111111111111111111 -6861349.505367255 -6861349.608148846 19
251 101011111111111111111111 -6861349.502745959 -6861349.612576956 19
252 100111111111111111111111 -6861349.478661288 -6861349.59704064 19
253 011111111111111111111110 -6861349.480842709 -6861349.58976591 26
254 011111111111111111111101 -6861349.504850803 -6861349.60538218 21
255 011111111111111111111011 -6861349.50505569 -6861349.595397202 12
256 011111111111111111110111 -6861349.480842709 -6861349.58946769 25
257 011111111111111111101111 -6861349.50505569 -6861349.606270257 25
258 011111111111111111011111 -6861349.50505569 -6861349.597705474 21
259 011111111111111110111111 -6861349.479096584 -6861349.603475656 27
260 011111111111111101111111 -6861349.50505569 -6861349.606270179 25
261 011111111111111011111111 -6861349.50505569 -6861349.6090771295 16
262 011111111111110111111111 -6861349.479430808 -6861349.605477318 26
263 011111111111101111111111 -6861349.504850803 -6861349.605382199 21
264 011111111111011111111111 -6861349.505309563 -6861349.612879586 19
265 011111111110111111111111 -6861349.478936735 -6861349.58963048 26
266 011111111101111111111111 -6861349.504065498 -6861349.613540753 16
267 011111111011111111111111 -6861349.50505569 -6861349.603224905 13
268 011111110111111111111111 -6861349.480842709 -6861349.59442153 27
269 011111101111111111111111 -6861349.502745957 -6861349.612576964 19
270 011111011111111111111111 -6861349.505367253 -6861349.608148927 19
271 011110111111111111111111 -6861349.478661286 -6861349.597040641 19
272 011101111111111111111111 -6861349.502745957 -6861349.612576959 19
273 011011111111111111111111 -6861349.501264611 -6861349.562545495 13
274 010111111111111111111111 -6861349.478153668 -6861349.6026533665 27
275 001111111111111111111111 -6861349.504065498 -6861349.613540699 16
