0 000000100000001000101000 -7919657.109016376 -7919657.287355998 24
1 000000100000100000101000 -7919657.092592261 -7919657.26319457 29
2 000100100000000000101000 -7919657.0929852 -7919657.247514087 21
3 000000100000001001100000 -7919657.108157129 -7919657.2718397 24
4 010000100000001000001000 -7919657.110843383 -7919657.304128911 27
5 010000100000000000001100 -7919657.092908809 -7919657.277175957 27
6 010000100000001000010000 -7919657.091203232 -7919657.263380493 24
7 010000100000000000101000 -7919657.092836729 -7919657.27762431 27
8 010000100000000010001000 -7919657.091124661 -7919657.2660883 26
9 010000100000000010001000 -7919657.091124661 -7919657.2660883 26
10 010001100000000000001000 -7919657.11006015 -7919657.280283307 24
11 000000100000001000001001 -7919657.129646265 -7919657.3094492415 16
12 000100100000001000000001 -7919657.108304325 -7919657.275188698 12
13 010000000000001000001001 -7919657.131647106 -7919657.316013535 24
14 010000000000001010000001 -7919657.111779798 -7919657.275343723 27
15 010000000000011000000001 -7919657.112211767 -7919657.286879919 26
16 010000000000001001000001 -7919657.130972224 -7919657.301154895 16
17 010000000000001100000001 -7919657.1101666475 -7919657.278696026 23
18 010000000000001100000001 -7919657.1101666475 -7919657.278696026 23
19 010000100000001000000001 -7919657.110212224 -7919657.28707215 24
20 010000000000001001001000 -7919657.131647106 -7919657.317584188 24
21 000000000100001001001000 -7919657.130972178 -7919657.301154882 16
22 010010000000001001000000 -7919657.112131257 -7919657.289455341 28
23 010000000000100001001000 -7919657.111948879 -7919657.279860254 20
24 010000000000001000001100 -7919657.113053928 -7919657.29696968 26
25 000000000000001011001000 -7919657.129196977 -7919657.303090475 24
26 010000000000000101001000 -7919657.11171402 -7919657.276533692 19
27 010000000000000001001001 -7919657.130914978 -7919657.303231535 16
28 010000001000001001000000 -7919657.130883575 -7919657.308008187 26
29 000000000010001001001000 -7919657.130914978 -7919657.303231552 16
30 000000000010001001001000 -7919657.130914978 -7919657.303231552 16
31 000000000000001001001010 -7919657.130914978 -7919657.303231535 16
32 000000000000001001011000 -7919657.1296462435 -7919657.309449201 16
33 000000000000011001001000 -7919657.131647106 -7919657.31758422 24
34 000000000010011001000000 -7919657.112644954 -7919657.275107725 20
35 000000000000001001101000 -7919657.129128757 -7919657.300788234 24
36 000001000000010001001000 -7919657.124506643 -7919657.252984398 20
37 000001000000010001001000 -7919657.124506643 -7919657.252984398 20
38 100000000000001001001000 -7919657.131647061 -7919657.31601361 24
39 000000000100011000001000 -7919657.113053928 -7919657.296969652 26
40 000000000000010001011000 -7919657.106520286 -7919657.242555739 20
41 000001000000011001000000 -7919657.125209008 -7919657.258237231 28
42 000000000000001101001000 -7919657.131307015 -7919657.306451902 16
43 010000000000010001001000 -7919657.1120791705 -7919657.290784029 18
44 000000000000001011001000 -7919657.129196977 -7919657.303090475 24
45 000000000100011000001000 -7919657.113053928 -7919657.296969652 26
46 001000000000010001001000 -7919657.130087918 -7919657.304904221 16
47 000000001000011001000000 -7919657.130883575 -7919657.308008139 26
48 000000010000011000001000 -7919657.112746563 -7919657.3023140365 23
49 000000000001010001001000 -7919657.129592322 -7919657.2993309535 23
50 000000001000011001000000 -7919657.130883575 -7919657.308008139 26
51 000000000000010001001100 -7919657.112428067 -7919657.288455143 20
52 000000000010001001001000 -7919657.130914978 -7919657.303231552 16
53 000000000000011001000001 -7919657.130972224 -7919657.301154896 16
54 000000001000001001001000 -7919657.144367313 -7919657.277344395 16
55 000000100000001001001000 -7919657.129128757 -7919657.300788152 24
56 000000010000010001001000 -7919657.11009943 -7919657.284696767 19
57 000000001000011000001000 -7919657.127702687 -7919657.281552922 27
58 000000000000011001010000 -7919657.107191987 -7919657.239695453 24
59 010000000000001001001000 -7919657.131647106 -7919657.317584188 24
60 010000001000001001000000 -7919657.130883575 -7919657.308008187 26
61 010000001000001000001000 -7919657.127702687 -7919657.281553048 27
62 010100000000001001000000 -7919657.1124802595 -7919657.293689115 20
63 010000000000001000001100 -7919657.113053928 -7919657.29696968 26
64 011000000000000001001000 -7919657.130087918 -7919657.30490422 16
65 010000000000000101001000 -7919657.11171402 -7919657.276533692 19
66 010000000000001000011000 -7919657.112746563 -7919657.302314108 23
67 000000000000001011001000 -7919657.129196977 -7919657.303090475 24
68 010000000000000011001000 -7919657.11009943 -7919657.281401665 27
69 000000010000001001001000 -7919657.1296462435 -7919657.309449207 16
70 000000001000001001001000 -7919657.144367313 -7919657.277344395 16
71 000000001000001001001000 -7919657.144367313 -7919657.277344395 16
72 010000000000010001001000 -7919657.1120791705 -7919657.290784029 18
73 000000000000001001001001 -7919657.148957896 -7919657.331139878 9
74 000000000000001100001001 -7919657.129197 -7919657.303090481 24
75 000000010000000001001001 -7919657.129196977 -7919657.303090504 24
76 000000000000010001001001 -7919657.130914978 -7919657.303231532 16
77 100000000000001001001000 -7919657.131647061 -7919657.31601361 24
78 000000100000000001001001 -7919657.131307015 -7919657.306451928 16
79 000000000000101000001001 -7919657.130914932 -7919657.30323147 16
80 000000000000101001000001 -7919657.131647061 -7919657.317584227 24
81 000000001000001000001001 -7919657.144367313 -7919657.280653605 15
82 000100000000001001001000 -7919657.131307015 -7919657.306451902 16
83 000000000000001100001001 -7919657.129197 -7919657.303090481 24
84 000000000100001001000001 -7919657.130914932 -7919657.303231474 16
85 000000010000001000001001 -7919657.131306993 -7919657.30645188 16
86 000000000000000001011001 -7919657.129196977 -7919657.303090508 24
87 000000100000000001001001 -7919657.131307015 -7919657.306451928 16
88 100000000000000001001001 -7919657.130972178 -7919657.301154883 16
89 000000000000000001001011 -7919657.131647106 -7919657.317584208 24
90 000100000000001000001001 -7919657.129197 -7919657.303090475 24
91 000100000000000001001001 -7919657.129128757 -7919657.300788264 24
92 000000000000101001000001 -7919657.131647061 -7919657.317584227 24
93 000000000000001100001001 -7919657.129197 -7919657.303090481 24
94 000000000000001011000001 -7919657.131306993 -7919657.30645188 16
95 001000000000001000001001 -7919657.144367294 -7919657.276267843 17
96 000000000000001001001100 -7919657.130972178 -7919657.301154883 16
97 010000000000001001001000 -7919657.131647106 -7919657.317584188 24
98 000000000000001001100001 -7919657.129197 -7919657.303090423 24
99 000000000000000001001011 -7919657.131647106 -7919657.317584208 24
100 000000000000101001001000 -7919657.131647061 -7919657.316013536 24
101 000000000000000001001011 -7919657.131647106 -7919657.317584208 24
102 000000000000000011001001 -7919657.1296462435 -7919657.309449201 16
103 000000000000000011001001 -7919657.1296462435 -7919657.309449201 16
104 000000000000100001001001 -7919657.130972178 -7919657.301154885 16
105 000000001000001001000001 -7919657.147706879 -7919657.323409546 23
106 100000000000001001000001 -7919657.131647061 -7919657.31758417 24
107 000000000000011001000001 -7919657.130972224 -7919657.301154896 16
108 000000000000101000001001 -7919657.130914932 -7919657.30323147 16
109 000000000000001001011000 -7919657.1296462435 -7919657.309449201 16
110 000000000000001011000001 -7919657.131306993 -7919657.30645188 16
111 000000000000001001100001 -7919657.129197 -7919657.303090423 24
112 000000000001001001001000 -7919657.147706861 -7919657.323409554 23
113 000000000000001001000101 -7919657.130914932 -7919657.303231471 16
114 000000000000001001010001 -7919657.1291287355 -7919657.300788213 24
115 000010000000001001001000 -7919657.129196977 -7919657.303090523 24
116 001000000000001001001000 -7919657.144367294 -7919657.280653608 15
117 000000001000001001001000 -7919657.144367313 -7919657.277344395 16
118 000000001000001000001001 -7919657.144367313 -7919657.280653605 15
119 000000000000100001001001 -7919657.130972178 -7919657.301154885 16
120 000001000000001000001001 -7919657.147706879 -7919657.323409614 23
121 000000000001001001000001 -7919657.144367294 -7919657.276267844 17
122 000000000000000011001001 -7919657.1296462435 -7919657.309449201 16
123 000000000100000001001001 -7919657.131647061 -7919657.316013545 24
124 000000000000000001011001 -7919657.129196977 -7919657.303090508 24
125 000000001000001001000001 -7919657.147706879 -7919657.323409546 23
126 000000000000011001001000 -7919657.131647106 -7919657.31758422 24
127 000010000000001000001001 -7919657.1291287355 -7919657.300788216 24
128 010000000000000001001001 -7919657.130914978 -7919657.303231535 16
129 000000010000001001000001 -7919657.1291287355 -7919657.300788208 24
130 000000000000101000001001 -7919657.130914932 -7919657.30323147 16
131 000000000001001001000001 -7919657.144367294 -7919657.276267844 17
132 000000000000011001000001 -7919657.130972224 -7919657.301154896 16
133 000000000000000101001001 -7919657.129128757 -7919657.300788182 24
134 000000000000001001000011 -7919657.131647106 -7919657.316013559 24
135 000000000000001101001000 -7919657.131307015 -7919657.306451902 16
136 000010000000001001001000 -7919657.129196977 -7919657.303090523 24
137 000000000000101001000001 -7919657.131647061 -7919657.317584227 24
138 000000010000001001000001 -7919657.1291287355 -7919657.300788208 24
139 000000000000001001000101 -7919657.130914932 -7919657.303231471 16
140 000000010000001001001000 -7919657.1296462435 -7919657.309449207 16
141 000001000000001001000001 -7919657.144367313 -7919657.280653633 15
142 000000100000001001001000 -7919657.129128757 -7919657.300788152 24
143 000000000000001101000001 -7919657.129646265 -7919657.309449238 16
144 100000000000001001001000 -7919657.131647061 -7919657.31601361 24
145 010000000000001001000001 -7919657.130972224 -7919657.301154895 16
146 000001000000001001000001 -7919657.144367313 -7919657.280653633 15
147 000000000010001001001000 -7919657.130914978 -7919657.303231552 16
148 010000000000001001001000 -7919657.131647106 -7919657.317584188 24
149 000000000000001011001000 -7919657.129196977 -7919657.303090475 24
150 100000000000001001001000 -7919657.131647061 -7919657.31601361 24
151 000000000010000001001001 -7919657.131647106 -7919657.317584176 24
152 000010000000001001000001 -7919657.131306993 -7919657.30645188 16
153 000000000000001101000001 -7919657.129646265 -7919657.309449238 16
154 000000000000000011001001 -7919657.1296462435 -7919657.309449201 16
155 010000000000001001000001 -7919657.130972224 -7919657.301154895 16
156 000000000000001000001101 -7919657.131647061 -7919657.3175841775 24
157 000000000001001000001001 -7919657.144367294 -7919657.277344372 16
158 000000010000001001000001 -7919657.1291287355 -7919657.300788208 24
159 000000010000001000001001 -7919657.131306993 -7919657.30645188 16
160 001000000000001001000001 -7919657.144367294 -7919657.27734438 16
161 000000000000011001000001 -7919657.130972224 -7919657.301154896 16
162 000010000000001001000001 -7919657.131306993 -7919657.30645188 16
163 000000000000001000001101 -7919657.131647061 -7919657.3175841775 24
164 000001000000001001000001 -7919657.144367313 -7919657.280653633 15
165 000000000001001000001001 -7919657.144367294 -7919657.277344372 16
166 001000000000001001000001 -7919657.144367294 -7919657.27734438 16
167 000000010000001001001000 -7919657.1296462435 -7919657.309449207 16
168 000000000000011001001000 -7919657.131647106 -7919657.31758422 24
169 000000000000001000001101 -7919657.131647061 -7919657.3175841775 24
170 000001000000001001000001 -7919657.144367313 -7919657.280653633 15
171 100000000000000001001001 -7919657.130972178 -7919657.301154883 16
172 000000000000000011001001 -7919657.1296462435 -7919657.309449201 16
173 000000000001001001000001 -7919657.144367294 -7919657.276267844 17
174 100000000000001001001000 -7919657.131647061 -7919657.31601361 24
175 000000000000000001011001 -7919657.129196977 -7919657.303090508 24
176 000000000000001001101000 -7919657.129128757 -7919657.300788234 24
177 000000000100001001000001 -7919657.130914932 -7919657.303231474 16
178 000000000000001000001011 -7919657.130972224 -7919657.301154903 16
179 000000000010001001001000 -7919657.130914978 -7919657.303231552 16
180 000001000000000001001001 -7919657.144367313 -7919657.277344362 16
181 000000000000001001000011 -7919657.131647106 -7919657.316013559 24
182 000000000000001000001011 -7919657.130972224 -7919657.301154903 16
183 000000000000001001100001 -7919657.129197 -7919657.303090423 24
184 000000000000000001001011 -7919657.131647106 -7919657.317584208 24
185 000000000000011000001001 -7919657.131647106 -7919657.316013555 24
186 000000000001000001001001 -7919657.144367294 -7919657.280653608 15
187 100000000000001001001000 -7919657.131647061 -7919657.31601361 24
188 000000100000000001001001 -7919657.131307015 -7919657.306451928 16
189 000000000010000001001001 -7919657.131647106 -7919657.317584176 24
190 000000010000000001001001 -7919657.129196977 -7919657.303090504 24
191 000000000000001011001000 -7919657.129196977 -7919657.303090475 24
192 000000000100000001001001 -7919657.131647061 -7919657.316013545 24
193 000000000010001001000001 -7919657.131647106 -7919657.316013533 24
194 010000000000000001001001 -7919657.130914978 -7919657.303231535 16
195 000000000100001001001000 -7919657.130972178 -7919657.301154882 16
196 000000010000000001001001 -7919657.129196977 -7919657.303090504 24
197 100000000000001001000001 -7919657.131647061 -7919657.31758417 24
198 010000000000001001000001 -7919657.130972224 -7919657.301154895 16
199 000000000000000001001011 -7919657.131647106 -7919657.317584208 24
