0 110010111011111100101010 -7272913.258108838 -7272913.589355739 27
1 110110011011111100101010 -7272913.252738513 -7272913.533086042 34
2 010010111011111100101011 -7272913.277341802 -7272913.552080094 30
3 110000111011111100101110 -7272913.261418187 -7272913.591831697 25
4 110000111011011110101110 -7272913.260419959 -7272913.588867784 25
5 110000111011111100111100 -7272913.257860037 -7272913.590991145 25
6 100000111011111110101110 -7272913.25906357 -7272913.581497184 27
7 110010111011111100001110 -7272913.260689233 -7272913.575536606 27
8 110000111011111100101011 -7272913.283815049 -7272913.60879695 31
9 110000011011111100111011 -7272913.281131326 -7272913.570663976 33
10 110001111011111100001011 -7272913.305340081 -7272913.598441418 29
11 110100101011111100101011 -7272913.279568531 -7272913.588648557 29
12 110000111011111100011011 -7272913.281131326 -7272913.565631006 26
13 110000111111101100101011 -7272913.278338227 -7272913.565652899 33
14 110000111011111110101010 -7272913.258716587 -7272913.587427468 26
15 110000111011101100101111 -7272913.278749514 -7272913.558586716 31
16 110010111011111100100011 -7272913.257472494 -7272913.578014159 31
17 110100101011111100101011 -7272913.279568531 -7272913.588648557 29
18 100000111011111100101111 -7272913.284530474 -7272913.605497487 32
19 100010111011111100101011 -7272913.280078366 -7272913.585539317 27
20 110001101011111100101011 -7272913.3087737085 -7272913.644295644 30
21 110000101011111100101111 -7272913.284556035 -7272913.612445494 34
22 111001101011111100100011 -7272913.30851106 -7272913.650537271 26
23 101001101011111110100011 -7272913.306452466 -7272913.633074646 29
24 111001101011110101100011 -7272913.314273215 -7272913.658056618 27
25 111001100011111101100011 -7272913.308716143 -7272913.626739852 35
26 111001101011110101010011 -7272913.306324736 -7272913.612286676 36
27 011101101011110101100011 -7272913.312719772 -7272913.643454693 35
28 111001100011110101101011 -7272913.318828132 -7272913.656343796 42
29 011001101011111101100011 -7272913.330335828 -7272913.633305872 38
30 111001111011110001100011 -7272913.315538575 -7272913.677550006 32
31 111001101011110001101011 -7272913.34228608 -7272913.678229828 25
32 111001101011110100101011 -7272913.3137775995 -7272913.637932434 29
33 111001001011110101101011 -7272913.332837185 -7272913.618942814 31
34 111001101011010011101011 -7272913.336464036 -7272913.643717903 30
35 111001100111110001101011 -7272913.319730359 -7272913.646969364 21
36 110001101011110011101011 -7272913.309969714 -7272913.644495139 30
37 111001111011110001100011 -7272913.315538575 -7272913.677550006 32
38 111001110011110001101011 -7272913.319782902 -7272913.664865408 40
39 110001101111110001101011 -7272913.312340563 -7272913.630993715 26
40 111011101011110001001011 -7272913.334543312 -7272913.639996434 30
41 110001101111110001101011 -7272913.312340563 -7272913.630993715 26
42 011001101011110101101011 -7272913.335086153 -7272913.626239805 30
43 111001101011110001011011 -7272913.333236732 -7272913.6308598295 36
44 111001101011110100101011 -7272913.3137775995 -7272913.637932434 29
45 111001001011110001111011 -7272913.334158693 -7272913.637051884 31
46 111001111011110001101010 -7272913.315037316 -7272913.663657851 26
47 101001101011110001111011 -7272913.337667946 -7272913.654642249 24
48 111001100111110001101011 -7272913.319730359 -7272913.646969364 21
49 011001101111110001101011 -7272913.336068902 -7272913.644734834 35
50 011001101011110011101011 -7272913.336472064 -7272913.648809376 28
51 111001101010110001101111 -7272913.319689298 -7272913.646448114 24
52 111001101011100001111011 -7272913.342680861 -7272913.692356195 26
53 111001001011100101111011 -7272913.333614619 -7272913.640002935 30
54 101001101011100011111011 -7272913.337930868 -7272913.670786178 27
55 101001101011100001111111 -7272913.337930868 -7272913.666232016 27
56 111101101011000001111011 -7272913.335906743 -7272913.6331404485 28
57 111001101011010001111011 -7272913.336093834 -7272913.643965828 34
58 111001111011100000111011 -7272913.321208445 -7272913.6866194 26
59 101001101011100001111111 -7272913.337930868 -7272913.666232016 27
60 110001101111100001111011 -7272913.312519425 -7272913.636491987 26
61 011011101011100001111011 -7272913.336864597 -7272913.6538013 32
62 111001101111100001111001 -7272913.336482949 -7272913.638134925 27
63 101001101011100001111111 -7272913.337930868 -7272913.666232016 27
64 111001111001100001111011 -7272913.337337343 -7272913.658494776 30
65 111010101011100001111011 -7272913.318244621 -7272913.67794728 27
66 111011101010100001111011 -7272913.320255872 -7272913.670874117 23
67 111101101011100001011011 -7272913.3328821855 -7272913.628120908 27
68 111001101011101001110011 -7272913.338181039 -7272913.699578814 27
69 011001101011101101110011 -7272913.331193025 -7272913.654580999 34
70 011001101011101011110011 -7272913.333653771 -7272913.650512463 33
71 111001101111101001100011 -7272913.332463565 -7272913.655585678 28
72 111011101011100001110011 -7272913.318563191 -7272913.69430119 29
73 111001101011101000111011 -7272913.3400230035 -7272913.6796035655 28
74 111001100011101011110011 -7272913.312009699 -7272913.641347921 28
75 111001100011111001110011 -7272913.310026364 -7272913.630636944 47
76 111001101111101000110011 -7272913.3122793995 -7272913.665452801 28
77 111001100011101011110011 -7272913.312009699 -7272913.641347921 28
78 111101101011101001110001 -7272913.331192986 -7272913.640675906 31
79 101001111011101001110011 -7272913.339821557 -7272913.719636075 25
80 100101111011101001110011 -7272913.311418693 -7272913.682035146 26
81 111001101011101001110011 -7272913.338181039 -7272913.699578814 27
82 101001111011101001110101 -7272913.332026325 -7272913.651738119 28
83 101011111011101001110001 -7272913.335850671 -7272913.665187047 28
84 101000111011101001110111 -7272913.311885223 -7272913.701816296 28
85 101001111011101001011011 -7272913.359903193 -7272913.680755264 25
86 101011110011101001110011 -7272913.313279079 -7272913.656644718 29
87 101001101011111001110011 -7272913.333129802 -7272913.66344384 29
88 101001111001111001110011 -7272913.332865169 -7272913.663016229 28
89 001001111111101001110011 -7272913.332867603 -7272913.662308956 28
90 101001111011101011010011 -7272913.335516905 -7272913.670050127 32
91 101001111011111000110011 -7272913.316054011 -7272913.680512924 28
92 101101101011101001110011 -7272913.332994515 -7272913.6648255745 27
93 101001111010101001111011 -7272913.344340693 -7272913.716926809 24
94 001001111011111001110011 -7272913.332865208 -7272913.655640012 29
95 101001111011101001011011 -7272913.359903193 -7272913.680755264 25
96 101001111001101011110011 -7272913.335850671 -7272913.665186972 28
97 001101111011101001110011 -7272913.338410301 -7272913.697669329 26
98 101001111111101001100011 -7272913.333132647 -7272913.667203669 26
99 101001111010111001110011 -7272913.316518736 -7272913.691614028 23
100 100001111011101011110011 -7272913.31397613 -7272913.694254477 30
101 101001111011101000111011 -7272913.343936388 -7272913.699192411 26
102 111001111011101001110010 -7272913.311926359 -7272913.688458901 26
103 101001111010101101110011 -7272913.316512023 -7272913.701609332 28
104 001001111111101001110011 -7272913.332867603 -7272913.662308956 28
105 101001110011111001110011 -7272913.310864738 -7272913.6374565605 32
106 101100111011101001110011 -7272913.311885223 -7272913.701816286 28
107 101101111011101001100011 -7272913.333359197 -7272913.670904256 26
108 101001111011101001100111 -7272913.33290814 -7272913.662823345 30
109 101001110111101001110011 -7272913.310834026 -7272913.640074749 30
110 111001111001101001110011 -7272913.332865169 -7272913.66068954 29
111 101101101011101001110011 -7272913.332994515 -7272913.6648255745 27
112 111001011011101001110011 -7272913.332933999 -7272913.654341251 33
113 111000111011101001110011 -7272913.314474863 -7272913.702467509 27
114 001001111011101001110111 -7272913.332867603 -7272913.66522718 28
115 101101101011101001110011 -7272913.332994515 -7272913.6648255745 27
116 101001111011100001111011 -7272913.344340655 -7272913.716926825 24
117 101001111111100001110011 -7272913.317060232 -7272913.706123402 28
118 101000111011111001110011 -7272913.314474863 -7272913.70246761 27
119 101001111111101001010011 -7272913.333163751 -7272913.659615096 27
120 001001111111101001110011 -7272913.332867603 -7272913.662308956 28
121 101101111011101000110011 -7272913.316290355 -7272913.683301235 30
122 101011111011101001010011 -7272913.335919965 -7272913.66741058 29
123 101000111011101001110111 -7272913.311885223 -7272913.701816296 28
124 101001111011001001111011 -7272913.359903195 -7272913.680755369 25
125 001001111111101001110011 -7272913.332867603 -7272913.662308956 28
126 101101111011101000110011 -7272913.316290355 -7272913.683301235 30
127 100001111011111001110011 -7272913.311445726 -7272913.679107748 26
128 101001111010101001110111 -7272913.316510545 -7272913.690382106 24
129 101011111011001001110011 -7272913.335850643 -7272913.666505389 31
130 101001111111101001110010 -7272913.311777341 -7272913.681279531 24
131 101001011011101001111011 -7272913.359903193 -7272913.680755253 25
132 111001111011001001110011 -7272913.332865208 -7272913.655639991 29
133 101101111011101001110001 -7272913.333361768 -7272913.664643013 28
134 101001011011101011110011 -7272913.335919965 -7272913.667410489 29
135 101001111010101001111011 -7272913.344340693 -7272913.716926809 24
136 101001110011101001110111 -7272913.310834026 -7272913.640074809 30
137 101001111011111001110001 -7272913.332865169 -7272913.660689685 29
138 101011111011101001110010 -7272913.314773429 -7272913.690766472 24
139 101001111011101101010011 -7272913.3333926955 -7272913.668767054 29
140 101001111011100001111011 -7272913.344340655 -7272913.716926825 24
141 101001111111101001110001 -7272913.332867631 -7272913.660186487 27
142 101001111011001001111011 -7272913.359903195 -7272913.680755369 25
143 111001111011101001010011 -7272913.333160945 -7272913.657250961 28
144 101001111011101010110011 -7272913.318898411 -7272913.685707258 34
145 101101111011101001100011 -7272913.333359197 -7272913.670904256 26
146 101001111111001001110011 -7272913.332867603 -7272913.665227229 28
147 101001011011101001110111 -7272913.333163751 -7272913.659615029 27
148 101000111011101001110111 -7272913.311885223 -7272913.701816296 28
149 101001111011001101110011 -7272913.338410301 -7272913.69766924 26
150 111001110011101001110011 -7272913.310864738 -7272913.637456557 32
151 011001111011101001110011 -7272913.332024044 -7272913.656496034 34
152 100101111011101001110011 -7272913.311418693 -7272913.682035146 26
153 101101111011101001110001 -7272913.333361768 -7272913.664643013 28
154 101001111110101001110011 -7272913.316510545 -7272913.690382175 24
155 110001111011101001110011 -7272913.311445726 -7272913.679107699 26
156 101001101011101001111011 -7272913.359903195 -7272913.680451304 24
157 001001111011101001110111 -7272913.332867603 -7272913.66522718 28
158 101101111011001001110011 -7272913.333361768 -7272913.663914515 26
159 111001111010101001110011 -7272913.316518736 -7272913.6916139675 23
160 101001110011101011110011 -7272913.313279079 -7272913.656644688 29
161 101001111011111000110011 -7272913.316054011 -7272913.680512924 28
162 101001110011101001110111 -7272913.310834026 -7272913.640074809 30
163 001011111011101001110011 -7272913.335564522 -7272913.664392645 31
164 101010111011101001110011 -7272913.314474847 -7272913.702467537 27
165 101001111011101101110010 -7272913.314458883 -7272913.6929870425 25
166 101101111011101000110011 -7272913.316290355 -7272913.683301235 30
167 101101111001101001110011 -7272913.333115315 -7272913.657535647 28
168 101001011011101001111011 -7272913.359903193 -7272913.680755253 25
169 001011111011101001110011 -7272913.335564522 -7272913.664392645 31
170 101001111011101001111010 -7272913.339418953 -7272913.702661009 23
171 101001111011111001110001 -7272913.332865169 -7272913.660689685 29
172 101101101011101001110011 -7272913.332994515 -7272913.6648255745 27
173 101001111111101001010011 -7272913.333163751 -7272913.659615096 27
174 101001111111100001110011 -7272913.317060232 -7272913.706123402 28
175 100001111011101001111011 -7272913.339418992 -7272913.702661069 23
176 111001011011101001110011 -7272913.332933999 -7272913.654341251 33
177 101000111011101101110011 -7272913.311885223 -7272913.701816257 28
178 101001111011100011110011 -7272913.319633116 -7272913.709244515 30
179 110001111011101001110011 -7272913.311445726 -7272913.679107699 26
180 100001111011111001110011 -7272913.311445726 -7272913.679107748 26
181 101001011011101101110011 -7272913.3333926955 -7272913.671206171 30
182 101001111011011001110011 -7272913.332024044 -7272913.656496139 34
183 001001111011111001110011 -7272913.332865208 -7272913.655640012 29
184 101001110011101011110011 -7272913.313279079 -7272913.656644688 29
185 100001111011101001111011 -7272913.339418992 -7272913.702661069 23
186 100011111011101001110011 -7272913.31397613 -7272913.694254372 30
187 101001111011101001111010 -7272913.339418953 -7272913.702661009 23
188 101001111011101001111010 -7272913.339418953 -7272913.702661009 23
189 101001111111101001100011 -7272913.333132647 -7272913.667203669 26
190 100001111011101001111011 -7272913.339418992 -7272913.702661069 23
191 001001111011101101110011 -7272913.333361768 -7272913.66391455 26
192 101001111011101011100011 -7272913.335886508 -7272913.677942916 29
193 101101111011001001110011 -7272913.333361768 -7272913.663914515 26
194 101001101011101101110011 -7272913.333359197 -7272913.670904286 26
195 101001111011101001100111 -7272913.33290814 -7272913.662823345 30
196 101001111111101001100011 -7272913.333132647 -7272913.667203669 26
197 101001111001101001111011 -7272913.359903158 -7272913.680451348 24
198 101001111111101001110010 -7272913.311777341 -7272913.681279531 24
199 101001111011100001110111 -7272913.317060232 -7272913.706123382 28
