40
Lattice="7.7160474075 -7.997670485833334 0.0 7.7160474075 7.997670485833334 0.0 0.0 0.0 11.142618660833334" Properties=species:S:1:pos:R:3 pbc="T T T"
Pb       0.00000000       0.00000000       0.00000000
Pb       3.85802370      -3.99883524       0.00000000
Pb       3.85802370       3.99883524       0.00000000
Pb       7.71604741       0.00000000       0.00000000
Pb       0.00000000       0.00000000       5.57130933
Pb       3.85802370      -3.99883524       5.57130933
Pb       3.85802370       3.99883524       5.57130933
Pb       7.71604741       0.00000000       5.57130933
Cl       2.29058853      -1.64864299       0.42101798
Cl       1.56743517       2.35019226       0.42101798
Cl      -0.55236575      -0.11818546       2.78565467
Cl       5.42545887      -6.34902750      -0.42101798
Cl       6.14861224      -2.35019226      -0.42101798
Cl       4.41038945      -4.11702070       2.78565467
Cl       5.42545887       1.64864299      -0.42101798
Cl       6.14861224       5.64747823      -0.42101798
Cl       4.41038945       3.88064979       2.78565467
Cl      10.00663594      -1.64864299       0.42101798
Cl       9.28348258       2.35019226       0.42101798
Cl       7.16368166      -0.11818546       2.78565467
Cl       2.29058853      -1.64864299       5.15029135
Cl       1.56743517       2.35019226       5.15029135
Cl       0.55236575       0.11818546       8.35696400
Cl       5.42545887      -6.34902750       5.99232731
Cl       6.14861224      -2.35019226       5.99232731
Cl       3.30565796      -3.88064979       8.35696400
Cl       5.42545887       1.64864299       5.99232731
Cl       6.14861224       5.64747823       5.99232731
Cl       3.30565796       4.11702070       8.35696400
Cl      10.00663594      -1.64864299       5.15029135
Cl       9.28348258       2.35019226       5.15029135
Br       8.26841315       0.11818546       8.35696400
Cs       3.73212201       0.45418724       2.78565467
Cs       7.84194910      -3.54464801       2.78565467
Cs       7.84194910       4.45302248       2.78565467
Cs      11.44816941       0.45418724       2.78565467
Cs       3.98392540      -0.45418724       8.35696400
Cs       7.59014571      -4.45302248       8.35696400
Cs       7.59014571       3.54464800       8.35696400
Cs      11.69997281      -0.45418724       8.35696400
40
Lattice="7.7160474075 -7.997670485833334 0.0 7.7160474075 7.997670485833334 0.0 0.0 0.0 11.142618660833334" Properties=species:S:1:pos:R:3 pbc="T T T"
Pb       0.00000000       0.00000000       0.00000000
Pb       3.85802370      -3.99883524       0.00000000
Pb       3.85802370       3.99883524       0.00000000
Pb       7.71604741       0.00000000       0.00000000
Pb       0.00000000       0.00000000       5.57130933
Pb       3.85802370      -3.99883524       5.57130933
Pb       3.85802370       3.99883524       5.57130933
Pb       7.71604741       0.00000000       5.57130933
Cl       2.29058853      -1.64864299       0.42101798
Cl       1.56743517       2.35019226       0.42101798
Cl      -0.55236575      -0.11818546       2.78565467
Cl       5.42545887      -6.34902750      -0.42101798
Cl       6.14861224      -2.35019226      -0.42101798
Cl       4.41038945      -4.11702070       2.78565467
Cl       5.42545887       1.64864299      -0.42101798
Cl       6.14861224       5.64747823      -0.42101798
Cl       4.41038945       3.88064979       2.78565467
Cl      10.00663594      -1.64864299       0.42101798
Cl       9.28348258       2.35019226       0.42101798
Cl       7.16368166      -0.11818546       2.78565467
Cl       2.29058853      -1.64864299       5.15029135
Cl       1.56743517       2.35019226       5.15029135
Cl       0.55236575       0.11818546       8.35696400
Cl       5.42545887      -6.34902750       5.99232731
Cl       6.14861224      -2.35019226       5.99232731
Cl       3.30565796      -3.88064979       8.35696400
Cl       5.42545887       1.64864299       5.99232731
Cl       6.14861224       5.64747823       5.99232731
Cl       3.30565796       4.11702070       8.35696400
Cl      10.00663594      -1.64864299       5.15029135
Br       9.28348258       2.35019226       5.15029135
Cl       8.26841315       0.11818546       8.35696400
Cs       3.73212201       0.45418724       2.78565467
Cs       7.84194910      -3.54464801       2.78565467
Cs       7.84194910       4.45302248       2.78565467
Cs      11.44816941       0.45418724       2.78565467
Cs       3.98392540      -0.45418724       8.35696400
Cs       7.59014571      -4.45302248       8.35696400
Cs       7.59014571       3.54464800       8.35696400
Cs      11.69997281      -0.45418724       8.35696400
40
Lattice="7.7160474075 -7.997670485833334 0.0 7.7160474075 7.997670485833334 0.0 0.0 0.0 11.142618660833334" Properties=species:S:1:pos:R:3 pbc="T T T"
Pb       0.00000000       0.00000000       0.00000000
Pb       3.85802370      -3.99883524       0.00000000
Pb       3.85802370       3.99883524       0.00000000
Pb       7.71604741       0.00000000       0.00000000
Pb       0.00000000       0.00000000       5.57130933
Pb       3.85802370      -3.99883524       5.57130933
Pb       3.85802370       3.99883524       5.57130933
Pb       7.71604741       0.00000000       5.57130933
Cl       2.29058853      -1.64864299       0.42101798
Cl       1.56743517       2.35019226       0.42101798
Cl      -0.55236575      -0.11818546       2.78565467
Cl       5.42545887      -6.34902750      -0.42101798
Cl       6.14861224      -2.35019226      -0.42101798
Cl       4.41038945      -4.11702070       2.78565467
Cl       5.42545887       1.64864299      -0.42101798
Cl       6.14861224       5.64747823      -0.42101798
Cl       4.41038945       3.88064979       2.78565467
Cl      10.00663594      -1.64864299       0.42101798
Cl       9.28348258       2.35019226       0.42101798
Cl       7.16368166      -0.11818546       2.78565467
Cl       2.29058853      -1.64864299       5.15029135
Cl       1.56743517       2.35019226       5.15029135
Cl       0.55236575       0.11818546       8.35696400
Cl       5.42545887      -6.34902750       5.99232731
Cl       6.14861224      -2.35019226       5.99232731
Cl       3.30565796      -3.88064979       8.35696400
Cl       5.42545887       1.64864299       5.99232731
Cl       6.14861224       5.64747823       5.99232731
Cl       3.30565796       4.11702070       8.35696400
Br      10.00663594      -1.64864299       5.15029135
Cl       9.28348258       2.35019226       5.15029135
Cl       8.26841315       0.11818546       8.35696400
Cs       3.73212201       0.45418724       2.78565467
Cs       7.84194910      -3.54464801       2.78565467
Cs       7.84194910       4.45302248       2.78565467
Cs      11.44816941       0.45418724       2.78565467
Cs       3.98392540      -0.45418724       8.35696400
Cs       7.59014571      -4.45302248       8.35696400
Cs       7.59014571       3.54464800       8.35696400
Cs      11.69997281      -0.45418724       8.35696400
40
Lattice="7.7160474075 -7.997670485833334 0.0 7.7160474075 7.997670485833334 0.0 0.0 0.0 11.142618660833334" Properties=species:S:1:pos:R:3 pbc="T T T"
Pb       0.00000000       0.00000000       0.00000000
Pb       3.85802370      -3.99883524       0.00000000
Pb       3.85802370       3.99883524       0.00000000
Pb       7.71604741       0.00000000       0.00000000
Pb       0.00000000       0.00000000       5.57130933
Pb       3.85802370      -3.99883524       5.57130933
Pb       3.85802370       3.99883524       5.57130933
Pb       7.71604741       0.00000000       5.57130933
Cl       2.29058853      -1.64864299       0.42101798
Cl       1.56743517       2.35019226       0.42101798
Cl      -0.55236575      -0.11818546       2.78565467
Cl       5.42545887      -6.34902750      -0.42101798
Cl       6.14861224      -2.35019226      -0.42101798
Cl       4.41038945      -4.11702070       2.78565467
Cl       5.42545887       1.64864299      -0.42101798
Cl       6.14861224       5.64747823      -0.42101798
Cl       4.41038945       3.88064979       2.78565467
Cl      10.00663594      -1.64864299       0.42101798
Cl       9.28348258       2.35019226       0.42101798
Cl       7.16368166      -0.11818546       2.78565467
Cl       2.29058853      -1.64864299       5.15029135
Cl       1.56743517       2.35019226       5.15029135
Cl       0.55236575       0.11818546       8.35696400
Cl       5.42545887      -6.34902750       5.99232731
Cl       6.14861224      -2.35019226       5.99232731
Cl       3.30565796      -3.88064979       8.35696400
Cl       5.42545887       1.64864299       5.99232731
Cl       6.14861224       5.64747823       5.99232731
Br       3.30565796       4.11702070       8.35696400
Cl      10.00663594      -1.64864299       5.15029135
Cl       9.28348258       2.35019226       5.15029135
Cl       8.26841315       0.11818546       8.35696400
Cs       3.73212201       0.45418724       2.78565467
Cs       7.84194910      -3.54464801       2.78565467
Cs       7.84194910       4.45302248       2.78565467
Cs      11.44816941       0.45418724       2.78565467
Cs       3.98392540      -0.45418724       8.35696400
Cs       7.59014571      -4.45302248       8.35696400
Cs       7.59014571       3.54464800       8.35696400
Cs      11.69997281      -0.45418724       8.35696400
40
Lattice="7.7160474075 -7.997670485833334 0.0 7.7160474075 7.997670485833334 0.0 0.0 0.0 11.142618660833334" Properties=species:S:1:pos:R:3 pbc="T T T"
Pb       0.00000000       0.00000000       0.00000000
Pb       3.85802370      -3.99883524       0.00000000
Pb       3.85802370       3.99883524       0.00000000
Pb       7.71604741       0.00000000       0.00000000
Pb       0.00000000       0.00000000       5.57130933
Pb       3.85802370      -3.99883524       5.57130933
Pb       3.85802370       3.99883524       5.57130933
Pb       7.71604741       0.00000000       5.57130933
Cl       2.29058853      -1.64864299       0.42101798
Cl       1.56743517       2.35019226       0.42101798
Cl      -0.55236575      -0.11818546       2.78565467
Cl       5.42545887      -6.34902750      -0.42101798
Cl       6.14861224      -2.35019226      -0.42101798
Cl       4.41038945      -4.11702070       2.78565467
Cl       5.42545887       1.64864299      -0.42101798
Cl       6.14861224       5.64747823      -0.42101798
Cl       4.41038945       3.88064979       2.78565467
Cl      10.00663594      -1.64864299       0.42101798
Cl       9.28348258       2.35019226       0.42101798
Cl       7.16368166      -0.11818546       2.78565467
Cl       2.29058853      -1.64864299       5.15029135
Cl       1.56743517       2.35019226       5.15029135
Cl       0.55236575       0.11818546       8.35696400
Cl       5.42545887      -6.34902750       5.99232731
Cl       6.14861224      -2.35019226       5.99232731
Cl       3.30565796      -3.88064979       8.35696400
Cl       5.42545887       1.64864299       5.99232731
Br       6.14861224       5.64747823       5.99232731
Cl       3.30565796       4.11702070       8.35696400
Cl      10.00663594      -1.64864299       5.15029135
Cl       9.28348258       2.35019226       5.15029135
Cl       8.26841315       0.11818546       8.35696400
Cs       3.73212201       0.45418724       2.78565467
Cs       7.84194910      -3.54464801       2.78565467
Cs       7.84194910       4.45302248       2.78565467
Cs      11.44816941       0.45418724       2.78565467
Cs       3.98392540      -0.45418724       8.35696400
Cs       7.59014571      -4.45302248       8.35696400
Cs       7.59014571       3.54464800       8.35696400
Cs      11.69997281      -0.45418724       8.35696400
40
Lattice="7.7160474075 -7.997670485833334 0.0 7.7160474075 7.997670485833334 0.0 0.0 0.0 11.142618660833334" Properties=species:S:1:pos:R:3 pbc="T T T"
Pb       0.00000000       0.00000000       0.00000000
Pb       3.85802370      -3.99883524       0.00000000
Pb       3.85802370       3.99883524       0.00000000
Pb       7.71604741       0.00000000       0.00000000
Pb       0.00000000       0.00000000       5.57130933
Pb       3.85802370      -3.99883524       5.57130933
Pb       3.85802370       3.99883524       5.57130933
Pb       7.71604741       0.00000000       5.57130933
Cl       2.29058853      -1.64864299       0.42101798
Cl       1.56743517       2.35019226       0.42101798
Cl      -0.55236575      -0.11818546       2.78565467
Cl       5.42545887      -6.34902750      -0.42101798
Cl       6.14861224      -2.35019226      -0.42101798
Cl       4.41038945      -4.11702070       2.78565467
Cl       5.42545887       1.64864299      -0.42101798
Cl       6.14861224       5.64747823      -0.42101798
Cl       4.41038945       3.88064979       2.78565467
Cl      10.00663594      -1.64864299       0.42101798
Cl       9.28348258       2.35019226       0.42101798
Cl       7.16368166      -0.11818546       2.78565467
Cl       2.29058853      -1.64864299       5.15029135
Cl       1.56743517       2.35019226       5.15029135
Cl       0.55236575       0.11818546       8.35696400
Cl       5.42545887      -6.34902750       5.99232731
Cl       6.14861224      -2.35019226       5.99232731
Cl       3.30565796      -3.88064979       8.35696400
Br       5.42545887       1.64864299       5.99232731
Cl       6.14861224       5.64747823       5.99232731
Cl       3.30565796       4.11702070       8.35696400
Cl      10.00663594      -1.64864299       5.15029135
Cl       9.28348258       2.35019226       5.15029135
Cl       8.26841315       0.11818546       8.35696400
Cs       3.73212201       0.45418724       2.78565467
Cs       7.84194910      -3.54464801       2.78565467
Cs       7.84194910       4.45302248       2.78565467
Cs      11.44816941       0.45418724       2.78565467
Cs       3.98392540      -0.45418724       8.35696400
Cs       7.59014571      -4.45302248       8.35696400
Cs       7.59014571       3.54464800       8.35696400
Cs      11.69997281      -0.45418724       8.35696400
40
Lattice="7.7160474075 -7.997670485833334 0.0 7.7160474075 7.997670485833334 0.0 0.0 0.0 11.142618660833334" Properties=species:S:1:pos:R:3 pbc="T T T"
Pb       0.00000000       0.00000000       0.00000000
Pb       3.85802370      -3.99883524       0.00000000
Pb       3.85802370       3.99883524       0.00000000
Pb       7.71604741       0.00000000       0.00000000
Pb       0.00000000       0.00000000       5.57130933
Pb       3.85802370      -3.99883524       5.57130933
Pb       3.85802370       3.99883524       5.57130933
Pb       7.71604741       0.00000000       5.57130933
Cl       2.29058853      -1.64864299       0.42101798
Cl       1.56743517       2.35019226       0.42101798
Cl      -0.55236575      -0.11818546       2.78565467
Cl       5.42545887      -6.34902750      -0.42101798
Cl       6.14861224      -2.35019226      -0.42101798
Cl       4.41038945      -4.11702070       2.78565467
Cl       5.42545887       1.64864299      -0.42101798
Cl       6.14861224       5.64747823      -0.42101798
Cl       4.41038945       3.88064979       2.78565467
Cl      10.00663594      -1.64864299       0.42101798
Cl       9.28348258       2.35019226       0.42101798
Cl       7.16368166      -0.11818546       2.78565467
Cl       2.29058853      -1.64864299       5.15029135
Cl       1.56743517       2.35019226       5.15029135
Cl       0.55236575       0.11818546       8.35696400
Cl       5.42545887      -6.34902750       5.99232731
Cl       6.14861224      -2.35019226       5.99232731
Br       3.30565796      -3.88064979       8.35696400
Cl       5.42545887       1.64864299       5.99232731
Cl       6.14861224       5.64747823       5.99232731
Cl       3.30565796       4.11702070       8.35696400
Cl      10.00663594      -1.64864299       5.15029135
Cl       9.28348258       2.35019226       5.15029135
Cl       8.26841315       0.11818546       8.35696400
Cs       3.73212201       0.45418724       2.78565467
Cs       7.84194910      -3.54464801       2.78565467
Cs       7.84194910       4.45302248       2.78565467
Cs      11.44816941       0.45418724       2.78565467
Cs       3.98392540      -0.45418724       8.35696400
Cs       7.59014571      -4.45302248       8.35696400
Cs       7.59014571       3.54464800       8.35696400
Cs      11.69997281      -0.45418724       8.35696400
40
Lattice="7.7160474075 -7.997670485833334 0.0 7.7160474075 7.997670485833334 0.0 0.0 0.0 11.142618660833334" Properties=species:S:1:pos:R:3 pbc="T T T"
Pb       0.00000000       0.00000000       0.00000000
Pb       3.85802370      -3.99883524       0.00000000
Pb       3.85802370       3.99883524       0.00000000
Pb       7.71604741       0.00000000       0.00000000
Pb       0.00000000       0.00000000       5.57130933
Pb       3.85802370      -3.99883524       5.57130933
Pb       3.85802370       3.99883524       5.57130933
Pb       7.71604741       0.00000000       5.57130933
Cl       2.29058853      -1.64864299       0.42101798
Cl       1.56743517       2.35019226       0.42101798
Cl      -0.55236575      -0.11818546       2.78565467
Cl       5.42545887      -6.34902750      -0.42101798
Cl       6.14861224      -2.35019226      -0.42101798
Cl       4.41038945      -4.11702070       2.78565467
Cl       5.42545887       1.64864299      -0.42101798
Cl       6.14861224       5.64747823      -0.42101798
Cl       4.41038945       3.88064979       2.78565467
Cl      10.00663594      -1.64864299       0.42101798
Cl       9.28348258       2.35019226       0.42101798
Cl       7.16368166      -0.11818546       2.78565467
Cl       2.29058853      -1.64864299       5.15029135
Cl       1.56743517       2.35019226       5.15029135
Cl       0.55236575       0.11818546       8.35696400
Cl       5.42545887      -6.34902750       5.99232731
Br       6.14861224      -2.35019226       5.99232731
Cl       3.30565796      -3.88064979       8.35696400
Cl       5.42545887       1.64864299       5.99232731
Cl       6.14861224       5.64747823       5.99232731
Cl       3.30565796       4.11702070       8.35696400
Cl      10.00663594      -1.64864299       5.15029135
Cl       9.28348258       2.35019226       5.15029135
Cl       8.26841315       0.11818546       8.35696400
Cs       3.73212201       0.45418724       2.78565467
Cs       7.84194910      -3.54464801       2.78565467
Cs       7.84194910       4.45302248       2.78565467
Cs      11.44816941       0.45418724       2.78565467
Cs       3.98392540      -0.45418724       8.35696400
Cs       7.59014571      -4.45302248       8.35696400
Cs       7.59014571       3.54464800       8.35696400
Cs      11.69997281      -0.45418724       8.35696400
40
Lattice="7.7160474075 -7.997670485833334 0.0 7.7160474075 7.997670485833334 0.0 0.0 0.0 11.142618660833334" Properties=species:S:1:pos:R:3 pbc="T T T"
Pb       0.00000000       0.00000000       0.00000000
Pb       3.85802370      -3.99883524       0.00000000
Pb       3.85802370       3.99883524       0.00000000
Pb       7.71604741       0.00000000       0.00000000
Pb       0.00000000       0.00000000       5.57130933
Pb       3.85802370      -3.99883524       5.57130933
Pb       3.85802370       3.99883524       5.57130933
Pb       7.71604741       0.00000000       5.57130933
Cl       2.29058853      -1.64864299       0.42101798
Cl       1.56743517       2.35019226       0.42101798
Cl      -0.55236575      -0.11818546       2.78565467
Cl       5.42545887      -6.34902750      -0.42101798
Cl       6.14861224      -2.35019226      -0.42101798
Cl       4.41038945      -4.11702070       2.78565467
Cl       5.42545887       1.64864299      -0.42101798
Cl       6.14861224       5.64747823      -0.42101798
Cl       4.41038945       3.88064979       2.78565467
Cl      10.00663594      -1.64864299       0.42101798
Cl       9.28348258       2.35019226       0.42101798
Cl       7.16368166      -0.11818546       2.78565467
Cl       2.29058853      -1.64864299       5.15029135
Cl       1.56743517       2.35019226       5.15029135
Cl       0.55236575       0.11818546       8.35696400
Br       5.42545887      -6.34902750       5.99232731
Cl       6.14861224      -2.35019226       5.99232731
Cl       3.30565796      -3.88064979       8.35696400
Cl       5.42545887       1.64864299       5.99232731
Cl       6.14861224       5.64747823       5.99232731
Cl       3.30565796       4.11702070       8.35696400
Cl      10.00663594      -1.64864299       5.15029135
Cl       9.28348258       2.35019226       5.15029135
Cl       8.26841315       0.11818546       8.35696400
Cs       3.73212201       0.45418724       2.78565467
Cs       7.84194910      -3.54464801       2.78565467
Cs       7.84194910       4.45302248       2.78565467
Cs      11.44816941       0.45418724       2.78565467
Cs       3.98392540      -0.45418724       8.35696400
Cs       7.59014571      -4.45302248       8.35696400
Cs       7.59014571       3.54464800       8.35696400
Cs      11.69997281      -0.45418724       8.35696400
40
Lattice="7.7160474075 -7.997670485833334 0.0 7.7160474075 7.997670485833334 0.0 0.0 0.0 11.142618660833334" Properties=species:S:1:pos:R:3 pbc="T T T"
Pb       0.00000000       0.00000000       0.00000000
Pb       3.85802370      -3.99883524       0.00000000
Pb       3.85802370       3.99883524       0.00000000
Pb       7.71604741       0.00000000       0.00000000
Pb       0.00000000       0.00000000       5.57130933
Pb       3.85802370      -3.99883524       5.57130933
Pb       3.85802370       3.99883524       5.57130933
Pb       7.71604741       0.00000000       5.57130933
Cl       2.29058853      -1.64864299       0.42101798
Cl       1.56743517       2.35019226       0.42101798
Cl      -0.55236575      -0.11818546       2.78565467
Cl       5.42545887      -6.34902750      -0.42101798
Cl       6.14861224      -2.35019226      -0.42101798
Cl       4.41038945      -4.11702070       2.78565467
Cl       5.42545887       1.64864299      -0.42101798
Cl       6.14861224       5.64747823      -0.42101798
Cl       4.41038945       3.88064979       2.78565467
Cl      10.00663594      -1.64864299       0.42101798
Cl       9.28348258       2.35019226       0.42101798
Cl       7.16368166      -0.11818546       2.78565467
Cl       2.29058853      -1.64864299       5.15029135
Cl       1.56743517       2.35019226       5.15029135
Br       0.55236575       0.11818546       8.35696400
Cl       5.42545887      -6.34902750       5.99232731
Cl       6.14861224      -2.35019226       5.99232731
Cl       3.30565796      -3.88064979       8.35696400
Cl       5.42545887       1.64864299       5.99232731
Cl       6.14861224       5.64747823       5.99232731
Cl       3.30565796       4.11702070       8.35696400
Cl      10.00663594      -1.64864299       5.15029135
Cl       9.28348258       2.35019226       5.15029135
Cl       8.26841315       0.11818546       8.35696400
Cs       3.73212201       0.45418724       2.78565467
Cs       7.84194910      -3.54464801       2.78565467
Cs       7.84194910       4.45302248       2.78565467
Cs      11.44816941       0.45418724       2.78565467
Cs       3.98392540      -0.45418724       8.35696400
Cs       7.59014571      -4.45302248       8.35696400
Cs       7.59014571       3.54464800       8.35696400
Cs      11.69997281      -0.45418724       8.35696400
40
Lattice="7.7160474075 -7.997670485833334 0.0 7.7160474075 7.997670485833334 0.0 0.0 0.0 11.142618660833334" Properties=species:S:1:pos:R:3 pbc="T T T"
Pb       0.00000000       0.00000000       0.00000000
Pb       3.85802370      -3.99883524       0.00000000
Pb       3.85802370       3.99883524       0.00000000
Pb       7.71604741       0.00000000       0.00000000
Pb       0.00000000       0.00000000       5.57130933
Pb       3.85802370      -3.99883524       5.57130933
Pb       3.85802370       3.99883524       5.57130933
Pb       7.71604741       0.00000000       5.57130933
Cl       2.29058853      -1.64864299       0.42101798
Cl       1.56743517       2.35019226       0.42101798
Cl      -0.55236575      -0.11818546       2.78565467
Cl       5.42545887      -6.34902750      -0.42101798
Cl       6.14861224      -2.35019226      -0.42101798
Cl       4.41038945      -4.11702070       2.78565467
Cl       5.42545887       1.64864299      -0.42101798
Cl       6.14861224       5.64747823      -0.42101798
Cl       4.41038945       3.88064979       2.78565467
Cl      10.00663594      -1.64864299       0.42101798
Cl       9.28348258       2.35019226       0.42101798
Cl       7.16368166      -0.11818546       2.78565467
Cl       2.29058853      -1.64864299       5.15029135
Br       1.56743517       2.35019226       5.15029135
Cl       0.55236575       0.11818546       8.35696400
Cl       5.42545887      -6.34902750       5.99232731
Cl       6.14861224      -2.35019226       5.99232731
Cl       3.30565796      -3.88064979       8.35696400
Cl       5.42545887       1.64864299       5.99232731
Cl       6.14861224       5.64747823       5.99232731
Cl       3.30565796       4.11702070       8.35696400
Cl      10.00663594      -1.64864299       5.15029135
Cl       9.28348258       2.35019226       5.15029135
Cl       8.26841315       0.11818546       8.35696400
Cs       3.73212201       0.45418724       2.78565467
Cs       7.84194910      -3.54464801       2.78565467
Cs       7.84194910       4.45302248       2.78565467
Cs      11.44816941       0.45418724       2.78565467
Cs       3.98392540      -0.45418724       8.35696400
Cs       7.59014571      -4.45302248       8.35696400
Cs       7.59014571       3.54464800       8.35696400
Cs      11.69997281      -0.45418724       8.35696400
40
Lattice="7.7160474075 -7.997670485833334 0.0 7.7160474075 7.997670485833334 0.0 0.0 0.0 11.142618660833334" Properties=species:S:1:pos:R:3 pbc="T T T"
Pb       0.00000000       0.00000000       0.00000000
Pb       3.85802370      -3.99883524       0.00000000
Pb       3.85802370       3.99883524       0.00000000
Pb       7.71604741       0.00000000       0.00000000
Pb       0.00000000       0.00000000       5.57130933
Pb       3.85802370      -3.99883524       5.57130933
Pb       3.85802370       3.99883524       5.57130933
Pb       7.71604741       0.00000000       5.57130933
Cl       2.29058853      -1.64864299       0.42101798
Cl       1.56743517       2.35019226       0.42101798
Cl      -0.55236575      -0.11818546       2.78565467
Cl       5.42545887      -6.34902750      -0.42101798
Cl       6.14861224      -2.35019226      -0.42101798
Cl       4.41038945      -4.11702070       2.78565467
Cl       5.42545887       1.64864299      -0.42101798
Cl       6.14861224       5.64747823      -0.42101798
Cl       4.41038945       3.88064979       2.78565467
Cl      10.00663594      -1.64864299       0.42101798
Cl       9.28348258       2.35019226       0.42101798
Cl       7.16368166      -0.11818546       2.78565467
Br       2.29058853      -1.64864299       5.15029135
Cl       1.56743517       2.35019226       5.15029135
Cl       0.55236575       0.11818546       8.35696400
Cl       5.42545887      -6.34902750       5.99232731
Cl       6.14861224      -2.35019226       5.99232731
Cl       3.30565796      -3.88064979       8.35696400
Cl       5.42545887       1.64864299       5.99232731
Cl       6.14861224       5.64747823       5.99232731
Cl       3.30565796       4.11702070       8.35696400
Cl      10.00663594      -1.64864299       5.15029135
Cl       9.28348258       2.35019226       5.15029135
Cl       8.26841315       0.11818546       8.35696400
Cs       3.73212201       0.45418724       2.78565467
Cs       7.84194910      -3.54464801       2.78565467
Cs       7.84194910       4.45302248       2.78565467
Cs      11.44816941       0.45418724       2.78565467
Cs       3.98392540      -0.45418724       8.35696400
Cs       7.59014571      -4.45302248       8.35696400
Cs       7.59014571       3.54464800       8.35696400
Cs      11.69997281      -0.45418724       8.35696400
40
Lattice="7.7160474075 -7.997670485833334 0.0 7.7160474075 7.997670485833334 0.0 0.0 0.0 11.142618660833334" Properties=species:S:1:pos:R:3 pbc="T T T"
Pb       0.00000000       0.00000000       0.00000000
Pb       3.85802370      -3.99883524       0.00000000
Pb       3.85802370       3.99883524       0.00000000
Pb       7.71604741       0.00000000       0.00000000
Pb       0.00000000       0.00000000       5.57130933
Pb       3.85802370      -3.99883524       5.57130933
Pb       3.85802370       3.99883524       5.57130933
Pb       7.71604741       0.00000000       5.57130933
Cl       2.29058853      -1.64864299       0.42101798
Cl       1.56743517       2.35019226       0.42101798
Cl      -0.55236575      -0.11818546       2.78565467
Cl       5.42545887      -6.34902750      -0.42101798
Cl       6.14861224      -2.35019226      -0.42101798
Cl       4.41038945      -4.11702070       2.78565467
Cl       5.42545887       1.64864299      -0.42101798
Cl       6.14861224       5.64747823      -0.42101798
Cl       4.41038945       3.88064979       2.78565467
Cl      10.00663594      -1.64864299       0.42101798
Cl       9.28348258       2.35019226       0.42101798
Br       7.16368166      -0.11818546       2.78565467
Cl       2.29058853      -1.64864299       5.15029135
Cl       1.56743517       2.35019226       5.15029135
Cl       0.55236575       0.11818546       8.35696400
Cl       5.42545887      -6.34902750       5.99232731
Cl       6.14861224      -2.35019226       5.99232731
Cl       3.30565796      -3.88064979       8.35696400
Cl       5.42545887       1.64864299       5.99232731
Cl       6.14861224       5.64747823       5.99232731
Cl       3.30565796       4.11702070       8.35696400
Cl      10.00663594      -1.64864299       5.15029135
Cl       9.28348258       2.35019226       5.15029135
Cl       8.26841315       0.11818546       8.35696400
Cs       3.73212201       0.45418724       2.78565467
Cs       7.84194910      -3.54464801       2.78565467
Cs       7.84194910       4.45302248       2.78565467
Cs      11.44816941       0.45418724       2.78565467
Cs       3.98392540      -0.45418724       8.35696400
Cs       7.59014571      -4.45302248       8.35696400
Cs       7.59014571       3.54464800       8.35696400
Cs      11.69997281      -0.45418724       8.35696400
40
Lattice="7.7160474075 -7.997670485833334 0.0 7.7160474075 7.997670485833334 0.0 0.0 0.0 11.142618660833334" Properties=species:S:1:pos:R:3 pbc="T T T"
Pb       0.00000000       0.00000000       0.00000000
Pb       3.85802370      -3.99883524       0.00000000
Pb       3.85802370       3.99883524       0.00000000
Pb       7.71604741       0.00000000       0.00000000
Pb       0.00000000       0.00000000       5.57130933
Pb       3.85802370      -3.99883524       5.57130933
Pb       3.85802370       3.99883524       5.57130933
Pb       7.71604741       0.00000000       5.57130933
Cl       2.29058853      -1.64864299       0.42101798
Cl       1.56743517       2.35019226       0.42101798
Cl      -0.55236575      -0.11818546       2.78565467
Cl       5.42545887      -6.34902750      -0.42101798
Cl       6.14861224      -2.35019226      -0.42101798
Cl       4.41038945      -4.11702070       2.78565467
Cl       5.42545887       1.64864299      -0.42101798
Cl       6.14861224       5.64747823      -0.42101798
Cl       4.41038945       3.88064979       2.78565467
Cl      10.00663594      -1.64864299       0.42101798
Br       9.28348258       2.35019226       0.42101798
Cl       7.16368166      -0.11818546       2.78565467
Cl       2.29058853      -1.64864299       5.15029135
Cl       1.56743517       2.35019226       5.15029135
Cl       0.55236575       0.11818546       8.35696400
Cl       5.42545887      -6.34902750       5.99232731
Cl       6.14861224      -2.35019226       5.99232731
Cl       3.30565796      -3.88064979       8.35696400
Cl       5.42545887       1.64864299       5.99232731
Cl       6.14861224       5.64747823       5.99232731
Cl       3.30565796       4.11702070       8.35696400
Cl      10.00663594      -1.64864299       5.15029135
Cl       9.28348258       2.35019226       5.15029135
Cl       8.26841315       0.11818546       8.35696400
Cs       3.73212201       0.45418724       2.78565467
Cs       7.84194910      -3.54464801       2.78565467
Cs       7.84194910       4.45302248       2.78565467
Cs      11.44816941       0.45418724       2.78565467
Cs       3.98392540      -0.45418724       8.35696400
Cs       7.59014571      -4.45302248       8.35696400
Cs       7.59014571       3.54464800       8.35696400
Cs      11.69997281      -0.45418724       8.35696400
40
Lattice="7.7160474075 -7.997670485833334 0.0 7.7160474075 7.997670485833334 0.0 0.0 0.0 11.142618660833334" Properties=species:S:1:pos:R:3 pbc="T T T"
Pb       0.00000000       0.00000000       0.00000000
Pb       3.85802370      -3.99883524       0.00000000
Pb       3.85802370       3.99883524       0.00000000
Pb       7.71604741       0.00000000       0.00000000
Pb       0.00000000       0.00000000       5.57130933
Pb       3.85802370      -3.99883524       5.57130933
Pb       3.85802370       3.99883524       5.57130933
Pb       7.71604741       0.00000000       5.57130933
Cl       2.29058853      -1.64864299       0.42101798
Cl       1.56743517       2.35019226       0.42101798
Cl      -0.55236575      -0.11818546       2.78565467
Cl       5.42545887      -6.34902750      -0.42101798
Cl       6.14861224      -2.35019226      -0.42101798
Cl       4.41038945      -4.11702070       2.78565467
Cl       5.42545887       1.64864299      -0.42101798
Cl       6.14861224       5.64747823      -0.42101798
Cl       4.41038945       3.88064979       2.78565467
Br      10.00663594      -1.64864299       0.42101798
Cl       9.28348258       2.35019226       0.42101798
Cl       7.16368166      -0.11818546       2.78565467
Cl       2.29058853      -1.64864299       5.15029135
Cl       1.56743517       2.35019226       5.15029135
Cl       0.55236575       0.11818546       8.35696400
Cl       5.42545887      -6.34902750       5.99232731
Cl       6.14861224      -2.35019226       5.99232731
Cl       3.30565796      -3.88064979       8.35696400
Cl       5.42545887       1.64864299       5.99232731
Cl       6.14861224       5.64747823       5.99232731
Cl       3.30565796       4.11702070       8.35696400
Cl      10.00663594      -1.64864299       5.15029135
Cl       9.28348258       2.35019226       5.15029135
Cl       8.26841315       0.11818546       8.35696400
Cs       3.73212201       0.45418724       2.78565467
Cs       7.84194910      -3.54464801       2.78565467
Cs       7.84194910       4.45302248       2.78565467
Cs      11.44816941       0.45418724       2.78565467
Cs       3.98392540      -0.45418724       8.35696400
Cs       7.59014571      -4.45302248       8.35696400
Cs       7.59014571       3.54464800       8.35696400
Cs      11.69997281      -0.45418724       8.35696400
40
Lattice="7.7160474075 -7.997670485833334 0.0 7.7160474075 7.997670485833334 0.0 0.0 0.0 11.142618660833334" Properties=species:S:1:pos:R:3 pbc="T T T"
Pb       0.00000000       0.00000000       0.00000000
Pb       3.85802370      -3.99883524       0.00000000
Pb       3.85802370       3.99883524       0.00000000
Pb       7.71604741       0.00000000       0.00000000
Pb       0.00000000       0.00000000       5.57130933
Pb       3.85802370      -3.99883524       5.57130933
Pb       3.85802370       3.99883524       5.57130933
Pb       7.71604741       0.00000000       5.57130933
Cl       2.29058853      -1.64864299       0.42101798
Cl       1.56743517       2.35019226       0.42101798
Cl      -0.55236575      -0.11818546       2.78565467
Cl       5.42545887      -6.34902750      -0.42101798
Cl       6.14861224      -2.35019226      -0.42101798
Cl       4.41038945      -4.11702070       2.78565467
Cl       5.42545887       1.64864299      -0.42101798
Cl       6.14861224       5.64747823      -0.42101798
Br       4.41038945       3.88064979       2.78565467
Cl      10.00663594      -1.64864299       0.42101798
Cl       9.28348258       2.35019226       0.42101798
Cl       7.16368166      -0.11818546       2.78565467
Cl       2.29058853      -1.64864299       5.15029135
Cl       1.56743517       2.35019226       5.15029135
Cl       0.55236575       0.11818546       8.35696400
Cl       5.42545887      -6.34902750       5.99232731
Cl       6.14861224      -2.35019226       5.99232731
Cl       3.30565796      -3.88064979       8.35696400
Cl       5.42545887       1.64864299       5.99232731
Cl       6.14861224       5.64747823       5.99232731
Cl       3.30565796       4.11702070       8.35696400
Cl      10.00663594      -1.64864299       5.15029135
Cl       9.28348258       2.35019226       5.15029135
Cl       8.26841315       0.11818546       8.35696400
Cs       3.73212201       0.45418724       2.78565467
Cs       7.84194910      -3.54464801       2.78565467
Cs       7.84194910       4.45302248       2.78565467
Cs      11.44816941       0.45418724       2.78565467
Cs       3.98392540      -0.45418724       8.35696400
Cs       7.59014571      -4.45302248       8.35696400
Cs       7.59014571       3.54464800       8.35696400
Cs      11.69997281      -0.45418724       8.35696400
40
Lattice="7.7160474075 -7.997670485833334 0.0 7.7160474075 7.997670485833334 0.0 0.0 0.0 11.142618660833334" Properties=species:S:1:pos:R:3 pbc="T T T"
Pb       0.00000000       0.00000000       0.00000000
Pb       3.85802370      -3.99883524       0.00000000
Pb       3.85802370       3.99883524       0.00000000
Pb       7.71604741       0.00000000       0.00000000
Pb       0.00000000       0.00000000       5.57130933
Pb       3.85802370      -3.99883524       5.57130933
Pb       3.85802370       3.99883524       5.57130933
Pb       7.71604741       0.00000000       5.57130933
Cl       2.29058853      -1.64864299       0.42101798
Cl       1.56743517       2.35019226       0.42101798
Cl      -0.55236575      -0.11818546       2.78565467
Cl       5.42545887      -6.34902750      -0.42101798
Cl       6.14861224      -2.35019226      -0.42101798
Cl       4.41038945      -4.11702070       2.78565467
Cl       5.42545887       1.64864299      -0.42101798
Br       6.14861224       5.64747823      -0.42101798
Cl       4.41038945       3.88064979       2.78565467
Cl      10.00663594      -1.64864299       0.42101798
Cl       9.28348258       2.35019226       0.42101798
Cl       7.16368166      -0.11818546       2.78565467
Cl       2.29058853      -1.64864299       5.15029135
Cl       1.56743517       2.35019226       5.15029135
Cl       0.55236575       0.11818546       8.35696400
Cl       5.42545887      -6.34902750       5.99232731
Cl       6.14861224      -2.35019226       5.99232731
Cl       3.30565796      -3.88064979       8.35696400
Cl       5.42545887       1.64864299       5.99232731
Cl       6.14861224       5.64747823       5.99232731
Cl       3.30565796       4.11702070       8.35696400
Cl      10.00663594      -1.64864299       5.15029135
Cl       9.28348258       2.35019226       5.15029135
Cl       8.26841315       0.11818546       8.35696400
Cs       3.73212201       0.45418724       2.78565467
Cs       7.84194910      -3.54464801       2.78565467
Cs       7.84194910       4.45302248       2.78565467
Cs      11.44816941       0.45418724       2.78565467
Cs       3.98392540      -0.45418724       8.35696400
Cs       7.59014571      -4.45302248       8.35696400
Cs       7.59014571       3.54464800       8.35696400
Cs      11.69997281      -0.45418724       8.35696400
40
Lattice="7.7160474075 -7.997670485833334 0.0 7.7160474075 7.997670485833334 0.0 0.0 0.0 11.142618660833334" Properties=species:S:1:pos:R:3 pbc="T T T"
Pb       0.00000000       0.00000000       0.00000000
Pb       3.85802370      -3.99883524       0.00000000
Pb       3.85802370       3.99883524       0.00000000
Pb       7.71604741       0.00000000       0.00000000
Pb       0.00000000       0.00000000       5.57130933
Pb       3.85802370      -3.99883524       5.57130933
Pb       3.85802370       3.99883524       5.57130933
Pb       7.71604741       0.00000000       5.57130933
Cl       2.29058853      -1.64864299       0.42101798
Cl       1.56743517       2.35019226       0.42101798
Cl      -0.55236575      -0.11818546       2.78565467
Cl       5.42545887      -6.34902750      -0.42101798
Cl       6.14861224      -2.35019226      -0.42101798
Cl       4.41038945      -4.11702070       2.78565467
Br       5.42545887       1.64864299      -0.42101798
Cl       6.14861224       5.64747823      -0.42101798
Cl       4.41038945       3.88064979       2.78565467
Cl      10.00663594      -1.64864299       0.42101798
Cl       9.28348258       2.35019226       0.42101798
Cl       7.16368166      -0.11818546       2.78565467
Cl       2.29058853      -1.64864299       5.15029135
Cl       1.56743517       2.35019226       5.15029135
Cl       0.55236575       0.11818546       8.35696400
Cl       5.42545887      -6.34902750       5.99232731
Cl       6.14861224      -2.35019226       5.99232731
Cl       3.30565796      -3.88064979       8.35696400
Cl       5.42545887       1.64864299       5.99232731
Cl       6.14861224       5.64747823       5.99232731
Cl       3.30565796       4.11702070       8.35696400
Cl      10.00663594      -1.64864299       5.15029135
Cl       9.28348258       2.35019226       5.15029135
Cl       8.26841315       0.11818546       8.35696400
Cs       3.73212201       0.45418724       2.78565467
Cs       7.84194910      -3.54464801       2.78565467
Cs       7.84194910       4.45302248       2.78565467
Cs      11.44816941       0.45418724       2.78565467
Cs       3.98392540      -0.45418724       8.35696400
Cs       7.59014571      -4.45302248       8.35696400
Cs       7.59014571       3.54464800       8.35696400
Cs      11.69997281      -0.45418724       8.35696400
40
Lattice="7.7160474075 -7.997670485833334 0.0 7.7160474075 7.997670485833334 0.0 0.0 0.0 11.142618660833334" Properties=species:S:1:pos:R:3 pbc="T T T"
Pb       0.00000000       0.00000000       0.00000000
Pb       3.85802370      -3.99883524       0.00000000
Pb       3.85802370       3.99883524       0.00000000
Pb       7.71604741       0.00000000       0.00000000
Pb       0.00000000       0.00000000       5.57130933
Pb       3.85802370      -3.99883524       5.57130933
Pb       3.85802370       3.99883524       5.57130933
Pb       7.71604741       0.00000000       5.57130933
Cl       2.29058853      -1.64864299       0.42101798
Cl       1.56743517       2.35019226       0.42101798
Cl      -0.55236575      -0.11818546       2.78565467
Cl       5.42545887      -6.34902750      -0.42101798
Cl       6.14861224      -2.35019226      -0.42101798
Br       4.41038945      -4.11702070       2.78565467
Cl       5.42545887       1.64864299      -0.42101798
Cl       6.14861224       5.64747823      -0.42101798
Cl       4.41038945       3.88064979       2.78565467
Cl      10.00663594      -1.64864299       0.42101798
Cl       9.28348258       2.35019226       0.42101798
Cl       7.16368166      -0.11818546       2.78565467
Cl       2.29058853      -1.64864299       5.15029135
Cl       1.56743517       2.35019226       5.15029135
Cl       0.55236575       0.11818546       8.35696400
Cl       5.42545887      -6.34902750       5.99232731
Cl       6.14861224      -2.35019226       5.99232731
Cl       3.30565796      -3.88064979       8.35696400
Cl       5.42545887       1.64864299       5.99232731
Cl       6.14861224       5.64747823       5.99232731
Cl       3.30565796       4.11702070       8.35696400
Cl      10.00663594      -1.64864299       5.15029135
Cl       9.28348258       2.35019226       5.15029135
Cl       8.26841315       0.11818546       8.35696400
Cs       3.73212201       0.45418724       2.78565467
Cs       7.84194910      -3.54464801       2.78565467
Cs       7.84194910       4.45302248       2.78565467
Cs      11.44816941       0.45418724       2.78565467
Cs       3.98392540      -0.45418724       8.35696400
Cs       7.59014571      -4.45302248       8.35696400
Cs       7.59014571       3.54464800       8.35696400
Cs      11.69997281      -0.45418724       8.35696400
40
Lattice="7.7160474075 -7.997670485833334 0.0 7.7160474075 7.997670485833334 0.0 0.0 0.0 11.142618660833334" Properties=species:S:1:pos:R:3 pbc="T T T"
Pb       0.00000000       0.00000000       0.00000000
Pb       3.85802370      -3.99883524       0.00000000
Pb       3.85802370       3.99883524       0.00000000
Pb       7.71604741       0.00000000       0.00000000
Pb       0.00000000       0.00000000       5.57130933
Pb       3.85802370      -3.99883524       5.57130933
Pb       3.85802370       3.99883524       5.57130933
Pb       7.71604741       0.00000000       5.57130933
Cl       2.29058853      -1.64864299       0.42101798
Cl       1.56743517       2.35019226       0.42101798
Cl      -0.55236575      -0.11818546       2.78565467
Cl       5.42545887      -6.34902750      -0.42101798
Br       6.14861224      -2.35019226      -0.42101798
Cl       4.41038945      -4.11702070       2.78565467
Cl       5.42545887       1.64864299      -0.42101798
Cl       6.14861224       5.64747823      -0.42101798
Cl       4.41038945       3.88064979       2.78565467
Cl      10.00663594      -1.64864299       0.42101798
Cl       9.28348258       2.35019226       0.42101798
Cl       7.16368166      -0.11818546       2.78565467
Cl       2.29058853      -1.64864299       5.15029135
Cl       1.56743517       2.35019226       5.15029135
Cl       0.55236575       0.11818546       8.35696400
Cl       5.42545887      -6.34902750       5.99232731
Cl       6.14861224      -2.35019226       5.99232731
Cl       3.30565796      -3.88064979       8.35696400
Cl       5.42545887       1.64864299       5.99232731
Cl       6.14861224       5.64747823       5.99232731
Cl       3.30565796       4.11702070       8.35696400
Cl      10.00663594      -1.64864299       5.15029135
Cl       9.28348258       2.35019226       5.15029135
Cl       8.26841315       0.11818546       8.35696400
Cs       3.73212201       0.45418724       2.78565467
Cs       7.84194910      -3.54464801       2.78565467
Cs       7.84194910       4.45302248       2.78565467
Cs      11.44816941       0.45418724       2.78565467
Cs       3.98392540      -0.45418724       8.35696400
Cs       7.59014571      -4.45302248       8.35696400
Cs       7.59014571       3.54464800       8.35696400
Cs      11.69997281      -0.45418724       8.35696400
40
Lattice="7.7160474075 -7.997670485833334 0.0 7.7160474075 7.997670485833334 0.0 0.0 0.0 11.142618660833334" Properties=species:S:1:pos:R:3 pbc="T T T"
Pb       0.00000000       0.00000000       0.00000000
Pb       3.85802370      -3.99883524       0.00000000
Pb       3.85802370       3.99883524       0.00000000
Pb       7.71604741       0.00000000       0.00000000
Pb       0.00000000       0.00000000       5.57130933
Pb       3.85802370      -3.99883524       5.57130933
Pb       3.85802370       3.99883524       5.57130933
Pb       7.71604741       0.00000000       5.57130933
Cl       2.29058853      -1.64864299       0.42101798
Cl       1.56743517       2.35019226       0.42101798
Cl      -0.55236575      -0.11818546       2.78565467
Br       5.42545887      -6.34902750      -0.42101798
Cl       6.14861224      -2.35019226      -0.42101798
Cl       4.41038945      -4.11702070       2.78565467
Cl       5.42545887       1.64864299      -0.42101798
Cl       6.14861224       5.64747823      -0.42101798
Cl       4.41038945       3.88064979       2.78565467
Cl      10.00663594      -1.64864299       0.42101798
Cl       9.28348258       2.35019226       0.42101798
Cl       7.16368166      -0.11818546       2.78565467
Cl       2.29058853      -1.64864299       5.15029135
Cl       1.56743517       2.35019226       5.15029135
Cl       0.55236575       0.11818546       8.35696400
Cl       5.42545887      -6.34902750       5.99232731
Cl       6.14861224      -2.35019226       5.99232731
Cl       3.30565796      -3.88064979       8.35696400
Cl       5.42545887       1.64864299       5.99232731
Cl       6.14861224       5.64747823       5.99232731
Cl       3.30565796       4.11702070       8.35696400
Cl      10.00663594      -1.64864299       5.15029135
Cl       9.28348258       2.35019226       5.15029135
Cl       8.26841315       0.11818546       8.35696400
Cs       3.73212201       0.45418724       2.78565467
Cs       7.84194910      -3.54464801       2.78565467
Cs       7.84194910       4.45302248       2.78565467
Cs      11.44816941       0.45418724       2.78565467
Cs       3.98392540      -0.45418724       8.35696400
Cs       7.59014571      -4.45302248       8.35696400
Cs       7.59014571       3.54464800       8.35696400
Cs      11.69997281      -0.45418724       8.35696400
40
Lattice="7.7160474075 -7.997670485833334 0.0 7.7160474075 7.997670485833334 0.0 0.0 0.0 11.142618660833334" Properties=species:S:1:pos:R:3 pbc="T T T"
Pb       0.00000000       0.00000000       0.00000000
Pb       3.85802370      -3.99883524       0.00000000
Pb       3.85802370       3.99883524       0.00000000
Pb       7.71604741       0.00000000       0.00000000
Pb       0.00000000       0.00000000       5.57130933
Pb       3.85802370      -3.99883524       5.57130933
Pb       3.85802370       3.99883524       5.57130933
Pb       7.71604741       0.00000000       5.57130933
Cl       2.29058853      -1.64864299       0.42101798
Cl       1.56743517       2.35019226       0.42101798
Br      -0.55236575      -0.11818546       2.78565467
Cl       5.42545887      -6.34902750      -0.42101798
Cl       6.14861224      -2.35019226      -0.42101798
Cl       4.41038945      -4.11702070       2.78565467
Cl       5.42545887       1.64864299      -0.42101798
Cl       6.14861224       5.64747823      -0.42101798
Cl       4.41038945       3.88064979       2.78565467
Cl      10.00663594      -1.64864299       0.42101798
Cl       9.28348258       2.35019226       0.42101798
Cl       7.16368166      -0.11818546       2.78565467
Cl       2.29058853      -1.64864299       5.15029135
Cl       1.56743517       2.35019226       5.15029135
Cl       0.55236575       0.11818546       8.35696400
Cl       5.42545887      -6.34902750       5.99232731
Cl       6.14861224      -2.35019226       5.99232731
Cl       3.30565796      -3.88064979       8.35696400
Cl       5.42545887       1.64864299       5.99232731
Cl       6.14861224       5.64747823       5.99232731
Cl       3.30565796       4.11702070       8.35696400
Cl      10.00663594      -1.64864299       5.15029135
Cl       9.28348258       2.35019226       5.15029135
Cl       8.26841315       0.11818546       8.35696400
Cs       3.73212201       0.45418724       2.78565467
Cs       7.84194910      -3.54464801       2.78565467
Cs       7.84194910       4.45302248       2.78565467
Cs      11.44816941       0.45418724       2.78565467
Cs       3.98392540      -0.45418724       8.35696400
Cs       7.59014571      -4.45302248       8.35696400
Cs       7.59014571       3.54464800       8.35696400
Cs      11.69997281      -0.45418724       8.35696400
40
Lattice="7.7160474075 -7.997670485833334 0.0 7.7160474075 7.997670485833334 0.0 0.0 0.0 11.142618660833334" Properties=species:S:1:pos:R:3 pbc="T T T"
Pb       0.00000000       0.00000000       0.00000000
Pb       3.85802370      -3.99883524       0.00000000
Pb       3.85802370       3.99883524       0.00000000
Pb       7.71604741       0.00000000       0.00000000
Pb       0.00000000       0.00000000       5.57130933
Pb       3.85802370      -3.99883524       5.57130933
Pb       3.85802370       3.99883524       5.57130933
Pb       7.71604741       0.00000000       5.57130933
Cl       2.29058853      -1.64864299       0.42101798
Br       1.56743517       2.35019226       0.42101798
Cl      -0.55236575      -0.11818546       2.78565467
Cl       5.42545887      -6.34902750      -0.42101798
Cl       6.14861224      -2.35019226      -0.42101798
Cl       4.41038945      -4.11702070       2.78565467
Cl       5.42545887       1.64864299      -0.42101798
Cl       6.14861224       5.64747823      -0.42101798
Cl       4.41038945       3.88064979       2.78565467
Cl      10.00663594      -1.64864299       0.42101798
Cl       9.28348258       2.35019226       0.42101798
Cl       7.16368166      -0.11818546       2.78565467
Cl       2.29058853      -1.64864299       5.15029135
Cl       1.56743517       2.35019226       5.15029135
Cl       0.55236575       0.11818546       8.35696400
Cl       5.42545887      -6.34902750       5.99232731
Cl       6.14861224      -2.35019226       5.99232731
Cl       3.30565796      -3.88064979       8.35696400
Cl       5.42545887       1.64864299       5.99232731
Cl       6.14861224       5.64747823       5.99232731
Cl       3.30565796       4.11702070       8.35696400
Cl      10.00663594      -1.64864299       5.15029135
Cl       9.28348258       2.35019226       5.15029135
Cl       8.26841315       0.11818546       8.35696400
Cs       3.73212201       0.45418724       2.78565467
Cs       7.84194910      -3.54464801       2.78565467
Cs       7.84194910       4.45302248       2.78565467
Cs      11.44816941       0.45418724       2.78565467
Cs       3.98392540      -0.45418724       8.35696400
Cs       7.59014571      -4.45302248       8.35696400
Cs       7.59014571       3.54464800       8.35696400
Cs      11.69997281      -0.45418724       8.35696400
40
Lattice="7.7160474075 -7.997670485833334 0.0 7.7160474075 7.997670485833334 0.0 0.0 0.0 11.142618660833334" Properties=species:S:1:pos:R:3 pbc="T T T"
Pb       0.00000000       0.00000000       0.00000000
Pb       3.85802370      -3.99883524       0.00000000
Pb       3.85802370       3.99883524       0.00000000
Pb       7.71604741       0.00000000       0.00000000
Pb       0.00000000       0.00000000       5.57130933
Pb       3.85802370      -3.99883524       5.57130933
Pb       3.85802370       3.99883524       5.57130933
Pb       7.71604741       0.00000000       5.57130933
Br       2.29058853      -1.64864299       0.42101798
Cl       1.56743517       2.35019226       0.42101798
Cl      -0.55236575      -0.11818546       2.78565467
Cl       5.42545887      -6.34902750      -0.42101798
Cl       6.14861224      -2.35019226      -0.42101798
Cl       4.41038945      -4.11702070       2.78565467
Cl       5.42545887       1.64864299      -0.42101798
Cl       6.14861224       5.64747823      -0.42101798
Cl       4.41038945       3.88064979       2.78565467
Cl      10.00663594      -1.64864299       0.42101798
Cl       9.28348258       2.35019226       0.42101798
Cl       7.16368166      -0.11818546       2.78565467
Cl       2.29058853      -1.64864299       5.15029135
Cl       1.56743517       2.35019226       5.15029135
Cl       0.55236575       0.11818546       8.35696400
Cl       5.42545887      -6.34902750       5.99232731
Cl       6.14861224      -2.35019226       5.99232731
Cl       3.30565796      -3.88064979       8.35696400
Cl       5.42545887       1.64864299       5.99232731
Cl       6.14861224       5.64747823       5.99232731
Cl       3.30565796       4.11702070       8.35696400
Cl      10.00663594      -1.64864299       5.15029135
Cl       9.28348258       2.35019226       5.15029135
Cl       8.26841315       0.11818546       8.35696400
Cs       3.73212201       0.45418724       2.78565467
Cs       7.84194910      -3.54464801       2.78565467
Cs       7.84194910       4.45302248       2.78565467
Cs      11.44816941       0.45418724       2.78565467
Cs       3.98392540      -0.45418724       8.35696400
Cs       7.59014571      -4.45302248       8.35696400
Cs       7.59014571       3.54464800       8.35696400
Cs      11.69997281      -0.45418724       8.35696400
