40
Lattice="7.943296491467492 -8.464399987512685 7.134268467433094e-13 7.943296515416791 8.46440001054197 4.3138545531020463e-13 8.34493012716017e-13 -1.9691700514616122e-13 11.652729515075151" Properties=species:S:1:pos:R:3:forces:R:3 energy=-8154836.857521129 stress="3.6862568437208064e-05 5.58119070376321e-09 -3.4136970884998974e-13 5.58119070376321e-09 -0.00010233198598927255 -3.3722835613421055e-13 -3.4136970884998974e-13 -3.3722835613421055e-13 -0.0001097341360977391" pbc="T T T"
Pb       0.00011037      -0.00008705       0.00006840      -0.00108768       0.00080919      -0.00050888
Pb       3.97171591      -4.23227111      -0.00001247      -0.00069405       0.00084407       0.00015493
Pb       3.97171592       4.23212889      -0.00001247      -0.00069405       0.00084407       0.00015493
Pb       7.94340688      -0.00008703       0.00006840      -0.00108768       0.00080919      -0.00050888
Pb       0.00011038      -0.00008705       5.82629636      -0.00108768       0.00080919       0.00050887
Pb       3.97171591      -4.23227111       5.82637723      -0.00069405       0.00084407      -0.00015494
Pb       3.97171592       4.23212889       5.82637723      -0.00069405       0.00084407      -0.00015494
Pb       7.94340688      -0.00008703       5.82629636      -0.00108768       0.00080919       0.00050886
Br       2.40058940      -1.72488979       0.44069729       0.00359420      -0.00011762       0.00163508
Br       1.57095986       2.50720916       0.44070132      -0.00264488       0.00087047       0.00161618
Br      -0.58537039      -0.13067196       2.91318238       0.00229596       0.00115232       0.00000000
Br       5.54253496      -6.73933758      -0.44070409      -0.00184649      -0.00165980      -0.00160170
Br       6.37232358      -2.50722564      -0.44070024       0.00272475      -0.00074391      -0.00162086
Br       4.55703105      -4.36287502       2.91318238      -0.00239333       0.00117202       0.00000001
Br       5.54253497       1.72506242      -0.44070409      -0.00184649      -0.00165980      -0.00160170
Br       6.37232359       5.95717436      -0.44070024       0.00272475      -0.00074391      -0.00162086
Br       4.55703106       4.10152498       2.91318238      -0.00239333       0.00117202       0.00000001
Br      10.34388590      -1.72488978       0.44069729       0.00359420      -0.00011762       0.00163508
Br       9.51425636       2.50720917       0.44070132      -0.00264488       0.00087047       0.00161618
Br       7.35792611      -0.13067195       2.91318238       0.00229596       0.00115232       0.00000001
Br       2.40058940      -1.72488979       5.38566746       0.00359420      -0.00011762      -0.00163508
Br       1.57095986       2.50720916       5.38566344      -0.00264489       0.00087047      -0.00161618
Br       0.58539330       0.13067300       8.73954714      -0.00246273      -0.00114510       0.00000000
Br       5.54253496      -6.73933758       6.26706885      -0.00184649      -0.00165980       0.00160170
Br       6.37232358      -2.50722564       6.26706500       0.00272475      -0.00074391       0.00162086
Br       3.38626682      -4.10152936       8.73954714       0.00236909      -0.00112696       0.00000001
Br       5.54253497       1.72506242       6.26706885      -0.00184649      -0.00165980       0.00160170
Br       6.37232359       5.95717436       6.26706500       0.00272475      -0.00074391       0.00162086
Br       3.38626683       4.36287064       8.73954714       0.00236909      -0.00112696       0.00000000
Br      10.34388590      -1.72488978       5.38566746       0.00359420      -0.00011762      -0.00163508
Br       9.51425636       2.50720917       5.38566344      -0.00264488       0.00087047      -0.00161618
Br       8.52868981       0.13067301       8.73954714      -0.00246273      -0.00114510       0.00000001
Cs       3.78422882       0.56210259       2.91318238       0.00043553      -0.00144776       0.00000000
Cs       8.13071105      -3.67009260       2.91318238      -0.00038565      -0.00148953       0.00000000
Cs       8.13071106       4.79430739       2.91318238      -0.00038565      -0.00148953       0.00000000
Cs      11.72752533       0.56210260       2.91318238       0.00043553      -0.00144776       0.00000000
Cs       4.15906028      -0.56210412       8.73954714      -0.00036573       0.00146118       0.00000000
Cs       7.75587936      -4.79429858       8.73954714       0.00041516       0.00141902       0.00000000
Cs       7.75587937       3.67010142       8.73954714       0.00041516       0.00141902       0.00000000
Cs      12.10235678      -0.56210411       8.73954714      -0.00036573       0.00146118       0.00000000
